%YAML 1.1
%TAG !u! tag:unity3d.com,2011:
--- !u!74 &7400000
AnimationClip:
  serializedVersion: 6
  m_ObjectHideFlags: 0
  m_PrefabParentObject: {fileID: 0}
  m_PrefabInternal: {fileID: 0}
  m_Name: bbGivePrize
  m_Legacy: 0
  m_Compressed: 0
  m_UseHighQualityCurve: 1
  m_RotationCurves:
  - curve:
      serializedVersion: 2
      m_Curve:
      - serializedVersion: 2
        time: 0
        value: {x: -0, y: 0.026512211, z: -0, w: -0.9996485}
        inSlope: {x: 0, y: 0, z: 0, w: 0}
        outSlope: {x: 0, y: 0, z: 0, w: 0}
        tangentMode: 1
      - serializedVersion: 2
        time: 0.016666668
        value: {x: -0, y: 0.026512211, z: -0, w: -0.9996485}
        inSlope: {x: 0, y: 0.033816062, z: 0, w: 0.0009173154}
        outSlope: {x: 0, y: 0.033816062, z: 0, w: 0.0009173154}
        tangentMode: 1
      - serializedVersion: 2
        time: 0.033333335
        value: {x: -0, y: 0.027639413, z: -0, w: -0.99961793}
        inSlope: {x: 0, y: 0.13294798, z: 0, w: 0.003821253}
        outSlope: {x: 0, y: 0.13294798, z: 0, w: 0.0038212533}
        tangentMode: 1
      - serializedVersion: 2
        time: 0.050000004
        value: {x: -0, y: 0.030943811, z: -0, w: -0.99952114}
        inSlope: {x: 0, y: 0.26009464, z: 0, w: 0.008320212}
        outSlope: {x: 0, y: 0.26009464, z: 0, w: 0.008320212}
        tangentMode: 1
      - serializedVersion: 2
        time: 0.06666667
        value: {x: -0, y: 0.036309235, z: -0, w: -0.9993406}
        inSlope: {x: 0, y: 0.3802542, z: 0, w: 0.014187099}
        outSlope: {x: 0, y: 0.3802542, z: 0, w: 0.014187099}
        tangentMode: 1
      - serializedVersion: 2
        time: 0.083333336
        value: {x: -0, y: 0.04361895, z: -0, w: -0.99904823}
        inSlope: {x: 0, y: 0.49338588, z: 0, w: 0.021994116}
        outSlope: {x: 0, y: 0.4933859, z: 0, w: 0.021994116}
        tangentMode: 1
      - serializedVersion: 2
        time: 0.1
        value: {x: -0, y: 0.05275543, z: -0, w: -0.99860746}
        inSlope: {x: 0, y: 0.5994357, z: 0, w: 0.032182936}
        outSlope: {x: 0, y: 0.5994357, z: 0, w: 0.032182936}
        tangentMode: 1
      - serializedVersion: 2
        time: 0.11666667
        value: {x: -0, y: 0.06360014, z: -0, w: -0.99797547}
        inSlope: {x: 0, y: 0.69833493, z: 0, w: 0.04506468}
        outSlope: {x: 0, y: 0.69833493, z: 0, w: 0.04506468}
        tangentMode: 1
      - serializedVersion: 2
        time: 0.13333334
        value: {x: -0, y: 0.076033264, z: -0, w: -0.9971053}
        inSlope: {x: 0, y: 0.79000294, z: 0, w: 0.0608307}
        outSlope: {x: 0, y: 0.79000294, z: 0, w: 0.060830705}
        tangentMode: 1
      - serializedVersion: 2
        time: 0.15
        value: {x: -0, y: 0.089933574, z: -0, w: -0.9959478}
        inSlope: {x: 0, y: 0.87435055, z: 0, w: 0.0795579}
        outSlope: {x: 0, y: 0.87435055, z: 0, w: 0.0795579}
        tangentMode: 1
      - serializedVersion: 2
        time: 0.16666667
        value: {x: -0, y: 0.10517828, z: -0, w: -0.9944534}
        inSlope: {x: 0, y: 0.95128036, z: 0, w: 0.10121585}
        outSlope: {x: 0, y: 0.95128036, z: 0, w: 0.10121585}
        tangentMode: 1
      - serializedVersion: 2
        time: 0.18333334
        value: {x: -0, y: 0.12164292, z: -0, w: -0.9925739}
        inSlope: {x: 0, y: 1.020695, z: 0, w: 0.12567939}
        outSlope: {x: 0, y: 1.020695, z: 0, w: 0.12567939}
        tangentMode: 1
      - serializedVersion: 2
        time: 0.2
        value: {x: -0, y: 0.13920145, z: -0, w: -0.99026406}
        inSlope: {x: 0, y: 1.082503, z: 0, w: 0.15273215}
        outSlope: {x: 0, y: 1.082503, z: 0, w: 0.15273215}
        tangentMode: 1
      - serializedVersion: 2
        time: 0.21666667
        value: {x: -0, y: 0.15772635, z: -0, w: -0.98748285}
        inSlope: {x: 0, y: 1.13662, z: 0, w: 0.18207552}
        outSlope: {x: 0, y: 1.13662, z: 0, w: 0.18207552}
        tangentMode: 1
      - serializedVersion: 2
        time: 0.23333333
        value: {x: -0, y: 0.17708878, z: -0, w: -0.9841949}
        inSlope: {x: 0, y: 1.1829829, z: 0, w: 0.21334113}
        outSlope: {x: 0, y: 1.1829829, z: 0, w: 0.21334113}
        tangentMode: 1
      - serializedVersion: 2
        time: 0.25
        value: {x: -0, y: 0.19715911, z: -0, w: -0.9803715}
        inSlope: {x: 0, y: 1.2215476, z: 0, w: 0.24609078}
        outSlope: {x: 0, y: 1.2215476, z: 0, w: 0.2460908}
        tangentMode: 1
      - serializedVersion: 2
        time: 0.26666668
        value: {x: -0, y: 0.21780705, z: -0, w: -0.97599185}
        inSlope: {x: 0, y: 1.252296, z: 0, w: 0.27983642}
        outSlope: {x: 0, y: 1.252296, z: 0, w: 0.27983642}
        tangentMode: 1
      - serializedVersion: 2
        time: 0.28333336
        value: {x: -0, y: 0.23890235, z: -0, w: -0.9710436}
        inSlope: {x: 0, y: 1.2752428, z: 0, w: 0.31404352}
        outSlope: {x: 0, y: 1.2752428, z: 0, w: 0.31404352}
        tangentMode: 1
      - serializedVersion: 2
        time: 0.30000004
        value: {x: -0, y: 0.26031518, z: -0, w: -0.9655237}
        inSlope: {x: 0, y: 1.2904325, z: 0, w: 0.3481415}
        outSlope: {x: 0, y: 1.2904325, z: 0, w: 0.3481415}
        tangentMode: 1
      - serializedVersion: 2
        time: 0.31666672
        value: {x: -0, y: 0.2819168, z: -0, w: -0.95943886}
        inSlope: {x: 0, y: 1.2979512, z: 0, w: 0.381535}
        outSlope: {x: 0, y: 1.2979512, z: 0, w: 0.381535}
        tangentMode: 1
      - serializedVersion: 2
        time: 0.3333334
        value: {x: -0, y: 0.30358025, z: -0, w: -0.9528059}
        inSlope: {x: 0, y: 1.2979234, z: 0, w: 0.41361058}
        outSlope: {x: 0, y: 1.2979234, z: 0, w: 0.41361058}
        tangentMode: 1
      - serializedVersion: 2
        time: 0.35000008
        value: {x: -0, y: 0.32518095, z: -0, w: -0.9456518}
        inSlope: {x: 0, y: 1.2905045, z: 0, w: 0.44375324}
        outSlope: {x: 0, y: 1.2905045, z: 0, w: 0.44375324}
        tangentMode: 1
      - serializedVersion: 2
        time: 0.36666676
        value: {x: -0, y: 0.3465971, z: -0, w: -0.9380141}
        inSlope: {x: 0, y: 1.2758918, z: 0, w: 0.47134778}
        outSlope: {x: 0, y: 1.2758918, z: 0, w: 0.47134775}
        tangentMode: 1
      - serializedVersion: 2
        time: 0.38333344
        value: {x: -0, y: 0.3677107, z: -0, w: -0.9299402}
        inSlope: {x: 0, y: 1.2543151, z: 0, w: 0.4957916}
        outSlope: {x: 0, y: 1.2543151, z: 0, w: 0.4957916}
        tangentMode: 1
      - serializedVersion: 2
        time: 0.40000013
        value: {x: -0, y: 0.38840765, z: -0, w: -0.9214877}
        inSlope: {x: 0, y: 1.2260287, z: 0, w: 0.516509}
        outSlope: {x: 0, y: 1.2260287, z: 0, w: 0.516509}
        tangentMode: 1
      - serializedVersion: 2
        time: 0.4166668
        value: {x: -0, y: 0.40857837, z: -0, w: -0.91272324}
        inSlope: {x: 0, y: 1.1913209, z: 0, w: 0.5329509}
        outSlope: {x: 0, y: 1.1913209, z: 0, w: 0.5329509}
        tangentMode: 1
      - serializedVersion: 2
        time: 0.4333335
        value: {x: -0, y: 0.42811838, z: -0, w: -0.90372264}
        inSlope: {x: 0, y: 1.1504905, z: 0, w: 0.5446006}
        outSlope: {x: 0, y: 1.1504905, z: 0, w: 0.5446006}
        tangentMode: 1
      - serializedVersion: 2
        time: 0.45000017
        value: {x: -0, y: 0.44692808, z: -0, w: -0.8945699}
        inSlope: {x: 0, y: 1.103847, z: 0, w: 0.5509932}
        outSlope: {x: 0, y: 1.103847, z: 0, w: 0.5509932}
        tangentMode: 1
      - serializedVersion: 2
        time: 0.46666685
        value: {x: -0, y: 0.4649133, z: -0, w: -0.8853562}
        inSlope: {x: 0, y: 1.051712, z: 0, w: 0.5517138}
        outSlope: {x: 0, y: 1.051712, z: 0, w: 0.5517138}
        tangentMode: 1
      - serializedVersion: 2
        time: 0.48333353
        value: {x: -0, y: 0.48198518, z: -0, w: -0.8761794}
        inSlope: {x: 0, y: 0.99439317, z: 0, w: 0.5464035}
        outSlope: {x: 0, y: 0.9943932, z: 0, w: 0.5464035}
        tangentMode: 1
      - serializedVersion: 2
        time: 0.5000002
        value: {x: -0, y: 0.49805975, z: -0, w: -0.86714274}
        inSlope: {x: 0, y: 0.9321803, z: 0, w: 0.5347614}
        outSlope: {x: 0, y: 0.9321803, z: 0, w: 0.5347614}
        tangentMode: 1
      - serializedVersion: 2
        time: 0.5166668
        value: {x: -0, y: 0.5130578, z: -0, w: -0.85835403}
        inSlope: {x: 0, y: 0.86534584, z: 0, w: 0.5165492}
        outSlope: {x: 0, y: 0.86534584, z: 0, w: 0.5165492}
        tangentMode: 1
      - serializedVersion: 2
        time: 0.5333335
        value: {x: -0, y: 0.5269046, z: -0, w: -0.84992445}
        inSlope: {x: 0, y: 0.7941277, z: 0, w: 0.4916047}
        outSlope: {x: 0, y: 0.7941277, z: 0, w: 0.4916047}
        tangentMode: 1
      - serializedVersion: 2
        time: 0.55000013
        value: {x: -0, y: 0.5395287, z: -0, w: -0.8419672}
        inSlope: {x: 0, y: 0.7187129, z: 0, w: 0.45983654}
        outSlope: {x: 0, y: 0.7187129, z: 0, w: 0.45983654}
        tangentMode: 1
      - serializedVersion: 2
        time: 0.5666668
        value: {x: -0, y: 0.55086166, z: -0, w: -0.8345966}
        inSlope: {x: 0, y: 0.63924074, z: 0, w: 0.42122525}
        outSlope: {x: 0, y: 0.63924074, z: 0, w: 0.42122525}
        tangentMode: 1
      - serializedVersion: 2
        time: 0.58333343
        value: {x: -0, y: 0.56083673, z: -0, w: -0.8279264}
        inSlope: {x: 0, y: 0.5557882, z: 0, w: 0.3758279}
        outSlope: {x: 0, y: 0.5557882, z: 0, w: 0.3758279}
        tangentMode: 1
      - serializedVersion: 2
        time: 0.6000001
        value: {x: -0, y: 0.5693879, z: -0, w: -0.822069}
        inSlope: {x: 0, y: 0.4683517, z: 0, w: 0.32378763}
        outSlope: {x: 0, y: 0.4683517, z: 0, w: 0.32378763}
        tangentMode: 1
      - serializedVersion: 2
        time: 0.61666673
        value: {x: -0, y: 0.57644844, z: -0, w: -0.8171335}
        inSlope: {x: 0, y: 0.37685966, z: 0, w: 0.2653315}
        outSlope: {x: 0, y: 0.37685966, z: 0, w: 0.2653315}
        tangentMode: 1
      - serializedVersion: 2
        time: 0.6333334
        value: {x: -0, y: 0.5819499, z: -0, w: -0.8132246}
        inSlope: {x: 0, y: 0.281153, z: 0, w: 0.20077427}
        outSlope: {x: 0, y: 0.281153, z: 0, w: 0.20077427}
        tangentMode: 1
      - serializedVersion: 2
        time: 0.65000004
        value: {x: -0, y: 0.5858202, z: -0, w: -0.810441}
        inSlope: {x: 0, y: 0.18096703, z: 0, w: 0.13052177}
        outSlope: {x: 0, y: 0.18096703, z: 0, w: 0.13052177}
        tangentMode: 1
      - serializedVersion: 2
        time: 0.6666667
        value: {x: -0, y: 0.5879821, z: -0, w: -0.8088739}
        inSlope: {x: 0, y: 0.0759638, z: 0, w: 0.05508905}
        outSlope: {x: 0, y: 0.0759638, z: 0, w: 0.05508905}
        tangentMode: 1
      - serializedVersion: 2
        time: 0.68333334
        value: {x: -0, y: 0.5883523, z: -0, w: -0.8086047}
        inSlope: {x: 0, y: -0.034298334, z: 0, w: -0.024896288}
        outSlope: {x: 0, y: -0.034298334, z: 0, w: -0.024896286}
        tangentMode: 1
      - serializedVersion: 2
        time: 0.7
        value: {x: -0, y: 0.58683884, z: -0, w: -0.80970377}
        inSlope: {x: 0, y: -0.15036121, z: 0, w: -0.10869394}
        outSlope: {x: 0, y: -0.15036121, z: 0, w: -0.10869394}
        tangentMode: 1
      - serializedVersion: 2
        time: 0.71666664
        value: {x: -0, y: 0.5833403, z: -0, w: -0.81222785}
        inSlope: {x: 0, y: -0.2728471, z: 0, w: -0.1954295}
        outSlope: {x: 0, y: -0.2728471, z: 0, w: -0.1954295}
        tangentMode: 1
      - serializedVersion: 2
        time: 0.7333333
        value: {x: -0, y: 0.57774395, z: -0, w: -0.8162181}
        inSlope: {x: 0, y: -0.4024748, z: 0, w: -0.2840766}
        outSlope: {x: 0, y: -0.4024748, z: 0, w: -0.2840766}
        tangentMode: 1
      - serializedVersion: 2
        time: 0.74999994
        value: {x: -0, y: 0.5699245, z: -0, w: -0.82169706}
        inSlope: {x: 0, y: -0.5400258, z: 0, w: -0.37344432}
        outSlope: {x: 0, y: -0.5400258, z: 0, w: -0.37344432}
        tangentMode: 1
      - serializedVersion: 2
        time: 0.7666666
        value: {x: -0, y: 0.5597431, z: -0, w: -0.8286662}
        inSlope: {x: 0, y: -0.68634754, z: 0, w: -0.46215934}
        outSlope: {x: 0, y: -0.68634754, z: 0, w: -0.46215934}
        tangentMode: 1
      - serializedVersion: 2
        time: 0.78333324
        value: {x: -0, y: 0.54704624, z: -0, w: -0.83710235}
        inSlope: {x: 0, y: -0.84231997, z: 0, w: -0.54864097}
        outSlope: {x: 0, y: -0.84231997, z: 0, w: -0.54864097}
        tangentMode: 1
      - serializedVersion: 2
        time: 0.7999999
        value: {x: -0, y: 0.5316658, z: -0, w: -0.8469542}
        inSlope: {x: 0, y: -1.0088298, z: 0, w: -0.6310779}
        outSlope: {x: 0, y: -1.0088298, z: 0, w: -0.6310779}
        tangentMode: 1
      - serializedVersion: 2
        time: 0.81666654
        value: {x: -0, y: 0.5134186, z: -0, w: -0.85813826}
        inSlope: {x: 0, y: -1.1867472, z: 0, w: -0.70740473}
        outSlope: {x: 0, y: -1.1867472, z: 0, w: -0.70740473}
        tangentMode: 1
      - serializedVersion: 2
        time: 0.8333332
        value: {x: -0, y: 0.4921076, z: -0, w: -0.87053436}
        inSlope: {x: 0, y: -1.3768785, z: 0, w: -0.7752843}
        outSlope: {x: 0, y: -1.3768785, z: 0, w: -0.7752843}
        tangentMode: 1
      - serializedVersion: 2
        time: 0.84999985
        value: {x: -0, y: 0.4675227, z: -0, w: -0.88398105}
        inSlope: {x: 0, y: -1.579904, z: 0, w: -0.8320668}
        outSlope: {x: 0, y: -1.579904, z: 0, w: -0.8320668}
        tangentMode: 1
      - serializedVersion: 2
        time: 0.8666665
        value: {x: -0, y: 0.43944418, z: -0, w: -0.8982699}
        inSlope: {x: 0, y: -1.7809938, z: 0, w: -0.8679315}
        outSlope: {x: 0, y: -1.7809938, z: 0, w: -0.8679315}
        tangentMode: 1
      - serializedVersion: 2
        time: 0.88333315
        value: {x: -0, y: 0.4081563, z: -0, w: -0.9129121}
        inSlope: {x: 0, y: -1.9616059, z: 0, w: -0.87407017}
        outSlope: {x: 0, y: -1.9616059, z: 0, w: -0.87407017}
        tangentMode: 1
      - serializedVersion: 2
        time: 0.8999998
        value: {x: -0, y: 0.37405738, z: -0, w: -0.92740554}
        inSlope: {x: 0, y: -2.1315947, z: 0, w: -0.8566698}
        outSlope: {x: 0, y: -2.1315947, z: 0, w: -0.8566698}
        tangentMode: 1
      - serializedVersion: 2
        time: 0.91666645
        value: {x: -0, y: 0.33710322, z: -0, w: -0.9414677}
        inSlope: {x: 0, y: -2.3037891, z: 0, w: -0.82169014}
        outSlope: {x: 0, y: -2.3037891, z: 0, w: -0.82169014}
        tangentMode: 1
      - serializedVersion: 2
        time: 0.9333331
        value: {x: -0, y: 0.2972645, z: -0, w: -0.9547952}
        inSlope: {x: 0, y: -2.4771647, z: 0, w: -0.7679064}
        outSlope: {x: 0, y: -2.4771647, z: 0, w: -0.7679064}
        tangentMode: 1
      - serializedVersion: 2
        time: 0.94999975
        value: {x: -0, y: 0.25453115, z: -0, w: -0.96706456}
        inSlope: {x: 0, y: -2.6504593, z: 0, w: -0.6941528}
        outSlope: {x: 0, y: -2.6504593, z: 0, w: -0.6941528}
        tangentMode: 1
      - serializedVersion: 2
        time: 0.9666664
        value: {x: -0, y: 0.20891593, z: -0, w: -0.9779336}
        inSlope: {x: 0, y: -2.8221824, z: 0, w: -0.599342}
        outSlope: {x: 0, y: -2.8221824, z: 0, w: -0.599342}
        tangentMode: 1
      - serializedVersion: 2
        time: 0.98333305
        value: {x: -0, y: 0.16045849, z: -0, w: -0.9870426}
        inSlope: {x: 0, y: -2.9905949, z: 0, w: -0.48248872}
        outSlope: {x: 0, y: -2.9905949, z: 0, w: -0.48248875}
        tangentMode: 1
      - serializedVersion: 2
        time: 0.9999997
        value: {x: -0, y: 0.109229535, z: -0, w: -0.9940165}
        inSlope: {x: 0, y: -3.1537135, z: 0, w: -0.34275752}
        outSlope: {x: 0, y: -3.1537135, z: 0, w: -0.34275752}
        tangentMode: 1
      - serializedVersion: 2
        time: 1.0166664
        value: {x: -0, y: 0.055334616, z: -0, w: -0.99846786}
        inSlope: {x: 0, y: -3.3093157, z: 0, w: -0.17948596}
        outSlope: {x: 0, y: -3.3093157, z: 0, w: -0.17948596}
        tangentMode: 1
      - serializedVersion: 2
        time: 1.0333331
        value: {x: -0, y: -0.0010810768, z: -0, w: -0.9999994}
        inSlope: {x: 0, y: -3.4549384, z: 0, w: 0.0077784136}
        outSlope: {x: 0, y: -3.4549384, z: 0, w: 0.0077784136}
        tangentMode: 1
      - serializedVersion: 2
        time: 1.0499997
        value: {x: -0, y: -0.059829887, z: -0, w: -0.9982086}
        inSlope: {x: 0, y: -3.5878983, z: 0, w: 0.21922967}
        outSlope: {x: 0, y: -3.5878983, z: 0, w: 0.21922967}
        tangentMode: 1
      - serializedVersion: 2
        time: 1.0666664
        value: {x: -0, y: -0.12067757, z: -0, w: -0.99269176}
        inSlope: {x: 0, y: -3.7053006, z: 0, w: 0.45476896}
        outSlope: {x: 0, y: -3.7053006, z: 0, w: 0.45476896}
        tangentMode: 1
      - serializedVersion: 2
        time: 1.083333
        value: {x: -0, y: -0.18333979, z: -0, w: -0.98304963}
        inSlope: {x: 0, y: -3.8040698, z: 0, w: 0.71396184}
        outSlope: {x: 0, y: -3.80407, z: 0, w: 0.71396184}
        tangentMode: 1
      - serializedVersion: 2
        time: 1.0999997
        value: {x: -0, y: -0.24747978, z: -0, w: -0.96889305}
        inSlope: {x: 0, y: -3.8809881, z: 0, w: 0.995991}
        outSlope: {x: 0, y: -3.8809881, z: 0, w: 0.995991}
        tangentMode: 1
      - serializedVersion: 2
        time: 1.1166663
        value: {x: -0, y: -0.31270593, z: -0, w: -0.94984996}
        inSlope: {x: 0, y: -3.93271, z: 0, w: 1.299612}
        outSlope: {x: 0, y: -3.93271, z: 0, w: 1.299612}
        tangentMode: 1
      - serializedVersion: 2
        time: 1.133333
        value: {x: -0, y: -0.37857, z: -0, w: -0.9255727}
        inSlope: {x: 0, y: -3.9558382, z: 0, w: 1.6231332}
        outSlope: {x: 0, y: -3.9558382, z: 0, w: 1.6231332}
        tangentMode: 1
      - serializedVersion: 2
        time: 1.1499996
        value: {x: -0, y: -0.44456708, z: -0, w: -0.8957456}
        inSlope: {x: 0, y: -3.94697, z: 0, w: 1.9643606}
        outSlope: {x: 0, y: -3.94697, z: 0, w: 1.9643606}
        tangentMode: 1
      - serializedVersion: 2
        time: 1.1666663
        value: {x: -0, y: -0.51013553, z: -0, w: -0.8600941}
        inSlope: {x: 0, y: -3.9027324, z: 0, w: 2.32056}
        outSlope: {x: 0, y: -3.9027324, z: 0, w: 2.32056}
        tangentMode: 1
      - serializedVersion: 2
        time: 1.1833329
        value: {x: -0, y: -0.57465804, z: -0, w: -0.81839365}
        inSlope: {x: 0, y: -3.8199074, z: 0, w: 2.6884627}
        outSlope: {x: 0, y: -3.8199072, z: 0, w: 2.6884627}
        tangentMode: 1
      - serializedVersion: 2
        time: 1.1999996
        value: {x: -0, y: -0.63746566, z: -0, w: -0.7704787}
        inSlope: {x: 0, y: -3.6954885, z: 0, w: 3.0642264}
        outSlope: {x: 0, y: -3.6954885, z: 0, w: 3.0642264}
        tangentMode: 1
      - serializedVersion: 2
        time: 1.2166662
        value: {x: -0, y: -0.69784087, z: -0, w: -0.71625286}
        inSlope: {x: 0, y: -3.5267382, z: 0, w: 3.4434323}
        outSlope: {x: 0, y: -3.5267382, z: 0, w: 3.4434323}
        tangentMode: 1
      - serializedVersion: 2
        time: 1.2333329
        value: {x: -0, y: -0.7550235, z: -0, w: -0.65569776}
        inSlope: {x: 0, y: -3.3113208, z: 0, w: 3.8210928}
        outSlope: {x: 0, y: -3.3113208, z: 0, w: 3.821093}
        tangentMode: 1
      - serializedVersion: 2
        time: 1.2499995
        value: {x: -0, y: -0.8082181, z: -0, w: -0.5888832}
        inSlope: {x: 0, y: -3.0473948, z: 0, w: 4.1916656}
        outSlope: {x: 0, y: -3.0473948, z: 0, w: 4.1916656}
        tangentMode: 1
      - serializedVersion: 2
        time: 1.2666662
        value: {x: -0, y: -0.8566032, z: -0, w: -0.5159757}
        inSlope: {x: 0, y: -2.7337189, z: 0, w: 4.549124}
        outSlope: {x: 0, y: -2.7337189, z: 0, w: 4.549124}
        tangentMode: 1
      - serializedVersion: 2
        time: 1.2833328
        value: {x: -0, y: -0.899342, z: -0, w: -0.4372459}
        inSlope: {x: 0, y: -2.369725, z: 0, w: 4.886942}
        outSlope: {x: 0, y: -2.369725, z: 0, w: 4.886942}
        tangentMode: 1
      - serializedVersion: 2
        time: 1.2999995
        value: {x: -0, y: -0.93559396, z: -0, w: -0.3530778}
        inSlope: {x: 0, y: -1.955647, z: 0, w: 5.198205}
        outSlope: {x: 0, y: -1.955647, z: 0, w: 5.198205}
        tangentMode: 1
      - serializedVersion: 2
        time: 1.3166661
        value: {x: -0, y: -0.96453017, z: -0, w: -0.26397258}
        inSlope: {x: 0, y: -1.4926311, z: 0, w: 5.4757147}
        outSlope: {x: 0, y: -1.4926311, z: 0, w: 5.4757147}
        tangentMode: 1
      - serializedVersion: 2
        time: 1.3333328
        value: {x: -0, y: -0.9853483, z: -0, w: -0.17055416}
        inSlope: {x: 0, y: -0.9827945, z: 0, w: 5.7120523}
        outSlope: {x: 0, y: -0.9827945, z: 0, w: 5.7120523}
        tangentMode: 1
      - serializedVersion: 2
        time: 1.3499994
        value: {x: -0, y: -0.99728996, z: -0, w: -0.07357103}
        inSlope: {x: 0, y: -0.42932907, z: 0, w: 5.8997264}
        outSlope: {x: 0, y: -0.42932907, z: 0, w: 5.8997264}
        tangentMode: 1
      - serializedVersion: 2
        time: 1.3666661
        value: {x: -0, y: -0.99965924, z: -0, w: 0.026103199}
        inSlope: {x: 0, y: 0.1634379, z: 0, w: 6.03133}
        outSlope: {x: 0, y: 0.16343787, z: 0, w: 6.03133}
        tangentMode: 1
      - serializedVersion: 2
        time: 1.3833327
        value: {x: -0, y: -0.99184203, z: -0, w: 0.12747312}
        inSlope: {x: 0, y: 0.7899936, z: 0, w: 6.099683}
        outSlope: {x: 0, y: 0.7899936, z: 0, w: 6.099683}
        tangentMode: 1
      - serializedVersion: 2
        time: 1.3999994
        value: {x: -0, y: -0.97332615, z: -0, w: 0.22942577}
        inSlope: {x: 0, y: 1.4436145, z: 0, w: 6.0980387}
        outSlope: {x: 0, y: 1.4436145, z: 0, w: 6.0980387}
        tangentMode: 1
      - serializedVersion: 2
        time: 1.416666
        value: {x: -0, y: -0.9437216, z: -0, w: 0.33074087}
        inSlope: {x: 0, y: 2.116365, z: 0, w: 6.0202665}
        outSlope: {x: 0, y: 2.116365, z: 0, w: 6.0202665}
        tangentMode: 1
      - serializedVersion: 2
        time: 1.4333327
        value: {x: -0, y: -0.9027807, z: -0, w: 0.43010113}
        inSlope: {x: 0, y: 2.7991257, z: 0, w: 5.861031}
        outSlope: {x: 0, y: 2.7991257, z: 0, w: 5.861031}
        tangentMode: 1
      - serializedVersion: 2
        time: 1.4499993
        value: {x: -0, y: -0.8504175, z: -0, w: 0.5261084}
        inSlope: {x: 0, y: 3.4816573, z: 0, w: 5.6160583}
        outSlope: {x: 0, y: 3.4816573, z: 0, w: 5.6160583}
        tangentMode: 1
      - serializedVersion: 2
        time: 1.466666
        value: {x: -0, y: -0.7867256, z: -0, w: 0.6173029}
        inSlope: {x: 0, y: 4.1526804, z: 0, w: 5.2822924}
        outSlope: {x: 0, y: 4.1526804, z: 0, w: 5.2822924}
        tangentMode: 1
      - serializedVersion: 2
        time: 1.4833326
        value: {x: -0, y: -0.71199495, z: -0, w: 0.7021846}
        inSlope: {x: 0, y: 4.800045, z: 0, w: 4.8581505}
        outSlope: {x: 0, y: 4.800045, z: 0, w: 4.8581505}
        tangentMode: 1
      - serializedVersion: 2
        time: 1.4999993
        value: {x: -0, y: -0.62672424, z: -0, w: 0.7792411}
        inSlope: {x: 0, y: 5.4108934, z: 0, w: 4.343729}
        outSlope: {x: 0, y: 5.4108934, z: 0, w: 4.343729}
        tangentMode: 1
      - serializedVersion: 2
        time: 1.5166659
        value: {x: -0, y: -0.531632, z: -0, w: 0.84697545}
        inSlope: {x: 0, y: 5.9718547, z: 0, w: 3.7409234}
        outSlope: {x: 0, y: 5.9718547, z: 0, w: 3.7409234}
        tangentMode: 1
      - serializedVersion: 2
        time: 1.5333326
        value: {x: -0, y: -0.4276626, z: -0, w: 0.9039384}
        inSlope: {x: 0, y: 6.4692717, z: 0, w: 3.0536175}
        outSlope: {x: 0, y: 6.4692717, z: 0, w: 3.0536175}
        tangentMode: 1
      - serializedVersion: 2
        time: 1.5499992
        value: {x: -0, y: -0.31598982, z: -0, w: 0.9487626}
        inSlope: {x: 0, y: 6.8896456, z: 0, w: 2.287862}
        outSlope: {x: 0, y: 6.8896456, z: 0, w: 2.287862}
        tangentMode: 1
      - serializedVersion: 2
        time: 1.5666659
        value: {x: -0, y: -0.19800797, z: -0, w: 0.9802004}
        inSlope: {x: 0, y: 7.219765, z: 0, w: 1.4518812}
        outSlope: {x: 0, y: 7.219765, z: 0, w: 1.4518812}
        tangentMode: 1
      - serializedVersion: 2
        time: 1.5833325
        value: {x: -0, y: -0.07533122, z: -0, w: 0.9971586}
        inSlope: {x: 0, y: 7.447138, z: 0, w: 0.556119}
        outSlope: {x: 0, y: 7.447138, z: 0, w: 0.556119}
        tangentMode: 1
      - serializedVersion: 2
        time: 1.5999992
        value: {x: -0, y: 0.05022971, z: -0, w: 0.9987377}
        inSlope: {x: 0, y: 7.56045, z: 0, w: -0.38672662}
        outSlope: {x: 0, y: 7.56045, z: 0, w: -0.38672662}
        tangentMode: 1
      - serializedVersion: 2
        time: 1.6166658
        value: {x: -0, y: 0.17668355, z: -0, w: 0.9842677}
        inSlope: {x: 0, y: 7.549838, z: 0, w: -1.3618554}
        outSlope: {x: 0, y: 7.549838, z: 0, w: -1.3618554}
        tangentMode: 1
      - serializedVersion: 2
        time: 1.6333325
        value: {x: -0, y: 0.30189073, z: -0, w: 0.95334256}
        inSlope: {x: 0, y: 7.4073286, z: 0, w: -2.352473}
        outSlope: {x: 0, y: 7.4073286, z: 0, w: -2.352473}
        tangentMode: 1
      - serializedVersion: 2
        time: 1.6499991
        value: {x: -0, y: 0.42359427, z: -0, w: 0.905852}
        inSlope: {x: 0, y: 7.127194, z: 0, w: -3.340013}
        outSlope: {x: 0, y: 7.127194, z: 0, w: -3.340013}
        tangentMode: 1
      - serializedVersion: 2
        time: 1.6666658
        value: {x: -0, y: 0.53946364, z: -0, w: 0.8420089}
        inSlope: {x: 0, y: 6.706422, z: 0, w: -4.3044667}
        outSlope: {x: 0, y: 6.706422, z: 0, w: -4.3044667}
        tangentMode: 1
      - serializedVersion: 2
        time: 1.6833324
        value: {x: -0, y: 0.64714146, z: -0, w: 0.76236993}
        inSlope: {x: 0, y: 6.1449127, z: 0, w: -5.2247047}
        outSlope: {x: 0, y: 6.1449127, z: 0, w: -5.2247047}
        tangentMode: 1
      - serializedVersion: 2
        time: 1.6999991
        value: {x: -0, y: 0.74429387, z: -0, w: 0.6678522}
        inSlope: {x: 0, y: 5.4458447, z: 0, w: -6.078955}
        outSlope: {x: 0, y: 5.4458447, z: 0, w: -6.078955}
        tangentMode: 1
      - serializedVersion: 2
        time: 1.7166657
        value: {x: -0, y: 0.8286694, z: -0, w: 0.5597383}
        inSlope: {x: 0, y: 4.615877, z: 0, w: -6.8452816}
        outSlope: {x: 0, y: 4.615877, z: 0, w: -6.8452816}
        tangentMode: 1
      - serializedVersion: 2
        time: 1.7333324
        value: {x: -0, y: 0.8981563, z: -0, w: 0.43967637}
        inSlope: {x: 0, y: 3.6652832, z: 0, w: -7.5021763}
        outSlope: {x: 0, y: 3.6652832, z: 0, w: -7.5021763}
        tangentMode: 1
      - serializedVersion: 2
        time: 1.749999
        value: {x: -0, y: 0.9508454, z: -0, w: 0.30966598}
        inSlope: {x: 0, y: 2.6080127, z: 0, w: -8.0290985}
        outSlope: {x: 0, y: 2.6080127, z: 0, w: -8.0290985}
        tangentMode: 1
      - serializedVersion: 2
        time: 1.7666657
        value: {x: -0, y: 0.98508996, z: -0, w: 0.17204002}
        inSlope: {x: 0, y: 1.4616461, z: 0, w: -8.407175}
        outSlope: {x: 0, y: 1.4616461, z: 0, w: -8.407175}
        tangentMode: 1
      - serializedVersion: 2
        time: 1.7833323
        value: {x: -0, y: 0.9995669, z: -0, w: 0.029427083}
        inSlope: {x: 0, y: 0.24725878, z: 0, w: -8.619902}
        outSlope: {x: 0, y: 0.24725878, z: 0, w: -8.619902}
        tangentMode: 1
      - serializedVersion: 2
        time: 1.799999
        value: {x: -0, y: 0.9933319, z: -0, w: -0.11528978}
        inSlope: {x: 0, y: -1.0109005, z: 0, w: -8.653608}
        outSlope: {x: 0, y: -1.0109005, z: 0, w: -8.653608}
        tangentMode: 1
      - serializedVersion: 2
        time: 1.8166656
        value: {x: -0, y: 0.96587026, z: -0, w: -0.25902626}
        inSlope: {x: 0, y: -2.2857735, z: 0, w: -8.498304}
        outSlope: {x: 0, y: -2.2857735, z: 0, w: -8.498304}
        tangentMode: 1
      - serializedVersion: 2
        time: 1.8333323
        value: {x: -0, y: 0.91713953, z: -0, w: -0.39856634}
        inSlope: {x: 0, y: -3.5480456, z: 0, w: -8.148184}
        outSlope: {x: 0, y: -3.5480456, z: 0, w: -8.148184}
        tangentMode: 1
      - serializedVersion: 2
        time: 1.849999
        value: {x: -0, y: 0.8476022, z: -0, w: -0.53063214}
        inSlope: {x: 0, y: -4.766721, z: 0, w: -7.6019697}
        outSlope: {x: 0, y: -4.766721, z: 0, w: -7.6019697}
        tangentMode: 1
      - serializedVersion: 2
        time: 1.8666656
        value: {x: -0, y: 0.758249, z: -0, w: -0.6519651}
        inSlope: {x: 0, y: -5.9099617, z: 0, w: -6.8635645}
        outSlope: {x: 0, y: -5.9099617, z: 0, w: -6.8635645}
        tangentMode: 1
      - serializedVersion: 2
        time: 1.8833323
        value: {x: -0, y: 0.65060365, z: -0, w: -0.7594174}
        inSlope: {x: 0, y: -6.9458604, z: 0, w: -5.9422092}
        outSlope: {x: 0, y: -6.9458604, z: 0, w: -5.9422092}
        tangentMode: 1
      - serializedVersion: 2
        time: 1.8999989
        value: {x: -0, y: 0.5267205, z: -0, w: -0.8500385}
        inSlope: {x: 0, y: -7.8433695, z: 0, w: -4.8526087}
        outSlope: {x: 0, y: -7.8433695, z: 0, w: -4.8526087}
        tangentMode: 1
      - serializedVersion: 2
        time: 1.9166656
        value: {x: -0, y: 0.38915825, z: -0, w: -0.9211709}
        inSlope: {x: 0, y: -8.573359, z: 0, w: -3.6150312}
        outSlope: {x: 0, y: -8.573359, z: 0, w: -3.6150312}
        tangentMode: 1
      - serializedVersion: 2
        time: 1.9333322
        value: {x: -0, y: 0.24094217, z: -0, w: -0.97053945}
        inSlope: {x: 0, y: -9.1095, z: 0, w: -2.2549977}
        outSlope: {x: 0, y: -9.1095, z: 0, w: -2.2549977}
        tangentMode: 1
      - serializedVersion: 2
        time: 1.9499989
        value: {x: -0, y: 0.08550853, z: -0, w: -0.9963374}
        inSlope: {x: 0, y: -9.42933, z: 0, w: -0.8029647}
        outSlope: {x: 0, y: -9.42933, z: 0, w: -0.8029647}
        tangentMode: 1
      - serializedVersion: 2
        time: 1.9666655
        value: {x: -0, y: -0.07336854, z: -0, w: -0.9973049}
        inSlope: {x: 0, y: -9.515181, z: 0, w: 0.706246}
        outSlope: {x: 0, y: -9.515181, z: 0, w: 0.706246}
        tangentMode: 1
      - serializedVersion: 2
        time: 1.9833322
        value: {x: -0, y: -0.23166385, z: -0, w: -0.9727959}
        inSlope: {x: 0, y: -9.355019, z: 0, w: 2.2341838}
        outSlope: {x: 0, y: -9.355019, z: 0, w: 2.2341838}
        tangentMode: 1
      - serializedVersion: 2
        time: 1.9999988
        value: {x: -0, y: -0.3852022, z: -0, w: -0.9228322}
        inSlope: {x: 0, y: -8.943324, z: 0, w: 3.7397218}
        outSlope: {x: 0, y: -8.943324, z: 0, w: 3.7397218}
        tangentMode: 1
      - serializedVersion: 2
        time: 2.0166655
        value: {x: -0, y: -0.52977437, z: -0, w: -0.84813863}
        inSlope: {x: 0, y: -8.281635, z: 0, w: 5.180171}
        outSlope: {x: 0, y: -8.281635, z: 0, w: 5.180171}
        tangentMode: 1
      - serializedVersion: 2
        time: 2.033332
        value: {x: -0, y: -0.66125643, z: -0, w: -0.75016}
        inSlope: {x: 0, y: -7.378873, z: 0, w: 6.512458}
        outSlope: {x: 0, y: -7.378873, z: 0, w: 6.512458}
        tangentMode: 1
      - serializedVersion: 2
        time: 2.0499988
        value: {x: -0, y: -0.7757366, z: -0, w: -0.6310569}
        inSlope: {x: 0, y: -6.2516685, z: 0, w: 7.694486}
        outSlope: {x: 0, y: -6.2516685, z: 0, w: 7.6944866}
        tangentMode: 1
      - serializedVersion: 2
        time: 2.0666654
        value: {x: -0, y: -0.8696452, z: -0, w: -0.49367732}
        inSlope: {x: 0, y: -4.9243135, z: 0, w: 8.686583}
        outSlope: {x: 0, y: -4.9243135, z: 0, w: 8.686583}
        tangentMode: 1
      - serializedVersion: 2
        time: 2.083332
        value: {x: -0, y: -0.9398802, z: -0, w: -0.34150442}
        inSlope: {x: 0, y: -3.428399, z: 0, w: 9.452869}
        outSlope: {x: 0, y: -3.428399, z: 0, w: 9.452869}
        tangentMode: 1
      - serializedVersion: 2
        time: 2.0999987
        value: {x: -0, y: -0.98392504, z: -0, w: -0.17858197}
        inSlope: {x: 0, y: -1.8022656, z: 0, w: 9.962673}
        outSlope: {x: 0, y: -1.8022656, z: 0, w: 9.962673}
        tangentMode: 1
      - serializedVersion: 2
        time: 2.1166654
        value: {x: -0, y: -0.99995565, z: -0, w: -0.0094156265}
        inSlope: {x: 0, y: -0.0901598, z: 0, w: 10.191892}
        outSlope: {x: 0, y: -0.09015983, z: 0, w: 10.191892}
        tangentMode: 1
      - serializedVersion: 2
        time: 2.133332
        value: {x: -0, y: -0.9869304, z: -0, w: 0.16114743}
        inSlope: {x: 0, y: 1.658896, z: 0, w: 10.124081}
        outSlope: {x: 0, y: 1.658896, z: 0, w: 10.124081}
        tangentMode: 1
      - serializedVersion: 2
        time: 2.1499987
        value: {x: -0, y: -0.9446592, z: -0, w: 0.3280534}
        inSlope: {x: 0, y: 3.392427, z: 0, w: 9.751478}
        outSlope: {x: 0, y: 3.392427, z: 0, w: 9.751478}
        tangentMode: 1
      - serializedVersion: 2
        time: 2.1666653
        value: {x: -0, y: -0.8738496, z: -0, w: 0.4861964}
        inSlope: {x: 0, y: 5.0561724, z: 0, w: 9.075953}
        outSlope: {x: 0, y: 5.0561724, z: 0, w: 9.075953}
        tangentMode: 1
      - serializedVersion: 2
        time: 2.183332
        value: {x: -0, y: -0.77612025, z: -0, w: 0.6305849}
        inSlope: {x: 0, y: 6.595707, z: 0, w: 8.109138}
        outSlope: {x: 0, y: 6.595707, z: 0, w: 8.109138}
        tangentMode: 1
      - serializedVersion: 2
        time: 2.1999986
        value: {x: -0, y: -0.6539929, z: -0, w: 0.7565007}
        inSlope: {x: 0, y: 7.958297, z: 0, w: 6.8726645}
        outSlope: {x: 0, y: 7.958297, z: 0, w: 6.8726645}
        tangentMode: 1
      - serializedVersion: 2
        time: 2.2166653
        value: {x: -0, y: -0.51084393, z: -0, w: 0.8596735}
        inSlope: {x: 0, y: 9.095049, z: 0, w: 5.3982153}
        outSlope: {x: 0, y: 9.095049, z: 0, w: 5.3982153}
        tangentMode: 1
      - serializedVersion: 2
        time: 2.233332
        value: {x: -0, y: -0.35082486, z: -0, w: 0.93644106}
        inSlope: {x: 0, y: 9.962426, z: 0, w: 3.726561}
        outSlope: {x: 0, y: 9.962426, z: 0, w: 3.726561}
        tangentMode: 1
      - serializedVersion: 2
        time: 2.2499986
        value: {x: -0, y: -0.17876337, z: -0, w: 0.9838921}
        inSlope: {x: 0, y: 10.524324, z: 0, w: 1.9067284}
        outSlope: {x: 0, y: 10.524324, z: 0, w: 1.9067284}
        tangentMode: 1
      - serializedVersion: 2
        time: 2.2666667
        value: {x: -0, y: 9.775241E-07, z: -0, w: 1}
        inSlope: {x: 0, y: 10.724951, z: 0, w: 0.966393}
        outSlope: {x: 0, y: 0, z: 0, w: 0}
        tangentMode: 1
      m_PreInfinity: 2
      m_PostInfinity: 2
      m_RotationOrder: 4
    path: bb
  m_CompressedRotationCurves: []
  m_EulerCurves: []
  m_PositionCurves:
  - curve:
      serializedVersion: 2
      m_Curve:
      - serializedVersion: 2
        time: 0
        value: {x: 0, y: 40, z: 0}
        inSlope: {x: 0, y: 0, z: 0}
        outSlope: {x: 0, y: -41.53846, z: 0}
        tangentMode: 1
      - serializedVersion: 2
        time: 2.1666667
        value: {x: 0, y: -50, z: 0}
        inSlope: {x: 0, y: -41.53846, z: 0}
        outSlope: {x: 0, y: 0, z: 0}
        tangentMode: 1
      m_PreInfinity: 2
      m_PostInfinity: 2
      m_RotationOrder: 4
    path: bb
  m_ScaleCurves:
  - curve:
      serializedVersion: 2
      m_Curve:
      - serializedVersion: 2
        time: 0
        value: {x: 30, y: 30, z: 30}
        inSlope: {x: 0, y: 0, z: 0}
        outSlope: {x: 51.785717, y: 51.341465, z: 52.195118}
        tangentMode: 1
      - serializedVersion: 2
        time: 0.68333334
        value: {x: 65.75077, y: 65.083336, z: 65.666664}
        inSlope: {x: 31.018734, y: 29.013428, z: 23.42263}
        outSlope: {x: 31.018732, y: 29.013428, z: 23.422632}
        tangentMode: 1
      - serializedVersion: 2
        time: 0.7
        value: {x: 66.25, y: 65.55981, z: 66.05182}
        inSlope: {x: 28.875813, y: 28.16608, z: 22.798225}
        outSlope: {x: 28.875813, y: 28.16608, z: 22.798225}
        tangentMode: 1
      - serializedVersion: 2
        time: 2.1666667
        value: {x: 75, y: 75, z: 75}
        inSlope: {x: 0, y: 0, z: 0}
        outSlope: {x: 0, y: 0, z: 0}
        tangentMode: 1
      - serializedVersion: 2
        time: 2.2666667
        value: {x: 5, y: 5, z: 5}
        inSlope: {x: -700.0007, y: -700.0007, z: -700.0007}
        outSlope: {x: 0, y: 0, z: 0}
        tangentMode: 1
      m_PreInfinity: 2
      m_PostInfinity: 2
      m_RotationOrder: 4
    path: bb
  m_FloatCurves:
  - curve:
      serializedVersion: 2
      m_Curve:
      - serializedVersion: 2
        time: 0
        value: 0
        inSlope: 0
        outSlope: 0
        tangentMode: 0
      - serializedVersion: 2
        time: 2.3
        value: 0
        inSlope: 0
        outSlope: 0
        tangentMode: 0
      m_PreInfinity: 2
      m_PostInfinity: 2
      m_RotationOrder: 4
    attribute: typetree_1460864421
    path:
    classID: 224
    script: {fileID: 0}
  - curve:
      serializedVersion: 2
      m_Curve:
      - serializedVersion: 2
        time: 0
        value: 0
        inSlope: 0
        outSlope: 0
        tangentMode: 0
      - serializedVersion: 2
        time: 2.3
        value: 0
        inSlope: 0
        outSlope: 0
        tangentMode: 0
      m_PreInfinity: 2
      m_PostInfinity: 2
      m_RotationOrder: 4
    attribute: typetree_538195251
    path:
    classID: 224
    script: {fileID: 0}
  - curve:
      serializedVersion: 2
      m_Curve:
      - serializedVersion: 2
        time: 0
        value: 0
        inSlope: 0
        outSlope: 0
        tangentMode: 0
      - serializedVersion: 2
        time: 2.3
        value: 0
        inSlope: 0
        outSlope: 0
        tangentMode: 0
      m_PreInfinity: 2
      m_PostInfinity: 2
      m_RotationOrder: 4
    attribute: m_LocalPosition.z
    path:
    classID: 224
    script: {fileID: 0}
  m_PPtrCurves: []
  m_SampleRate: 60
  m_WrapMode: 0
  m_Bounds:
    m_Center: {x: 0, y: 0, z: 0}
    m_Extent: {x: 0, y: 0, z: 0}
  m_ClipBindingConstant:
    genericBindings:
    - serializedVersion: 2
      path: 3048086446
      attribute: 1
      script: {fileID: 0}
      typeID: 4
      customType: 0
      isPPtrCurve: 0
    - serializedVersion: 2
      path: 3048086446
      attribute: 2
      script: {fileID: 0}
      typeID: 4
      customType: 0
      isPPtrCurve: 0
    - serializedVersion: 2
      path: 3048086446
      attribute: 3
      script: {fileID: 0}
      typeID: 4
      customType: 0
      isPPtrCurve: 0
    - serializedVersion: 2
      path: 0
      attribute: 1460864421
      script: {fileID: 0}
      typeID: 224
      customType: 0
      isPPtrCurve: 0
    - serializedVersion: 2
      path: 0
      attribute: 538195251
      script: {fileID: 0}
      typeID: 224
      customType: 0
      isPPtrCurve: 0
    - serializedVersion: 2
      path: 0
      attribute: 2033536083
      script: {fileID: 0}
      typeID: 224
      customType: 28
      isPPtrCurve: 0
    pptrCurveMapping: []
  m_AnimationClipSettings:
    serializedVersion: 2
    m_AdditiveReferencePoseClip: {fileID: 0}
    m_AdditiveReferencePoseTime: 0
    m_StartTime: 0
    m_StopTime: 2.2666667
    m_OrientationOffsetY: 0
    m_Level: 0
    m_CycleOffset: 0
    m_HasAdditiveReferencePose: 0
    m_LoopTime: 1
    m_LoopBlend: 0
    m_LoopBlendOrientation: 0
    m_LoopBlendPositionY: 0
    m_LoopBlendPositionXZ: 0
    m_KeepOriginalOrientation: 0
    m_KeepOriginalPositionY: 1
    m_KeepOriginalPositionXZ: 0
    m_HeightFromFeet: 0
    m_Mirror: 0
  m_EditorCurves: []
  m_EulerEditorCurves: []
  m_HasGenericRootTransform: 0
  m_HasMotionFloatCurves: 0
  m_GenerateMotionCurves: 0
  m_Events:
  - time: 1.0166667
    functionName: PlaySFXByName
    data: EI-CharUnlockBoxSpin
    objectReferenceParameter: {fileID: 0}
    floatParameter: 0
    intParameter: 0
    messageOptions: 0
  - time: 2.15
    functionName: PlaySFXByName
    data: EI-CharUnlockBoxExplode
    objectReferenceParameter: {fileID: 0}
    floatParameter: 0
    intParameter: 0
    messageOptions: 0
