%YAML 1.1
%TAG !u! tag:unity3d.com,2011:
--- !u!74 &7400000
AnimationClip:
  serializedVersion: 6
  m_ObjectHideFlags: 0
  m_PrefabParentObject: {fileID: 0}
  m_PrefabInternal: {fileID: 0}
  m_Name: Chase
  m_Legacy: 0
  m_Compressed: 0
  m_UseHighQualityCurve: 1
  m_RotationCurves:
  - curve:
      serializedVersion: 2
      m_Curve:
      - serializedVersion: 2
        time: 0
        value: {x: 0, y: -0, z: -0, w: 1}
        inSlope: {x: 0, y: 0, z: 0, w: 0}
        outSlope: {x: 0.041449115, y: 0, z: 0, w: -1.4305114E-05}
        tangentMode: 1
      - serializedVersion: 2
        time: 0.21666668
        value: {x: 0.04668236, y: -0, z: -0, w: 0.9989098}
        inSlope: {x: 0.07866956, y: 0, z: 0, w: -0.0036281345}
        outSlope: {x: 0.07866953, y: 0, z: 0, w: -0.003628135}
        tangentMode: 1
      - serializedVersion: 2
        time: 0.26666668
        value: {x: 0.023692852, y: -0, z: -0, w: 0.9997193}
        inSlope: {x: -0.9771037, y: 0, z: 0, w: 0.023156384}
        outSlope: {x: -0.9771037, y: 0, z: 0, w: 0.023156386}
        tangentMode: 1
      - serializedVersion: 2
        time: 0.3
        value: {x: 0.0022471878, y: 0, z: 0, w: 1.0002276}
        inSlope: {x: -0.3429505, y: 0, z: 0, w: 0.008127689}
        outSlope: {x: 0, y: 0, z: 0, w: 0}
        tangentMode: 1
      m_PreInfinity: 2
      m_PostInfinity: 2
      m_RotationOrder: 4
    path: Root/Feet_CTRL
  - curve:
      serializedVersion: 2
      m_Curve:
      - serializedVersion: 2
        time: 0
        value: {x: 0, y: -0, z: -0, w: 1}
        inSlope: {x: 0, y: 0, z: 0, w: 0}
        outSlope: {x: -0.264718, y: -0.01378881, z: -0.10032487, w: -0.00066876406}
        tangentMode: 1
      - serializedVersion: 2
        time: 0.083333336
        value: {x: -0.059849814, y: -0.0046625896, z: -0.024334181, w: 0.9978999}
        inSlope: {x: -0.65084374, y: -0.07334281, z: -0.30895698, w: -0.044932358}
        outSlope: {x: -0.65084374, y: -0.07334281, z: -0.30895698, w: -0.044932358}
        tangentMode: 1
      - serializedVersion: 2
        time: 0.13333334
        value: {x: -0.052249968, y: -0.0050071017, z: -0.027178377, w: 0.9982516}
        inSlope: {x: 1.392582, y: 0.091098346, z: 0.32302034, w: 0.071023114}
        outSlope: {x: 1.392582, y: 0.091098346, z: 0.32302034, w: 0.071023114}
        tangentMode: 1
      - serializedVersion: 2
        time: 0.20000002
        value: {x: 0.06191319, y: -0, z: -0, w: 0.99808156}
        inSlope: {x: 0.53297174, y: 0.008256627, z: 0.09346072, w: -0.028749686}
        outSlope: {x: 0.53297174, y: 0.008256627, z: 0.09346072, w: -0.028749682}
        tangentMode: 1
      - serializedVersion: 2
        time: 0.3
        value: {x: -8.3971505E-09, y: 1.1225941E-10, z: 7.156141E-10, w: 1}
        inSlope: {x: -0.72447914, y: 0.004360057, z: 0.030100198, w: 0.00021815301}
        outSlope: {x: 0, y: 0, z: 0, w: 0}
        tangentMode: 1
      m_PreInfinity: 2
      m_PostInfinity: 2
      m_RotationOrder: 4
    path: Root/Feet_CTRL/Body_CTRL
  - curve:
      serializedVersion: 2
      m_Curve:
      - serializedVersion: 2
        time: 0
        value: {x: -0.19509034, y: 0, z: -0, w: 0.9807853}
        inSlope: {x: 0, y: 0, z: 0, w: 0}
        outSlope: {x: -1.216582, y: -0.06398258, z: -0.5403892, w: -0.25764942}
        tangentMode: 1
      - serializedVersion: 2
        time: 0.016666668
        value: {x: -0.2153667, y: -0.0010663765, z: -0.009006487, w: 0.97649115}
        inSlope: {x: -1.8944919, y: -0.14225373, z: -0.8509506, w: -0.45397994}
        outSlope: {x: -1.8944919, y: -0.14225373, z: -0.8509506, w: -0.45397994}
        tangentMode: 1
      - serializedVersion: 2
        time: 0.06666667
        value: {x: -0.30666435, y: -0.012510029, z: -0.055532526, w: 0.950114}
        inSlope: {x: 0.5774708, y: 0.0032174212, z: -0.14886028, w: 0.16592501}
        outSlope: {x: 0.57747066, y: 0.0032174215, z: -0.14886028, w: 0.16592506}
        tangentMode: 1
      - serializedVersion: 2
        time: 0.116666675
        value: {x: -0.16567811, y: -0.001981191, z: -0.028211065, w: 0.98577434}
        inSlope: {x: 3.5522156, y: 0.16304347, z: 0.874393, w: 0.6299455}
        outSlope: {x: 3.5522156, y: 0.16304347, z: 0.874393, w: 0.62994546}
        tangentMode: 1
      - serializedVersion: 2
        time: 0.15
        value: {x: -0.06843234, y: -1.9499152E-10, z: 4.2549204E-09, w: 0.9976558}
        inSlope: {x: 1.8390989, y: -0.0025260963, z: 0.748383, w: 0.14370562}
        outSlope: {x: 1.8390989, y: -0.00252609, z: 0.748383, w: 0.14370562}
        tangentMode: 1
      - serializedVersion: 2
        time: 0.21666668
        value: {x: -0.03580706, y: -0.0009211349, z: 0.044832513, w: 0.99835217}
        inSlope: {x: -0.4598974, y: 0.018191839, z: 0.3499248, w: -0.032848127}
        outSlope: {x: -0.45989728, y: 0.018191839, z: 0.3499248, w: -0.032848123}
        tangentMode: 1
      - serializedVersion: 2
        time: 0.26666668
        value: {x: -0.111870795, y: 0.0015272169, z: 0.024229981, w: 0.99342614}
        inSlope: {x: -2.5328348, y: 0.0066452757, z: -0.98211586, w: -0.26742315}
        outSlope: {x: -2.532835, y: 0.0066452716, z: -0.98211586, w: -0.26742315}
        tangentMode: 1
      - serializedVersion: 2
        time: 0.3
        value: {x: -0.19379173, y: 0.0001332552, z: 0.0026445324, w: 0.9811021}
        inSlope: {x: -2.4009266, y: -0.025990447, z: -0.16597384, w: -0.4735898}
        outSlope: {x: 0, y: 0, z: 0, w: 0}
        tangentMode: 1
      m_PreInfinity: 2
      m_PostInfinity: 2
      m_RotationOrder: 4
    path: Root/Feet_CTRL/Body_CTRL/Head_CTRL
  - curve:
      serializedVersion: 2
      m_Curve:
      - serializedVersion: 2
        time: 0
        value: {x: 0.32556817, y: -0, z: -0, w: 0.94551855}
        inSlope: {x: 0, y: 0, z: 0, w: 0}
        outSlope: {x: -1.6563963, y: 0.00134508, z: 0.0061164238, w: 0.5435586}
        tangentMode: 1
      - serializedVersion: 2
        time: 0.016666668
        value: {x: 0.29796156, y: 2.2418E-05, z: 0.0001019404, w: 0.95457786}
        inSlope: {x: -3.0271883, y: 0.0031896755, z: 0.011935578, w: 0.86754435}
        outSlope: {x: -3.0271883, y: 0.0031896755, z: 0.011935578, w: 0.86754435}
        tangentMode: 1
      - serializedVersion: 2
        time: 0.050000004
        value: {x: 0.120251045, y: 0.00028560788, z: 0.00086732436, w: 0.9927431}
        inSlope: {x: -6.703607, y: 0.013599986, z: 0.031461522, w: 0.76684165}
        outSlope: {x: -6.703607, y: 0.013599986, z: 0.031461522, w: 0.76684165}
        tangentMode: 1
      - serializedVersion: 2
        time: 0.083333336
        value: {x: -0.11434528, y: 0.00086504326, z: 0.0020223153, w: 0.99343866}
        inSlope: {x: -6.291772, y: 0.015617979, z: 0.030521605, w: -0.6594942}
        outSlope: {x: -6.291772, y: 0.015617979, z: 0.030521607, w: -0.6594942}
        tangentMode: 1
      - serializedVersion: 2
        time: 0.116666675
        value: {x: -0.30228254, y: 0.0010153978, z: 0.0027269654, w: 0.95321393}
        inSlope: {x: -5.71317, y: -0.0088254595, z: 0.008425749, w: -1.8314857}
        outSlope: {x: -5.71317, y: -0.0088254595, z: 0.008425749, w: -1.8314857}
        tangentMode: 1
      - serializedVersion: 2
        time: 0.13333334
        value: {x: -0.39895645, y: 0.0007860728, z: 0.0027448153, w: 0.9169654}
        inSlope: {x: -4.7134113, y: -0.013200924, z: -0.0034798312, w: -1.9495959}
        outSlope: {x: -4.7134113, y: -0.013200924, z: -0.0034798314, w: -1.9495959}
        tangentMode: 1
      - serializedVersion: 2
        time: 0.15
        value: {x: -0.45939624, y: 0.00057536707, z: 0.002610971, w: 0.8882274}
        inSlope: {x: -1.4914191, y: -0.010885632, z: -0.0026385745, w: -0.69816476}
        outSlope: {x: -1.4914191, y: -0.010885632, z: -0.0026385747, w: -0.69816476}
        tangentMode: 1
      - serializedVersion: 2
        time: 0.16666667
        value: {x: -0.44867042, y: 0.00042321844, z: 0.0026568628, w: 0.89369327}
        inSlope: {x: 9.330195, y: 0.0020462654, z: 0.0109459, w: 3.020906}
        outSlope: {x: 9.330195, y: 0.0020462656, z: 0.0109459, w: 3.020906}
        tangentMode: 1
      - serializedVersion: 2
        time: 0.18333334
        value: {x: -0.14838973, y: 0.0006435759, z: 0.0029758343, w: 0.98892426}
        inSlope: {x: 18.958931, y: 0.027626632, z: -0.027545882, w: 2.6808717}
        outSlope: {x: 18.958931, y: 0.027626632, z: -0.02754588, w: 2.6808717}
        tangentMode: 1
      - serializedVersion: 2
        time: 0.20000002
        value: {x: 0.18329418, y: 0.0013441067, z: 0.0017386657, w: 0.98305565}
        inSlope: {x: 12.424249, y: 0.018666057, z: -0.056443073, w: -0.7465301}
        outSlope: {x: 12.424249, y: 0.018666057, z: -0.056443073, w: -0.7465302}
        tangentMode: 1
      - serializedVersion: 2
        time: 0.21666668
        value: {x: 0.26575217, y: 0.0012657784, z: 0.0010943976, w: 0.9640399}
        inSlope: {x: 4.0994368, y: -0.0086794365, z: -0.034248345, w: -1.0685779}
        outSlope: {x: 4.0994368, y: -0.0086794365, z: -0.034248345, w: -1.0685779}
        tangentMode: 1
      - serializedVersion: 2
        time: 0.26666668
        value: {x: 0.3587376, y: 0.00046235727, z: 7.5638134E-05, w: 0.93343836}
        inSlope: {x: 0.0008502603, y: -0.01769841, z: -0.00820025, w: -0.00030756}
        outSlope: {x: 0.00085026026, y: -0.01769841, z: -0.008200249, w: -0.00030755997}
        tangentMode: 1
      - serializedVersion: 2
        time: 0.3
        value: {x: 0.326297, y: 1.4742469E-05, z: -6.577531E-06, w: 0.94615686}
        inSlope: {x: -2.2039843, y: -0.007599798, z: 0.0044287248, w: 0.73853}
        outSlope: {x: 0, y: 0, z: 0, w: 0}
        tangentMode: 1
      m_PreInfinity: 2
      m_PostInfinity: 2
      m_RotationOrder: 4
    path: Root/Feet_CTRL/Body_CTRL/Head_CTRL/NoseRing_CTRL
  - curve:
      serializedVersion: 2
      m_Curve:
      - serializedVersion: 2
        time: 0
        value: {x: 0.70926905, y: -0.018270971, z: 0.0046619712, w: 0.7046857}
        inSlope: {x: 0, y: 0, z: 0, w: 0}
        outSlope: {x: 0.12833476, y: -0.9784822, z: -0.97004473, w: -0.17111419}
        tangentMode: 1
      - serializedVersion: 2
        time: 0.016666668
        value: {x: 0.71140796, y: -0.03457901, z: -0.011505443, w: 0.7018338}
        inSlope: {x: -0.3568947, y: -1.7448806, z: -1.7416415, w: 0.17798422}
        outSlope: {x: -0.3568947, y: -1.7448806, z: -1.7416415, w: 0.17798424}
        tangentMode: 1
      - serializedVersion: 2
        time: 0.033333335
        value: {x: 0.69737256, y: -0.07643366, z: -0.05339275, w: 0.7106185}
        inSlope: {x: -2.2321877, y: -2.4576106, z: -2.4851007, w: 1.6293577}
        outSlope: {x: -2.2321877, y: -2.4576108, z: -2.4851007, w: 1.6293577}
        tangentMode: 1
      - serializedVersion: 2
        time: 0.050000004
        value: {x: 0.6370017, y: -0.11649938, z: -0.09434214, w: 0.7561457}
        inSlope: {x: -4.799874, y: -1.1276914, z: -1.2232072, w: 3.5897148}
        outSlope: {x: -4.799874, y: -1.1276914, z: -1.2232072, w: 3.5897148}
        tangentMode: 1
      - serializedVersion: 2
        time: 0.06666667
        value: {x: 0.53737676, y: -0.11402338, z: -0.09416633, w: 0.83027565}
        inSlope: {x: -5.7680874, y: 1.6586255, z: 1.4664837, w: 4.0880017}
        outSlope: {x: -5.7680874, y: 1.6586255, z: 1.4664837, w: 4.0880017}
        tangentMode: 1
      - serializedVersion: 2
        time: 0.083333336
        value: {x: 0.44473213, y: -0.06121187, z: -0.045459352, w: 0.8924124}
        inSlope: {x: -4.297324, y: 3.3979793, z: 3.0883431, w: 2.6620708}
        outSlope: {x: -4.297324, y: 3.3979793, z: 3.0883431, w: 2.6620708}
        tangentMode: 1
      - serializedVersion: 2
        time: 0.10000001
        value: {x: 0.3941326, y: -0.00075739034, z: 0.008778456, w: 0.91901135}
        inSlope: {x: -2.1471856, y: 3.034816, z: 2.5245085, w: 1.0105953}
        outSlope: {x: -2.1471856, y: 3.034816, z: 2.5245085, w: 1.0105953}
        tangentMode: 1
      - serializedVersion: 2
        time: 0.13333334
        value: {x: 0.36236194, y: 0.0688348, z: 0.052119236, w: 0.9280298}
        inSlope: {x: -0.4422954, y: 1.2717943, z: 0.29413396, w: 0.07677735}
        outSlope: {x: -0.4422954, y: 1.2717943, z: 0.29413396, w: 0.07677735}
        tangentMode: 1
      - serializedVersion: 2
        time: 0.18333334
        value: {x: 0.3711063, y: 0.05875051, z: -0.002833376, w: 0.9267257}
        inSlope: {x: 0.98545206, y: -1.656302, z: -2.1476939, w: -0.3257058}
        outSlope: {x: 0.98545206, y: -1.656302, z: -2.1476939, w: -0.3257058}
        tangentMode: 1
      - serializedVersion: 2
        time: 0.20000002
        value: {x: 0.3935201, y: 0.023742096, z: -0.042412847, w: 0.9180302}
        inSlope: {x: 2.280816, y: -2.7853174, z: -2.7670422, w: -1.1393594}
        outSlope: {x: 2.280816, y: -2.7853174, z: -2.7670422, w: -1.1393594}
        tangentMode: 1
      - serializedVersion: 2
        time: 0.21666668
        value: {x: 0.4471335, y: -0.034093425, z: -0.09506814, w: 0.88874704}
        inSlope: {x: 4.446335, y: -3.311938, z: -2.7467647, w: -2.7828243}
        outSlope: {x: 4.446335, y: -3.311938, z: -2.7467647, w: -2.7828243}
        tangentMode: 1
      - serializedVersion: 2
        time: 0.23333335
        value: {x: 0.54173124, y: -0.08665583, z: -0.13397166, w: 0.8252694}
        inSlope: {x: 5.7964954, y: -1.7733915, z: -0.78569317, w: -4.081339}
        outSlope: {x: 5.7964954, y: -1.7733915, z: -0.78569317, w: -4.081339}
        tangentMode: 1
      - serializedVersion: 2
        time: 0.25
        value: {x: 0.6403499, y: -0.093206465, z: -0.12125792, w: 0.7527025}
        inSlope: {x: 4.7086263, y: 0.7549139, z: 1.9634826, w: -3.4736743}
        outSlope: {x: 4.7086263, y: 0.7549139, z: 1.9634825, w: -3.4736743}
        tangentMode: 1
      - serializedVersion: 2
        time: 0.26666668
        value: {x: 0.6986854, y: -0.061492004, z: -0.068522215, w: 0.7094803}
        inSlope: {x: 2.1388793, y: 1.9355437, z: 3.1184268, w: -1.5289079}
        outSlope: {x: 2.1388793, y: 1.9355437, z: 3.1184268, w: -1.5289079}
        tangentMode: 1
      - serializedVersion: 2
        time: 0.3
        value: {x: 0.70926905, y: -0.018270984, z: 0.00466196, w: 0.7046857}
        inSlope: {x: -0.008744226, y: -0.21309447, z: 0.20985603, w: 0.0032063576}
        outSlope: {x: 0, y: 0, z: 0, w: 0}
        tangentMode: 1
      m_PreInfinity: 2
      m_PostInfinity: 2
      m_RotationOrder: 4
    path: Root/Feet_CTRL/Body_CTRL/Tail_CTRL
  - curve:
      serializedVersion: 2
      m_Curve:
      - serializedVersion: 2
        time: 0
        value: {x: 0, y: 0, z: -0, w: 1}
        inSlope: {x: 0, y: 0, z: 0, w: 0}
        outSlope: {x: 0, y: 0, z: 0, w: 0}
        tangentMode: 1
      - serializedVersion: 2
        time: 0.33333334
        value: {x: 0, y: 0, z: -0, w: 1}
        inSlope: {x: 0, y: 0, z: 0, w: 0}
        outSlope: {x: 0, y: 0, z: 0, w: 0}
        tangentMode: 1
      m_PreInfinity: 2
      m_PostInfinity: 2
      m_RotationOrder: 4
    path: Bull
  - curve:
      serializedVersion: 2
      m_Curve:
      - serializedVersion: 2
        time: 0
        value: {x: 0, y: 0, z: -0, w: 1}
        inSlope: {x: 0, y: 0, z: 0, w: 0}
        outSlope: {x: 0, y: 0, z: 0, w: 0}
        tangentMode: 1
      - serializedVersion: 2
        time: 0.33333334
        value: {x: 0, y: 0, z: -0, w: 1}
        inSlope: {x: 0, y: 0, z: 0, w: 0}
        outSlope: {x: 0, y: 0, z: 0, w: 0}
        tangentMode: 1
      m_PreInfinity: 2
      m_PostInfinity: 2
      m_RotationOrder: 4
    path: Root
  - curve:
      serializedVersion: 2
      m_Curve:
      - serializedVersion: 2
        time: 0
        value: {x: 0.4305111, y: -0, z: -0, w: 0.90258527}
        inSlope: {x: 0, y: 0, z: 0, w: 0}
        outSlope: {x: 0, y: 0, z: 0, w: 0}
        tangentMode: 1
      - serializedVersion: 2
        time: 0.33333334
        value: {x: 0.4305111, y: -0, z: -0, w: 0.90258527}
        inSlope: {x: 0, y: 0, z: 0, w: 0}
        outSlope: {x: 0, y: 0, z: 0, w: 0}
        tangentMode: 1
      m_PreInfinity: 2
      m_PostInfinity: 2
      m_RotationOrder: 4
    path: Root/Feet_CTRL/Body_CTRL/Head_CTRL/Ears_CTRL
  m_CompressedRotationCurves: []
  m_EulerCurves: []
  m_PositionCurves:
  - curve:
      serializedVersion: 2
      m_Curve:
      - serializedVersion: 2
        time: 0
        value: {x: -0, y: 0, z: 0}
        inSlope: {x: 0, y: 0, z: 0}
        outSlope: {x: -0, y: -0, z: -0}
        tangentMode: 1
      - serializedVersion: 2
        time: 0.1
        value: {x: -0, y: 0, z: 0}
        inSlope: {x: 0, y: 0, z: 0}
        outSlope: {x: -0, y: 4.3669844, z: -3.1783006}
        tangentMode: 1
      - serializedVersion: 2
        time: 0.11666667
        value: {x: -0, y: 0.07278307, z: -0.052971676}
        inSlope: {x: 0, y: 4.3669844, z: -3.1783006}
        outSlope: {x: -0, y: 9.607363, z: -6.99226}
        tangentMode: 1
      - serializedVersion: 2
        time: 0.15
        value: {x: -0, y: 0.39302865, z: -0.2860471}
        inSlope: {x: 0, y: 9.6073675, z: -6.992264}
        outSlope: {x: -0, y: 4.3669877, z: -3.1783025}
        tangentMode: 1
      - serializedVersion: 2
        time: 0.16666667
        value: {x: -0, y: 0.46581176, z: -0.33901882}
        inSlope: {x: 0, y: 4.3669877, z: -3.1783025}
        outSlope: {x: -0, y: -4.3669877, z: 3.1783025}
        tangentMode: 1
      - serializedVersion: 2
        time: 0.18333334
        value: {x: -0, y: 0.39302865, z: -0.2860471}
        inSlope: {x: 0, y: -4.3669877, z: 3.1783025}
        outSlope: {x: -0, y: -9.607365, z: 6.9922614}
        tangentMode: 1
      - serializedVersion: 2
        time: 0.21666667
        value: {x: -0, y: 0.072783105, z: -0.052971702}
        inSlope: {x: 0, y: -9.6073675, z: 6.992264}
        outSlope: {x: -0, y: -4.3669863, z: 3.1783023}
        tangentMode: 1
      - serializedVersion: 2
        time: 0.23333333
        value: {x: -0, y: 0, z: 0}
        inSlope: {x: 0, y: -4.3669863, z: 3.1783023}
        outSlope: {x: -0, y: -0, z: -0}
        tangentMode: 1
      - serializedVersion: 2
        time: 0.3
        value: {x: 0, y: 0, z: 0}
        inSlope: {x: 0, y: 0, z: 0}
        outSlope: {x: 0, y: 0, z: 0}
        tangentMode: 1
      m_PreInfinity: 2
      m_PostInfinity: 2
      m_RotationOrder: 4
    path: Root/Feet_CTRL
  - curve:
      serializedVersion: 2
      m_Curve:
      - serializedVersion: 2
        time: 0
        value: {x: -0, y: 1.16, z: 0}
        inSlope: {x: 0, y: 0, z: 0}
        outSlope: {x: -0, y: -0, z: -0}
        tangentMode: 1
      - serializedVersion: 2
        time: 0.1
        value: {x: -0, y: 1.16, z: 6.938894E-18}
        inSlope: {x: 0, y: 0, z: 4.1633366E-16}
        outSlope: {x: -0, y: -2.8602862, z: 4.412389}
        tangentMode: 1
      - serializedVersion: 2
        time: 0.11666667
        value: {x: -0, y: 1.1123285, z: 0.07353981}
        inSlope: {x: 0, y: -2.8602862, z: 4.412389}
        outSlope: {x: -0, y: -6.2926273, z: 9.7072525}
        tangentMode: 1
      - serializedVersion: 2
        time: 0.15
        value: {x: -0, y: 0.90257424, z: 0.39711505}
        inSlope: {x: 0, y: -6.2926307, z: 9.707258}
        outSlope: {x: -0, y: -2.8602862, z: 4.412391}
        tangentMode: 1
      - serializedVersion: 2
        time: 0.16666667
        value: {x: -0, y: 0.8549028, z: 0.4706549}
        inSlope: {x: 0, y: -2.8602862, z: 4.412391}
        outSlope: {x: -0, y: 2.8602862, z: -4.412391}
        tangentMode: 1
      - serializedVersion: 2
        time: 0.18333334
        value: {x: -0, y: 0.90257424, z: 0.39711505}
        inSlope: {x: 0, y: 2.8602862, z: -4.412391}
        outSlope: {x: -0, y: 6.2926307, z: -9.707254}
        tangentMode: 1
      - serializedVersion: 2
        time: 0.21666667
        value: {x: -0, y: 1.1123284, z: 0.07353984}
        inSlope: {x: 0, y: 6.2926254, z: -9.707258}
        outSlope: {x: -0, y: 2.8602908, z: -4.4123907}
        tangentMode: 1
      - serializedVersion: 2
        time: 0.23333333
        value: {x: -0, y: 1.16, z: 0}
        inSlope: {x: 0, y: 2.8602908, z: -4.4123907}
        outSlope: {x: -0, y: -0, z: 8.326673E-16}
        tangentMode: 1
      - serializedVersion: 2
        time: 0.3
        value: {x: 0, y: 1.16, z: 1.9984015E-17}
        inSlope: {x: 0, y: 0, z: -9.992016E-17}
        outSlope: {x: 0, y: 0, z: 0}
        tangentMode: 1
      m_PreInfinity: 2
      m_PostInfinity: 2
      m_RotationOrder: 4
    path: Root/Feet_CTRL/Body_CTRL
  - curve:
      serializedVersion: 2
      m_Curve:
      - serializedVersion: 2
        time: 0
        value: {x: -0, y: -0.7449196, z: 0.79623795}
        inSlope: {x: 0, y: 0, z: 0}
        outSlope: {x: -0, y: 1.2221968, z: -3.2356975}
        tangentMode: 1
      - serializedVersion: 2
        time: 0.016666668
        value: {x: -0, y: -0.7245496, z: 0.74230963}
        inSlope: {x: 0, y: 1.2221968, z: -3.2356975}
        outSlope: {x: -1.6653343E-15, y: 2.5454314, z: -6.9857225}
        tangentMode: 1
      - serializedVersion: 2
        time: 0.05
        value: {x: 1.110223E-16, y: -0.64567715, z: 0.514986}
        inSlope: {x: 8.326672E-15, y: 2.1869156, z: -6.653698}
        outSlope: {x: -6.661337E-15, y: 0.14666745, z: -2.2396245}
        tangentMode: 1
      - serializedVersion: 2
        time: 0.06666667
        value: {x: -0, y: -0.6432327, z: 0.47765887}
        inSlope: {x: -6.661337E-15, y: 0.14666745, z: -2.2396245}
        outSlope: {x: -0, y: -3.0798342, z: 4.0019965}
        tangentMode: 1
      - serializedVersion: 2
        time: 0.083333336
        value: {x: -0, y: -0.69456327, z: 0.5443588}
        inSlope: {x: 0, y: -3.0798342, z: 4.0019965}
        outSlope: {x: -6.6613386E-15, y: -5.1991105, z: 7.652985}
        tangentMode: 1
      - serializedVersion: 2
        time: 0.1
        value: {x: -1.110223E-16, y: -0.78121513, z: 0.67190856}
        inSlope: {x: -6.6613386E-15, y: -5.1991105, z: 7.6529846}
        outSlope: {x: 1.6653346E-15, y: -5.5599613, z: 8.75875}
        tangentMode: 1
      - serializedVersion: 2
        time: 0.11666667
        value: {x: -8.326673E-17, y: -0.8738811, z: 0.8178877}
        inSlope: {x: 1.6653346E-15, y: -5.5599613, z: 8.75875}
        outSlope: {x: 4.9960015E-15, y: -4.16237, z: 7.319286}
        tangentMode: 1
      - serializedVersion: 2
        time: 0.13333334
        value: {x: -0, y: -0.943254, z: 0.93987584}
        inSlope: {x: 4.9960015E-15, y: -4.16237, z: 7.319286}
        outSlope: {x: -0, y: -1.0063477, z: 3.3346071}
        tangentMode: 1
      - serializedVersion: 2
        time: 0.15
        value: {x: -0, y: -0.96002644, z: 0.99545264}
        inSlope: {x: 0, y: -1.0063477, z: 3.3346071}
        outSlope: {x: -0, y: 3.6924548, z: -2.1888657}
        tangentMode: 1
      - serializedVersion: 2
        time: 0.16666667
        value: {x: -0, y: -0.89848554, z: 0.95897156}
        inSlope: {x: 0, y: 3.6924548, z: -2.1888657}
        outSlope: {x: 1.6653346E-15, y: 7.2189837, z: -6.015523}
        tangentMode: 1
      - serializedVersion: 2
        time: 0.18333334
        value: {x: 2.7755576E-17, y: -0.77816916, z: 0.85871285}
        inSlope: {x: 1.6653346E-15, y: 7.2189837, z: -6.015523}
        outSlope: {x: -1.6653346E-15, y: 8.431318, z: -7.533998}
        tangentMode: 1
      - serializedVersion: 2
        time: 0.2
        value: {x: -0, y: -0.6376472, z: 0.7331462}
        inSlope: {x: -1.6653346E-15, y: 8.431318, z: -7.5339985}
        outSlope: {x: -0, y: 7.3294764, z: -6.744301}
        tangentMode: 1
      - serializedVersion: 2
        time: 0.21666667
        value: {x: -0, y: -0.5154893, z: 0.6207412}
        inSlope: {x: 0, y: 7.3294764, z: -6.744301}
        outSlope: {x: -3.3306693E-15, y: 3.9134538, z: -3.6464288}
        tangentMode: 1
      - serializedVersion: 2
        time: 0.23333333
        value: {x: -5.551115E-17, y: -0.45026505, z: 0.5599674}
        inSlope: {x: -3.3306693E-15, y: 3.9134536, z: -3.6464288}
        outSlope: {x: 3.3306693E-15, y: -1.6843736, z: 1.5837274}
        tangentMode: 1
      - serializedVersion: 2
        time: 0.25
        value: {x: -0, y: -0.4783379, z: 0.58636284}
        inSlope: {x: 3.3306693E-15, y: -1.6843736, z: 1.5837274}
        outSlope: {x: -0, y: -5.7146044, z: 5.1489897}
        tangentMode: 1
      - serializedVersion: 2
        time: 0.26666668
        value: {x: -0, y: -0.5735814, z: 0.6721794}
        inSlope: {x: 0, y: -5.7146044, z: 5.1489897}
        outSlope: {x: -0, y: -6.434939, z: 5.3266983}
        tangentMode: 1
      - serializedVersion: 2
        time: 0.28333333
        value: {x: -0, y: -0.6808303, z: 0.7609576}
        inSlope: {x: 0, y: -6.434939, z: 5.3266983}
        outSlope: {x: -0, y: -3.8453534, z: 2.1168163}
        tangentMode: 1
      - serializedVersion: 2
        time: 0.3
        value: {x: -0, y: -0.7449196, z: 0.79623795}
        inSlope: {x: 0, y: -3.8453534, z: 2.1168163}
        outSlope: {x: 0, y: 0, z: 0}
        tangentMode: 1
      m_PreInfinity: 2
      m_PostInfinity: 2
      m_RotationOrder: 4
    path: Root/Feet_CTRL/Body_CTRL/Head_CTRL/Ears_CTRL
  - curve:
      serializedVersion: 2
      m_Curve:
      - serializedVersion: 2
        time: 0
        value: {x: -0, y: 0, z: 0}
        inSlope: {x: 0, y: 0, z: 0}
        outSlope: {x: 0, y: 0, z: 0}
        tangentMode: 1
      - serializedVersion: 2
        time: 0.33333334
        value: {x: -0, y: 0, z: 0}
        inSlope: {x: 0, y: 0, z: 0}
        outSlope: {x: 0, y: 0, z: 0}
        tangentMode: 1
      m_PreInfinity: 2
      m_PostInfinity: 2
      m_RotationOrder: 4
    path: Bull
  - curve:
      serializedVersion: 2
      m_Curve:
      - serializedVersion: 2
        time: 0
        value: {x: -0, y: 0, z: 0}
        inSlope: {x: 0, y: 0, z: 0}
        outSlope: {x: 0, y: 0, z: 0}
        tangentMode: 1
      - serializedVersion: 2
        time: 0.33333334
        value: {x: -0, y: 0, z: 0}
        inSlope: {x: 0, y: 0, z: 0}
        outSlope: {x: 0, y: 0, z: 0}
        tangentMode: 1
      m_PreInfinity: 2
      m_PostInfinity: 2
      m_RotationOrder: 4
    path: Root
  - curve:
      serializedVersion: 2
      m_Curve:
      - serializedVersion: 2
        time: 0
        value: {x: -0, y: 2.6, z: 1.36}
        inSlope: {x: 0, y: 0, z: 0}
        outSlope: {x: 0, y: 0, z: 0}
        tangentMode: 1
      - serializedVersion: 2
        time: 0.33333334
        value: {x: -0, y: 2.6, z: 1.36}
        inSlope: {x: 0, y: 0, z: 0}
        outSlope: {x: 0, y: 0, z: 0}
        tangentMode: 1
      m_PreInfinity: 2
      m_PostInfinity: 2
      m_RotationOrder: 4
    path: Root/Feet_CTRL/Body_CTRL/Head_CTRL
  - curve:
      serializedVersion: 2
      m_Curve:
      - serializedVersion: 2
        time: 0
        value: {x: -0, y: -2.3437715, z: 1.125893}
        inSlope: {x: 0, y: 0, z: 0}
        outSlope: {x: 0, y: 0, z: 0}
        tangentMode: 1
      - serializedVersion: 2
        time: 0.33333334
        value: {x: -0, y: -2.3437715, z: 1.125893}
        inSlope: {x: 0, y: 0, z: 0}
        outSlope: {x: 0, y: 0, z: 0}
        tangentMode: 1
      m_PreInfinity: 2
      m_PostInfinity: 2
      m_RotationOrder: 4
    path: Root/Feet_CTRL/Body_CTRL/Head_CTRL/NoseRing_CTRL
  - curve:
      serializedVersion: 2
      m_Curve:
      - serializedVersion: 2
        time: 0
        value: {x: -0.0055230483, y: 1.8589512, z: -2.5900927}
        inSlope: {x: 0, y: 0, z: 0}
        outSlope: {x: 0, y: 0, z: 0}
        tangentMode: 1
      - serializedVersion: 2
        time: 0.33333334
        value: {x: -0.0055230483, y: 1.8589512, z: -2.5900927}
        inSlope: {x: 0, y: 0, z: 0}
        outSlope: {x: 0, y: 0, z: 0}
        tangentMode: 1
      m_PreInfinity: 2
      m_PostInfinity: 2
      m_RotationOrder: 4
    path: Root/Feet_CTRL/Body_CTRL/Tail_CTRL
  m_ScaleCurves:
  - curve:
      serializedVersion: 2
      m_Curve:
      - serializedVersion: 2
        time: 0
        value: {x: 1, y: 1, z: 1}
        inSlope: {x: 0, y: 0, z: 0}
        outSlope: {x: 0, y: 0, z: 5.235464}
        tangentMode: 1
      - serializedVersion: 2
        time: 0.016666668
        value: {x: 1, y: 1, z: 1.0872577}
        inSlope: {x: 0, y: 0, z: 4.6499987}
        outSlope: {x: 0, y: 0, z: 4.6499987}
        tangentMode: 1
      - serializedVersion: 2
        time: 0.033333335
        value: {x: 1, y: 1, z: 1.155}
        inSlope: {x: -0.52899414, y: 0.09139894, z: 0.3662364}
        outSlope: {x: -0.52899414, y: 0.09139894, z: 0.3662362}
        tangentMode: 1
      - serializedVersion: 2
        time: 0.050000004
        value: {x: 0.98236686, y: 1.0030466, z: 1.0994656}
        inSlope: {x: -1.8932445, y: 0.32711506, z: -4.0873184}
        outSlope: {x: -1.8932445, y: 0.32711506, z: -4.0873184}
        tangentMode: 1
      - serializedVersion: 2
        time: 0.13333334
        value: {x: 0.6993082, y: 1.0519533, z: 0.6791027}
        inSlope: {x: -1.8932447, y: 0.32711506, z: -2.8297343}
        outSlope: {x: -1.8932445, y: 0.3271151, z: -2.8297343}
        tangentMode: 1
      - serializedVersion: 2
        time: 0.20000002
        value: {x: 0.7642037, y: 1.0407407, z: 0.6961924}
        inSlope: {x: 2.777156, y: -0.4798363, z: 2.1710722}
        outSlope: {x: 2.7771564, y: -0.47983631, z: 2.1710722}
        tangentMode: 1
      - serializedVersion: 2
        time: 0.28333336
        value: {x: 0.98908347, y: 1.0018861, z: 0.9506308}
        inSlope: {x: 1.2051805, y: -0.20822875, z: 3.100968}
        outSlope: {x: 1.2051804, y: -0.20822877, z: 3.1009681}
        tangentMode: 1
      - serializedVersion: 2
        time: 0.3
        value: {x: 1, y: 1, z: 1.0000001}
        inSlope: {x: 0.32749623, y: -0.056583934, z: 4.444001}
        outSlope: {x: 0, y: 0, z: 0}
        tangentMode: 1
      m_PreInfinity: 2
      m_PostInfinity: 2
      m_RotationOrder: 4
    path: Root/Feet_CTRL
  - curve:
      serializedVersion: 2
      m_Curve:
      - serializedVersion: 2
        time: 0
        value: {x: 1, y: 1, z: 1}
        inSlope: {x: 0, y: 0, z: 0}
        outSlope: {x: 1.0172796, y: 0, z: -3.093377}
        tangentMode: 1
      - serializedVersion: 2
        time: 0.016666668
        value: {x: 1.0169547, y: 1, z: 0.9484437}
        inSlope: {x: 1.8172823, y: 0, z: -2.2671673}
        outSlope: {x: 1.8172823, y: 0, z: -2.2671673}
        tangentMode: 1
      - serializedVersion: 2
        time: 0.033333335
        value: {x: 1.0605761, y: 1, z: 0.92442775}
        inSlope: {x: 3.1950612, y: 0, z: 1.425576}
        outSlope: {x: 3.1950612, y: 0, z: 1.425576}
        tangentMode: 1
      - serializedVersion: 2
        time: 0.050000004
        value: {x: 1.1234567, y: 1, z: 0.9959629}
        inSlope: {x: 4.173546, y: 0, z: 5.0261054}
        outSlope: {x: 4.173546, y: 0, z: 5.0261054}
        tangentMode: 1
      - serializedVersion: 2
        time: 0.15
        value: {x: 1.48, y: 1, z: 1.495725}
        inSlope: {x: -0.05295396, y: 0, z: 0.6069946}
        outSlope: {x: -0.05295396, y: 0, z: 0.6069947}
        tangentMode: 1
      - serializedVersion: 2
        time: 0.28333336
        value: {x: 1.0462139, y: 1, z: 1.0585026}
        inSlope: {x: -3.161981, y: 0, z: -3.8108919}
        outSlope: {x: -3.161981, y: 0, z: -3.8108916}
        tangentMode: 1
      - serializedVersion: 2
        time: 0.3
        value: {x: 1, y: 1, z: 0.99999994}
        inSlope: {x: -1.163744, y: 0, z: -3.6912847}
        outSlope: {x: 0, y: 0, z: 0}
        tangentMode: 1
      m_PreInfinity: 2
      m_PostInfinity: 2
      m_RotationOrder: 4
    path: Root/Feet_CTRL/Body_CTRL
  - curve:
      serializedVersion: 2
      m_Curve:
      - serializedVersion: 2
        time: 0
        value: {x: 1, y: 1, z: 1}
        inSlope: {x: 0, y: 0, z: 0}
        outSlope: {x: 0, y: 0, z: 0}
        tangentMode: 1
      - serializedVersion: 2
        time: 0.33333334
        value: {x: 1, y: 1, z: 1}
        inSlope: {x: 0, y: 0, z: 0}
        outSlope: {x: 0, y: 0, z: 0}
        tangentMode: 1
      m_PreInfinity: 2
      m_PostInfinity: 2
      m_RotationOrder: 4
    path: Bull
  - curve:
      serializedVersion: 2
      m_Curve:
      - serializedVersion: 2
        time: 0
        value: {x: 1, y: 1, z: 1}
        inSlope: {x: 0, y: 0, z: 0}
        outSlope: {x: 0, y: 0, z: 0}
        tangentMode: 1
      - serializedVersion: 2
        time: 0.33333334
        value: {x: 1, y: 1, z: 1}
        inSlope: {x: 0, y: 0, z: 0}
        outSlope: {x: 0, y: 0, z: 0}
        tangentMode: 1
      m_PreInfinity: 2
      m_PostInfinity: 2
      m_RotationOrder: 4
    path: Root
  - curve:
      serializedVersion: 2
      m_Curve:
      - serializedVersion: 2
        time: 0
        value: {x: 1, y: 1, z: 1}
        inSlope: {x: 0, y: 0, z: 0}
        outSlope: {x: 0, y: 0, z: 0}
        tangentMode: 1
      - serializedVersion: 2
        time: 0.33333334
        value: {x: 1, y: 1, z: 1}
        inSlope: {x: 0, y: 0, z: 0}
        outSlope: {x: 0, y: 0, z: 0}
        tangentMode: 1
      m_PreInfinity: 2
      m_PostInfinity: 2
      m_RotationOrder: 4
    path: Root/Feet_CTRL/Body_CTRL/Head_CTRL
  - curve:
      serializedVersion: 2
      m_Curve:
      - serializedVersion: 2
        time: 0
        value: {x: 1, y: 1, z: 1}
        inSlope: {x: 0, y: 0, z: 0}
        outSlope: {x: 0, y: 0, z: 0}
        tangentMode: 1
      - serializedVersion: 2
        time: 0.33333334
        value: {x: 1, y: 1, z: 1}
        inSlope: {x: 0, y: 0, z: 0}
        outSlope: {x: 0, y: 0, z: 0}
        tangentMode: 1
      m_PreInfinity: 2
      m_PostInfinity: 2
      m_RotationOrder: 4
    path: Root/Feet_CTRL/Body_CTRL/Head_CTRL/NoseRing_CTRL
  - curve:
      serializedVersion: 2
      m_Curve:
      - serializedVersion: 2
        time: 0
        value: {x: 1, y: 1, z: 1}
        inSlope: {x: 0, y: 0, z: 0}
        outSlope: {x: 0, y: 0, z: 0}
        tangentMode: 1
      - serializedVersion: 2
        time: 0.33333334
        value: {x: 1, y: 1, z: 1}
        inSlope: {x: 0, y: 0, z: 0}
        outSlope: {x: 0, y: 0, z: 0}
        tangentMode: 1
      m_PreInfinity: 2
      m_PostInfinity: 2
      m_RotationOrder: 4
    path: Root/Feet_CTRL/Body_CTRL/Head_CTRL/Ears_CTRL
  - curve:
      serializedVersion: 2
      m_Curve:
      - serializedVersion: 2
        time: 0
        value: {x: 1, y: 1, z: 1}
        inSlope: {x: 0, y: 0, z: 0}
        outSlope: {x: 0, y: 0, z: 0}
        tangentMode: 1
      - serializedVersion: 2
        time: 0.33333334
        value: {x: 1, y: 1, z: 1}
        inSlope: {x: 0, y: 0, z: 0}
        outSlope: {x: 0, y: 0, z: 0}
        tangentMode: 1
      m_PreInfinity: 2
      m_PostInfinity: 2
      m_RotationOrder: 4
    path: Root/Feet_CTRL/Body_CTRL/Tail_CTRL
  m_FloatCurves: []
  m_PPtrCurves: []
  m_SampleRate: 60
  m_WrapMode: 0
  m_Bounds:
    m_Center: {x: 0, y: 0, z: 0}
    m_Extent: {x: 0, y: 0, z: 0}
  m_ClipBindingConstant:
    genericBindings:
    - serializedVersion: 2
      path: 1194856646
      attribute: 1
      script: {fileID: 0}
      typeID: 4
      customType: 0
      isPPtrCurve: 0
    - serializedVersion: 2
      path: 1458747682
      attribute: 1
      script: {fileID: 0}
      typeID: 4
      customType: 0
      isPPtrCurve: 0
    - serializedVersion: 2
      path: 1413758563
      attribute: 1
      script: {fileID: 0}
      typeID: 4
      customType: 0
      isPPtrCurve: 0
    - serializedVersion: 2
      path: 1194856646
      attribute: 2
      script: {fileID: 0}
      typeID: 4
      customType: 0
      isPPtrCurve: 0
    - serializedVersion: 2
      path: 1458747682
      attribute: 2
      script: {fileID: 0}
      typeID: 4
      customType: 0
      isPPtrCurve: 0
    - serializedVersion: 2
      path: 3819783343
      attribute: 2
      script: {fileID: 0}
      typeID: 4
      customType: 0
      isPPtrCurve: 0
    - serializedVersion: 2
      path: 3357100318
      attribute: 2
      script: {fileID: 0}
      typeID: 4
      customType: 0
      isPPtrCurve: 0
    - serializedVersion: 2
      path: 4071569210
      attribute: 2
      script: {fileID: 0}
      typeID: 4
      customType: 0
      isPPtrCurve: 0
    - serializedVersion: 2
      path: 1194856646
      attribute: 3
      script: {fileID: 0}
      typeID: 4
      customType: 0
      isPPtrCurve: 0
    - serializedVersion: 2
      path: 1458747682
      attribute: 3
      script: {fileID: 0}
      typeID: 4
      customType: 0
      isPPtrCurve: 0
    - serializedVersion: 2
      path: 3476024521
      attribute: 1
      script: {fileID: 0}
      typeID: 4
      customType: 0
      isPPtrCurve: 0
    - serializedVersion: 2
      path: 3066451557
      attribute: 1
      script: {fileID: 0}
      typeID: 4
      customType: 0
      isPPtrCurve: 0
    - serializedVersion: 2
      path: 3819783343
      attribute: 1
      script: {fileID: 0}
      typeID: 4
      customType: 0
      isPPtrCurve: 0
    - serializedVersion: 2
      path: 3357100318
      attribute: 1
      script: {fileID: 0}
      typeID: 4
      customType: 0
      isPPtrCurve: 0
    - serializedVersion: 2
      path: 4071569210
      attribute: 1
      script: {fileID: 0}
      typeID: 4
      customType: 0
      isPPtrCurve: 0
    - serializedVersion: 2
      path: 3476024521
      attribute: 2
      script: {fileID: 0}
      typeID: 4
      customType: 0
      isPPtrCurve: 0
    - serializedVersion: 2
      path: 3066451557
      attribute: 2
      script: {fileID: 0}
      typeID: 4
      customType: 0
      isPPtrCurve: 0
    - serializedVersion: 2
      path: 1413758563
      attribute: 2
      script: {fileID: 0}
      typeID: 4
      customType: 0
      isPPtrCurve: 0
    - serializedVersion: 2
      path: 3476024521
      attribute: 3
      script: {fileID: 0}
      typeID: 4
      customType: 0
      isPPtrCurve: 0
    - serializedVersion: 2
      path: 3066451557
      attribute: 3
      script: {fileID: 0}
      typeID: 4
      customType: 0
      isPPtrCurve: 0
    - serializedVersion: 2
      path: 3819783343
      attribute: 3
      script: {fileID: 0}
      typeID: 4
      customType: 0
      isPPtrCurve: 0
    - serializedVersion: 2
      path: 3357100318
      attribute: 3
      script: {fileID: 0}
      typeID: 4
      customType: 0
      isPPtrCurve: 0
    - serializedVersion: 2
      path: 1413758563
      attribute: 3
      script: {fileID: 0}
      typeID: 4
      customType: 0
      isPPtrCurve: 0
    - serializedVersion: 2
      path: 4071569210
      attribute: 3
      script: {fileID: 0}
      typeID: 4
      customType: 0
      isPPtrCurve: 0
    pptrCurveMapping: []
  m_AnimationClipSettings:
    serializedVersion: 2
    m_AdditiveReferencePoseClip: {fileID: 0}
    m_AdditiveReferencePoseTime: 0
    m_StartTime: 0
    m_StopTime: 0.3
    m_OrientationOffsetY: 0
    m_Level: 0
    m_CycleOffset: 0
    m_HasAdditiveReferencePose: 0
    m_LoopTime: 1
    m_LoopBlend: 0
    m_LoopBlendOrientation: 0
    m_LoopBlendPositionY: 0
    m_LoopBlendPositionXZ: 0
    m_KeepOriginalOrientation: 0
    m_KeepOriginalPositionY: 1
    m_KeepOriginalPositionXZ: 0
    m_HeightFromFeet: 0
    m_Mirror: 0
  m_EditorCurves: []
  m_EulerEditorCurves: []
  m_HasGenericRootTransform: 0
  m_HasMotionFloatCurves: 0
  m_GenerateMotionCurves: 0
  m_Events:
  - time: 0.11666667
    functionName: PlaySFXByName
    data: NP-BullCharge_2
    objectReferenceParameter: {fileID: 0}
    floatParameter: 0
    intParameter: 0
    messageOptions: 0
  - time: 0.28333333
    functionName: PlaySFXByName
    data: NP-BullCharge_2
    objectReferenceParameter: {fileID: 0}
    floatParameter: 0
    intParameter: 0
    messageOptions: 0
