%YAML 1.1
%TAG !u! tag:unity3d.com,2011:
--- !u!74 &7400000
AnimationClip:
  serializedVersion: 6
  m_ObjectHideFlags: 0
  m_PrefabParentObject: {fileID: 0}
  m_PrefabInternal: {fileID: 0}
  m_Name: CTA_IdleV2
  m_Legacy: 0
  m_Compressed: 0
  m_UseHighQualityCurve: 1
  m_RotationCurves: []
  m_CompressedRotationCurves: []
  m_EulerCurves: []
  m_PositionCurves: []
  m_ScaleCurves:
  - curve:
      serializedVersion: 2
      m_Curve:
      - serializedVersion: 2
        time: 0
        value: {x: 1, y: 1, z: 1}
        inSlope: {x: 0, y: 0, z: 0}
        outSlope: {x: 2.2499995, y: 2.2499995, z: 2.2499995}
        tangentMode: 1
      - serializedVersion: 2
        time: 0.06666667
        value: {x: 1.15, y: 1.15, z: 1.15}
        inSlope: {x: 0.87499976, y: 0.87499976, z: 0.87499976}
        outSlope: {x: 0.8749998, y: 0.8749998, z: 0.8749998}
        tangentMode: 1
      - serializedVersion: 2
        time: 0.36666667
        value: {x: 1, y: 1, z: 1}
        inSlope: {x: 0.8749997, y: 0.8749997, z: 0.8749997}
        outSlope: {x: 0.87499994, y: 0.87499994, z: 0.87499994}
        tangentMode: 1
      - serializedVersion: 2
        time: 0.43333334
        value: {x: 1.15, y: 1.15, z: 1.15}
        inSlope: {x: 0.8437497, y: 0.8437497, z: 0.8437497}
        outSlope: {x: 0.8437499, y: 0.8437499, z: 0.8437499}
        tangentMode: 1
      - serializedVersion: 2
        time: 0.7
        value: {x: 1, y: 1, z: 1}
        inSlope: {x: 0, y: 0, z: 0}
        outSlope: {x: 0, y: 0, z: 0}
        tangentMode: 1
      - serializedVersion: 2
        time: 1.2833333
        value: {x: 1, y: 1, z: 1}
        inSlope: {x: 0, y: 0, z: 0}
        outSlope: {x: 0, y: 0, z: 0}
        tangentMode: 1
      - serializedVersion: 2
        time: 1.35
        value: {x: 1.15, y: 1.15, z: 1.15}
        inSlope: {x: 0.87499887, y: 0.87499887, z: 0.87499887}
        outSlope: {x: 0.8749989, y: 0.8749989, z: 0.8749989}
        tangentMode: 1
      - serializedVersion: 2
        time: 1.65
        value: {x: 1, y: 1, z: 1}
        inSlope: {x: 0.6499995, y: 0.6499995, z: 0.6499995}
        outSlope: {x: 0.64999944, y: 0.64999944, z: 0.64999944}
        tangentMode: 1
      - serializedVersion: 2
        time: 1.7333333
        value: {x: 1.15, y: 1.15, z: 1.15}
        inSlope: {x: 0.7043474, y: 0.7043474, z: 0.7043474}
        outSlope: {x: 0.70434725, y: 0.70434725, z: 0.70434725}
        tangentMode: 1
      - serializedVersion: 2
        time: 2.1166666
        value: {x: 1, y: 1, z: 1}
        inSlope: {x: -0.3913044, y: -0.3913044, z: -0.3913044}
        outSlope: {x: 0, y: 0, z: 0}
        tangentMode: 1
      m_PreInfinity: 2
      m_PostInfinity: 2
      m_RotationOrder: 4
    path: Collect/Backing/Heart
  - curve:
      serializedVersion: 2
      m_Curve:
      - serializedVersion: 2
        time: 0
        value: {x: 1, y: 1, z: 1}
        inSlope: {x: 0, y: 0, z: 0}
        outSlope: {x: 0, y: 0, z: 0}
        tangentMode: 1
      - serializedVersion: 2
        time: 2.1333334
        value: {x: 1, y: 1, z: 1}
        inSlope: {x: 0, y: 0, z: 0}
        outSlope: {x: 0, y: 0, z: 0}
        tangentMode: 1
      m_PreInfinity: 2
      m_PostInfinity: 2
      m_RotationOrder: 4
    path: Collect
  m_FloatCurves:
  - curve:
      serializedVersion: 2
      m_Curve:
      - serializedVersion: 2
        time: 0
        value: 1
        inSlope: 0
        outSlope: 0
        tangentMode: 0
      - serializedVersion: 2
        time: 2.1166666
        value: 1
        inSlope: 0
        outSlope: 0
        tangentMode: 0
      m_PreInfinity: 2
      m_PostInfinity: 2
      m_RotationOrder: 4
    attribute: m_IsActive
    path: Collect
    classID: 1
    script: {fileID: 0}
  m_PPtrCurves: []
  m_SampleRate: 60
  m_WrapMode: 0
  m_Bounds:
    m_Center: {x: 0, y: 0, z: 0}
    m_Extent: {x: 0, y: 0, z: 0}
  m_ClipBindingConstant:
    genericBindings:
    - serializedVersion: 2
      path: 156700810
      attribute: 3
      script: {fileID: 0}
      typeID: 4
      customType: 0
      isPPtrCurve: 0
    - serializedVersion: 2
      path: 1807440744
      attribute: 2086281974
      script: {fileID: 0}
      typeID: 1
      customType: 0
      isPPtrCurve: 0
    - serializedVersion: 2
      path: 1807440744
      attribute: 3
      script: {fileID: 0}
      typeID: 4
      customType: 0
      isPPtrCurve: 0
    pptrCurveMapping: []
  m_AnimationClipSettings:
    serializedVersion: 2
    m_AdditiveReferencePoseClip: {fileID: 0}
    m_AdditiveReferencePoseTime: 0
    m_StartTime: 0
    m_StopTime: 2.1166666
    m_OrientationOffsetY: 0
    m_Level: 0
    m_CycleOffset: 0
    m_HasAdditiveReferencePose: 0
    m_LoopTime: 0
    m_LoopBlend: 0
    m_LoopBlendOrientation: 0
    m_LoopBlendPositionY: 0
    m_LoopBlendPositionXZ: 0
    m_KeepOriginalOrientation: 0
    m_KeepOriginalPositionY: 1
    m_KeepOriginalPositionXZ: 0
    m_HeightFromFeet: 0
    m_Mirror: 0
  m_EditorCurves: []
  m_EulerEditorCurves: []
  m_HasGenericRootTransform: 0
  m_HasMotionFloatCurves: 0
  m_GenerateMotionCurves: 0
  m_Events: []
