%YAML 1.1
%TAG !u! tag:unity3d.com,2011:
--- !u!74 &7400000
AnimationClip:
  serializedVersion: 6
  m_ObjectHideFlags: 0
  m_PrefabParentObject: {fileID: 0}
  m_PrefabInternal: {fileID: 0}
  m_Name: GoldenMonkeyBombPulse
  m_Legacy: 0
  m_Compressed: 0
  m_UseHighQualityCurve: 1
  m_RotationCurves: []
  m_CompressedRotationCurves: []
  m_EulerCurves: []
  m_PositionCurves: []
  m_ScaleCurves:
  - curve:
      serializedVersion: 2
      m_Curve:
      - serializedVersion: 2
        time: 0
        value: {x: 1, y: 1, z: 1}
        inSlope: {x: 0, y: 0, z: 0}
        outSlope: {x: 0, y: 0, z: 0}
        tangentMode: 1
      - serializedVersion: 2
        time: 0.33333334
        value: {x: 1.1972135, y: 1.1972134, z: 1.1972134}
        inSlope: {x: 0, y: 0, z: 0}
        outSlope: {x: 0, y: 0, z: 0}
        tangentMode: 1
      - serializedVersion: 2
        time: 0.6666667
        value: {x: 1, y: 1, z: 1}
        inSlope: {x: 0, y: 0, z: 0}
        outSlope: {x: 0, y: 0, z: 0}
        tangentMode: 1
      - serializedVersion: 2
        time: 0.9166667
        value: {x: 1.2502831, y: 1.250283, z: 1.250283}
        inSlope: {x: 0, y: 0, z: 0}
        outSlope: {x: 0, y: 0, z: 0}
        tangentMode: 1
      - serializedVersion: 2
        time: 1.1666666
        value: {x: 1, y: 1, z: 1}
        inSlope: {x: 0, y: 0, z: 0}
        outSlope: {x: 0, y: 0, z: 0}
        tangentMode: 1
      - serializedVersion: 2
        time: 1.3333334
        value: {x: 1.2998042, y: 1.2998041, z: 1.2998041}
        inSlope: {x: 3.576277E-07, y: 0, z: 0}
        outSlope: {x: 0, y: 0, z: 0}
        tangentMode: 1
      - serializedVersion: 2
        time: 1.5
        value: {x: 1.067996, y: 1.067996, z: 1.067996}
        inSlope: {x: 0, y: 0, z: 0}
        outSlope: {x: 0, y: 0, z: 0}
        tangentMode: 1
      - serializedVersion: 2
        time: 1.6666666
        value: {x: 1.374856, y: 1.3748559, z: 1.3748559}
        inSlope: {x: -3.5762795E-07, y: 3.5762795E-07, z: 3.5762795E-07}
        outSlope: {x: 0, y: 0, z: 0}
        tangentMode: 1
      - serializedVersion: 2
        time: 1.8333334
        value: {x: 1.1076835, y: 1.1076835, z: 1.1076835}
        inSlope: {x: 0, y: 0, z: 0}
        outSlope: {x: 0, y: 0, z: 0}
        tangentMode: 1
      - serializedVersion: 2
        time: 1.9166666
        value: {x: 1.4720023, y: 1.4720021, z: 1.4720021}
        inSlope: {x: 0, y: 0, z: 0}
        outSlope: {x: 0, y: 0, z: 0}
        tangentMode: 1
      - serializedVersion: 2
        time: 2.0833333
        value: {x: 1.1669952, y: 1.1669952, z: 1.1669952}
        inSlope: {x: 1.3273162, y: 1.3273154, z: 1.3273154}
        outSlope: {x: 1.3273159, y: 1.3273156, z: 1.3273156}
        tangentMode: 1
      - serializedVersion: 2
        time: 2.1666667
        value: {x: 1.5407188, y: 1.5407187, z: 1.5407187}
        inSlope: {x: 0.1917411, y: 0.1917411, z: 0.1917411}
        outSlope: {x: 0.19174099, y: 0.19174099, z: 0.19174099}
        tangentMode: 1
      - serializedVersion: 2
        time: 2.25
        value: {x: 1.198953, y: 1.198953, z: 1.198953}
        inSlope: {x: 0.6580431, y: 0.6580431, z: 0.6580431}
        outSlope: {x: 0.65804315, y: 0.65804315, z: 0.65804315}
        tangentMode: 1
      - serializedVersion: 2
        time: 2.3333333
        value: {x: 1.6503925, y: 1.6503924, z: 1.6503924}
        inSlope: {x: 0.17577569, y: 0.17577569, z: 0.17577569}
        outSlope: {x: 0.17577577, y: 0.17577577, z: 0.17577577}
        tangentMode: 1
      - serializedVersion: 2
        time: 2.4166667
        value: {x: 1.2282478, y: 1.2282478, z: 1.2282478}
        inSlope: {x: 0.76544523, y: 0.76544523, z: 0.76544523}
        outSlope: {x: 0.76544523, y: 0.76544523, z: 0.76544523}
        tangentMode: 1
      - serializedVersion: 2
        time: 2.5
        value: {x: 1.7779654, y: 1.7779653, z: 1.7779653}
        inSlope: {x: 6.596618, y: 6.5966163, z: 6.5966163}
        outSlope: {x: 0, y: 0, z: 0}
        tangentMode: 1
      m_PreInfinity: 2
      m_PostInfinity: 2
      m_RotationOrder: 4
    path: Pickup
  m_FloatCurves:
  - curve:
      serializedVersion: 2
      m_Curve:
      - serializedVersion: 2
        time: 0
        value: 3.5
        inSlope: 0
        outSlope: 0
        tangentMode: 0
      - serializedVersion: 2
        time: 2.5
        value: 0.25000006
        inSlope: 0
        outSlope: 0
        tangentMode: 0
      m_PreInfinity: 2
      m_PostInfinity: 2
      m_RotationOrder: 4
    attribute: material._RimPower
    path: Pickup
    classID: 23
    script: {fileID: 0}
  m_PPtrCurves: []
  m_SampleRate: 12
  m_WrapMode: 0
  m_Bounds:
    m_Center: {x: 0, y: 0, z: 0}
    m_Extent: {x: 0, y: 0, z: 0}
  m_ClipBindingConstant:
    genericBindings:
    - serializedVersion: 2
      path: 1177697483
      attribute: 3
      script: {fileID: 0}
      typeID: 4
      customType: 0
      isPPtrCurve: 0
    - serializedVersion: 2
      path: 1177697483
      attribute: 2328666809
      script: {fileID: 0}
      typeID: 23
      customType: 22
      isPPtrCurve: 0
    pptrCurveMapping: []
  m_AnimationClipSettings:
    serializedVersion: 2
    m_AdditiveReferencePoseClip: {fileID: 0}
    m_AdditiveReferencePoseTime: 0
    m_StartTime: 0
    m_StopTime: 2.5
    m_OrientationOffsetY: 0
    m_Level: 0
    m_CycleOffset: 0
    m_HasAdditiveReferencePose: 0
    m_LoopTime: 0
    m_LoopBlend: 0
    m_LoopBlendOrientation: 0
    m_LoopBlendPositionY: 0
    m_LoopBlendPositionXZ: 0
    m_KeepOriginalOrientation: 0
    m_KeepOriginalPositionY: 1
    m_KeepOriginalPositionXZ: 0
    m_HeightFromFeet: 0
    m_Mirror: 0
  m_EditorCurves: []
  m_EulerEditorCurves: []
  m_HasGenericRootTransform: 0
  m_HasMotionFloatCurves: 0
  m_GenerateMotionCurves: 0
  m_Events: []
