%YAML 1.1
%TAG !u! tag:unity3d.com,2011:
--- !u!74 &7400000
AnimationClip:
  serializedVersion: 6
  m_ObjectHideFlags: 0
  m_PrefabParentObject: {fileID: 0}
  m_PrefabInternal: {fileID: 0}
  m_Name: heavenIdle
  m_Legacy: 0
  m_Compressed: 0
  m_UseHighQualityCurve: 1
  m_RotationCurves:
  - curve:
      serializedVersion: 2
      m_Curve:
      - serializedVersion: 2
        time: 0
        value: {x: 0, y: 0, z: 0.015969101, w: 0.9998725}
        inSlope: {x: 0, y: 0, z: 0, w: 0}
        outSlope: {x: 0, y: 0, z: -0.0026048718, w: 3.9339062E-05}
        tangentMode: 1
      - serializedVersion: 2
        time: 0.016666668
        value: {x: 0, y: 0, z: 0.015925687, w: 0.99987316}
        inSlope: {x: 0, y: 0, z: -0.004188157, w: 6.616115E-05}
        outSlope: {x: 0, y: 0, z: -0.004188157, w: 6.616115E-05}
        tangentMode: 1
      - serializedVersion: 2
        time: 0.033333335
        value: {x: 0, y: 0, z: 0.015829496, w: 0.9998747}
        inSlope: {x: 0, y: 0, z: -0.0072997985, w: 0.000116229035}
        outSlope: {x: 0, y: 0, z: -0.0072997985, w: 0.00011622904}
        tangentMode: 1
      - serializedVersion: 2
        time: 0.050000004
        value: {x: 0, y: 0, z: 0.01568236, w: 0.99987704}
        inSlope: {x: 0, y: 0, z: -0.010301666, w: 0.00016093254}
        outSlope: {x: 0, y: 0, z: -0.010301666, w: 0.00016093254}
        tangentMode: 1
      - serializedVersion: 2
        time: 0.06666667
        value: {x: 0, y: 0, z: 0.015486107, w: 0.9998801}
        inSlope: {x: 0, y: 0, z: -0.013193759, w: 0.0002038479}
        outSlope: {x: 0, y: 0, z: -0.013193759, w: 0.0002038479}
        tangentMode: 1
      - serializedVersion: 2
        time: 0.083333336
        value: {x: 0, y: 0, z: 0.015242568, w: 0.99988383}
        inSlope: {x: 0, y: 0, z: -0.015976105, w: 0.000243187}
        outSlope: {x: 0, y: 0, z: -0.015976105, w: 0.00024318698}
        tangentMode: 1
      - serializedVersion: 2
        time: 0.1
        value: {x: 0, y: 0, z: 0.01495357, w: 0.9998882}
        inSlope: {x: 0, y: 0, z: -0.018648814, w: 0.00027894977}
        outSlope: {x: 0, y: 0, z: -0.018648814, w: 0.00027894977}
        tangentMode: 1
      - serializedVersion: 2
        time: 0.11666667
        value: {x: 0, y: 0, z: 0.014620941, w: 0.9998931}
        inSlope: {x: 0, y: 0, z: -0.0212118, w: 0.00030934805}
        outSlope: {x: 0, y: 0, z: -0.0212118, w: 0.00030934805}
        tangentMode: 1
      - serializedVersion: 2
        time: 0.13333334
        value: {x: 0, y: 0, z: 0.01424651, w: 0.9998985}
        inSlope: {x: 0, y: 0, z: -0.023664987, w: 0.00033617014}
        outSlope: {x: 0, y: 0, z: -0.023664987, w: 0.00033617014}
        tangentMode: 1
      - serializedVersion: 2
        time: 0.15
        value: {x: 0, y: 0, z: 0.013832108, w: 0.99990433}
        inSlope: {x: 0, y: 0, z: -0.026008517, w: 0.00035941604}
        outSlope: {x: 0, y: 0, z: -0.026008517, w: 0.00035941604}
        tangentMode: 1
      - serializedVersion: 2
        time: 0.16666667
        value: {x: 0, y: 0, z: 0.01337956, w: 0.9999105}
        inSlope: {x: 0, y: 0, z: -0.028242294, w: 0.00037729743}
        outSlope: {x: 0, y: 0, z: -0.028242294, w: 0.00037729743}
        tangentMode: 1
      - serializedVersion: 2
        time: 0.18333334
        value: {x: 0, y: 0, z: 0.012890698, w: 0.9999169}
        inSlope: {x: 0, y: 0, z: -0.030366324, w: 0.00039160255}
        outSlope: {x: 0, y: 0, z: -0.030366324, w: 0.00039160255}
        tangentMode: 1
      - serializedVersion: 2
        time: 0.2
        value: {x: 0, y: 0, z: 0.012367349, w: 0.9999235}
        inSlope: {x: 0, y: 0, z: -0.032380663, w: 0.00040054324}
        outSlope: {x: 0, y: 0, z: -0.032380663, w: 0.00040054324}
        tangentMode: 1
      - serializedVersion: 2
        time: 0.21666667
        value: {x: 0, y: 0, z: 0.011811343, w: 0.99993026}
        inSlope: {x: 0, y: 0, z: -0.034285285, w: 0.00040411952}
        outSlope: {x: 0, y: 0, z: -0.034285285, w: 0.00040411952}
        tangentMode: 1
      - serializedVersion: 2
        time: 0.23333333
        value: {x: 0, y: 0, z: 0.011224506, w: 0.999937}
        inSlope: {x: 0, y: 0, z: -0.03608016, w: 0.00040411952}
        outSlope: {x: 0, y: 0, z: -0.03608016, w: 0.00040411952}
        tangentMode: 1
      - serializedVersion: 2
        time: 0.25
        value: {x: 0, y: 0, z: 0.010608671, w: 0.99994373}
        inSlope: {x: 0, y: 0, z: -0.037765265, w: 0.00040054307}
        outSlope: {x: 0, y: 0, z: -0.037765265, w: 0.00040054307}
        tangentMode: 1
      - serializedVersion: 2
        time: 0.26666668
        value: {x: 0, y: 0, z: 0.009965664, w: 0.99995035}
        inSlope: {x: 0, y: 0, z: -0.039340653, w: 0.0003916022}
        outSlope: {x: 0, y: 0, z: -0.039340653, w: 0.0003916022}
        tangentMode: 1
      - serializedVersion: 2
        time: 0.28333336
        value: {x: 0, y: 0, z: 0.009297315, w: 0.9999568}
        inSlope: {x: 0, y: 0, z: -0.040806286, w: 0.00037908522}
        outSlope: {x: 0, y: 0, z: -0.040806286, w: 0.00037908522}
        tangentMode: 1
      - serializedVersion: 2
        time: 0.30000004
        value: {x: 0, y: 0, z: 0.008605453, w: 0.999963}
        inSlope: {x: 0, y: 0, z: -0.042162195, w: 0.000362992}
        outSlope: {x: 0, y: 0, z: -0.042162195, w: 0.000362992}
        tangentMode: 1
      - serializedVersion: 2
        time: 0.31666672
        value: {x: 0, y: 0, z: 0.007891907, w: 0.9999689}
        inSlope: {x: 0, y: 0, z: -0.043408304, w: 0.00034153432}
        outSlope: {x: 0, y: 0, z: -0.043408304, w: 0.00034153432}
        tangentMode: 1
      - serializedVersion: 2
        time: 0.3333334
        value: {x: 0, y: 0, z: 0.0071585085, w: 0.99997437}
        inSlope: {x: 0, y: 0, z: -0.04454468, w: 0.00031828854}
        outSlope: {x: 0, y: 0, z: -0.04454468, w: 0.00031828854}
        tangentMode: 1
      - serializedVersion: 2
        time: 0.35000008
        value: {x: 0, y: 0, z: 0.0064070835, w: 0.9999795}
        inSlope: {x: 0, y: 0, z: -0.045571268, w: 0.00029146648}
        outSlope: {x: 0, y: 0, z: -0.045571268, w: 0.00029146648}
        tangentMode: 1
      - serializedVersion: 2
        time: 0.36666676
        value: {x: 0, y: 0, z: 0.005639465, w: 0.9999841}
        inSlope: {x: 0, y: 0, z: -0.046488035, w: 0.0002610681}
        outSlope: {x: 0, y: 0, z: -0.046488035, w: 0.0002610681}
        tangentMode: 1
      - serializedVersion: 2
        time: 0.38333344
        value: {x: 0, y: 0, z: 0.004857481, w: 0.9999882}
        inSlope: {x: 0, y: 0, z: -0.047295086, w: 0.00023066979}
        outSlope: {x: 0, y: 0, z: -0.047295086, w: 0.00023066979}
        tangentMode: 1
      - serializedVersion: 2
        time: 0.40000013
        value: {x: 0, y: 0, z: 0.004062961, w: 0.9999918}
        inSlope: {x: 0, y: 0, z: -0.047992293, w: 0.00019490703}
        outSlope: {x: 0, y: 0, z: -0.047992293, w: 0.00019490703}
        tangentMode: 1
      - serializedVersion: 2
        time: 0.4166668
        value: {x: 0, y: 0, z: 0.0032577366, w: 0.9999947}
        inSlope: {x: 0, y: 0, z: -0.048579723, w: 0.00015735613}
        outSlope: {x: 0, y: 0, z: -0.048579723, w: 0.00015735613}
        tangentMode: 1
      - serializedVersion: 2
        time: 0.4333335
        value: {x: 0, y: 0, z: 0.0024436354, w: 0.999997}
        inSlope: {x: 0, y: 0, z: -0.049057424, w: 0.000119805234}
        outSlope: {x: 0, y: 0, z: -0.049057424, w: 0.000119805234}
        tangentMode: 1
      - serializedVersion: 2
        time: 0.45000017
        value: {x: 0, y: 0, z: 0.0016224877, w: 0.9999987}
        inSlope: {x: 0, y: 0, z: -0.049425237, w: 8.0466205E-05}
        outSlope: {x: 0, y: 0, z: -0.049425237, w: 8.0466205E-05}
        tangentMode: 1
      - serializedVersion: 2
        time: 0.46666685
        value: {x: 0, y: 0, z: 0.000796126, w: 0.9999997}
        inSlope: {x: 0, y: 0, z: -0.04968326, w: 3.9339033E-05}
        outSlope: {x: 0, y: 0, z: -0.04968326, w: 3.9339033E-05}
        tangentMode: 1
      - serializedVersion: 2
        time: 0.48333353
        value: {x: 0, y: 0, z: -3.362241E-05, w: 1}
        inSlope: {x: 0, y: 0, z: -0.04983156, w: -1.7881566E-06}
        outSlope: {x: 0, y: 0, z: -0.04983156, w: -1.7881566E-06}
        tangentMode: 1
      - serializedVersion: 2
        time: 0.5000002
        value: {x: 0, y: 0, z: -0.000864926, w: 0.99999964}
        inSlope: {x: 0, y: 0, z: -0.049870007, w: -4.2915384E-05}
        outSlope: {x: 0, y: 0, z: -0.049870007, w: -4.2915384E-05}
        tangentMode: 1
      - serializedVersion: 2
        time: 0.5166668
        value: {x: 0, y: 0, z: -0.0016959545, w: 0.99999857}
        inSlope: {x: 0, y: 0, z: -0.04979861, w: -8.404263E-05}
        outSlope: {x: 0, y: 0, z: -0.04979861, w: -8.404263E-05}
        tangentMode: 1
      - serializedVersion: 2
        time: 0.5333335
        value: {x: 0, y: 0, z: -0.0025248781, w: 0.99999684}
        inSlope: {x: 0, y: 0, z: -0.04961745, w: -0.00012516987}
        outSlope: {x: 0, y: 0, z: -0.04961745, w: -0.00012516987}
        tangentMode: 1
      - serializedVersion: 2
        time: 0.55000013
        value: {x: 0, y: 0, z: -0.0033498679, w: 0.9999944}
        inSlope: {x: 0, y: 0, z: -0.049326465, w: -0.00016629712}
        outSlope: {x: 0, y: 0, z: -0.049326465, w: -0.00016629712}
        tangentMode: 1
      - serializedVersion: 2
        time: 0.5666668
        value: {x: 0, y: 0, z: -0.004169092, w: 0.9999913}
        inSlope: {x: 0, y: 0, z: -0.04892578, w: -0.00020384809}
        outSlope: {x: 0, y: 0, z: -0.04892578, w: -0.00020384809}
        tangentMode: 1
      - serializedVersion: 2
        time: 0.58333343
        value: {x: 0, y: 0, z: -0.0049807257, w: 0.9999876}
        inSlope: {x: 0, y: 0, z: -0.048415218, w: -0.00024139904}
        outSlope: {x: 0, y: 0, z: -0.048415218, w: -0.00024139904}
        tangentMode: 1
      - serializedVersion: 2
        time: 0.6000001
        value: {x: 0, y: 0, z: -0.005782931, w: 0.99998325}
        inSlope: {x: 0, y: 0, z: -0.047794834, w: -0.0002771619}
        outSlope: {x: 0, y: 0, z: -0.047794834, w: -0.0002771619}
        tangentMode: 1
      - serializedVersion: 2
        time: 0.61666673
        value: {x: 0, y: 0, z: -0.006573885, w: 0.99997836}
        inSlope: {x: 0, y: 0, z: -0.047064766, w: -0.00030756026}
        outSlope: {x: 0, y: 0, z: -0.047064766, w: -0.00030756026}
        tangentMode: 1
      - serializedVersion: 2
        time: 0.6333334
        value: {x: 0, y: 0, z: -0.007351755, w: 0.999973}
        inSlope: {x: 0, y: 0, z: -0.046224743, w: -0.00033795869}
        outSlope: {x: 0, y: 0, z: -0.046224743, w: -0.00033795869}
        tangentMode: 1
      - serializedVersion: 2
        time: 0.65000004
        value: {x: 0, y: 0, z: -0.008114709, w: 0.9999671}
        inSlope: {x: 0, y: 0, z: -0.045275114, w: -0.00036835705}
        outSlope: {x: 0, y: 0, z: -0.045275114, w: -0.00036835705}
        tangentMode: 1
      - serializedVersion: 2
        time: 0.6666667
        value: {x: 0, y: 0, z: -0.008860924, w: 0.9999607}
        inSlope: {x: 0, y: 0, z: -0.04421567, w: -0.0003916029}
        outSlope: {x: 0, y: 0, z: -0.04421567, w: -0.0003916029}
        tangentMode: 1
      - serializedVersion: 2
        time: 0.68333334
        value: {x: 0, y: 0, z: -0.009588563, w: 0.99995404}
        inSlope: {x: 0, y: 0, z: -0.043046366, w: -0.00041127246}
        outSlope: {x: 0, y: 0, z: -0.043046366, w: -0.00041127246}
        tangentMode: 1
      - serializedVersion: 2
        time: 0.7
        value: {x: 0, y: 0, z: -0.010295802, w: 0.999947}
        inSlope: {x: 0, y: 0, z: -0.041767485, w: -0.000430942}
        outSlope: {x: 0, y: 0, z: -0.041767485, w: -0.000430942}
        tangentMode: 1
      - serializedVersion: 2
        time: 0.71666664
        value: {x: 0, y: 0, z: -0.010980811, w: 0.9999397}
        inSlope: {x: 0, y: 0, z: -0.040378712, w: -0.00044345896}
        outSlope: {x: 0, y: 0, z: -0.040378712, w: -0.00044345896}
        tangentMode: 1
      - serializedVersion: 2
        time: 0.7333333
        value: {x: 0, y: 0, z: -0.011641758, w: 0.9999322}
        inSlope: {x: 0, y: 0, z: -0.03888025, w: -0.00045061155}
        outSlope: {x: 0, y: 0, z: -0.03888025, w: -0.00045061155}
        tangentMode: 1
      - serializedVersion: 2
        time: 0.74999994
        value: {x: 0, y: 0, z: -0.012276818, w: 0.99992466}
        inSlope: {x: 0, y: 0, z: -0.037271954, w: -0.0004577641}
        outSlope: {x: 0, y: 0, z: -0.037271954, w: -0.0004577641}
        tangentMode: 1
      - serializedVersion: 2
        time: 0.7666666
        value: {x: 0, y: 0, z: -0.012884155, w: 0.999917}
        inSlope: {x: 0, y: 0, z: -0.035553887, w: -0.0004577641}
        outSlope: {x: 0, y: 0, z: -0.035553887, w: -0.0004577641}
        tangentMode: 1
      - serializedVersion: 2
        time: 0.78333324
        value: {x: 0, y: 0, z: -0.0134619465, w: 0.9999094}
        inSlope: {x: 0, y: 0, z: -0.03372635, w: -0.0004523997}
        outSlope: {x: 0, y: 0, z: -0.03372635, w: -0.0004523997}
        tangentMode: 1
      - serializedVersion: 2
        time: 0.7999999
        value: {x: 0, y: 0, z: -0.014008366, w: 0.9999019}
        inSlope: {x: 0, y: 0, z: -0.0317889, w: -0.0004452471}
        outSlope: {x: 0, y: 0, z: -0.0317889, w: -0.0004452471}
        tangentMode: 1
      - serializedVersion: 2
        time: 0.81666654
        value: {x: 0, y: 0, z: -0.0145215755, w: 0.99989456}
        inSlope: {x: 0, y: 0, z: -0.029741758, w: -0.000430942}
        outSlope: {x: 0, y: 0, z: -0.02974176, w: -0.000430942}
        tangentMode: 1
      - serializedVersion: 2
        time: 0.8333332
        value: {x: 0, y: 0, z: -0.014999757, w: 0.9998875}
        inSlope: {x: 0, y: 0, z: -0.027584925, w: -0.0004130606}
        outSlope: {x: 0, y: 0, z: -0.027584925, w: -0.0004130606}
        tangentMode: 1
      - serializedVersion: 2
        time: 0.84999985
        value: {x: 0, y: 0, z: -0.015441072, w: 0.9998808}
        inSlope: {x: 0, y: 0, z: -0.02531829, w: -0.00039160287}
        outSlope: {x: 0, y: 0, z: -0.02531829, w: -0.00039160287}
        tangentMode: 1
      - serializedVersion: 2
        time: 0.8666665
        value: {x: 0, y: 0, z: -0.015843699, w: 0.9998745}
        inSlope: {x: 0, y: 0, z: -0.022941988, w: -0.00036299264}
        outSlope: {x: 0, y: 0, z: -0.022941988, w: -0.00036299264}
        tangentMode: 1
      - serializedVersion: 2
        time: 0.88333315
        value: {x: 0, y: 0, z: -0.016205804, w: 0.9998687}
        inSlope: {x: 0, y: 0, z: -0.020456053, w: -0.00033080607}
        outSlope: {x: 0, y: 0, z: -0.020456053, w: -0.00033080607}
        tangentMode: 1
      - serializedVersion: 2
        time: 0.8999998
        value: {x: 0, y: 0, z: -0.016525567, w: 0.99986345}
        inSlope: {x: 0, y: 0, z: -0.017860288, w: -0.00029504328}
        outSlope: {x: 0, y: 0, z: -0.017860288, w: -0.00029504328}
        tangentMode: 1
      - serializedVersion: 2
        time: 0.91666645
        value: {x: 0, y: 0, z: -0.016801147, w: 0.99985886}
        inSlope: {x: 0, y: 0, z: -0.0151546635, w: -0.00025391602}
        outSlope: {x: 0, y: 0, z: -0.015154663, w: -0.00025391602}
        tangentMode: 1
      - serializedVersion: 2
        time: 0.9333331
        value: {x: 0, y: 0, z: -0.017030722, w: 0.999855}
        inSlope: {x: 0, y: 0, z: -0.012339681, w: -0.0002092125}
        outSlope: {x: 0, y: 0, z: -0.012339681, w: -0.0002092125}
        tangentMode: 1
      - serializedVersion: 2
        time: 0.94999975
        value: {x: 0, y: 0, z: -0.01721247, w: 0.9998519}
        inSlope: {x: 0, y: 0, z: -0.009414842, w: -0.00016272083}
        outSlope: {x: 0, y: 0, z: -0.009414842, w: -0.00016272083}
        tangentMode: 1
      - serializedVersion: 2
        time: 0.9666664
        value: {x: 0, y: 0, z: -0.01734455, w: 0.99984956}
        inSlope: {x: 0, y: 0, z: -0.006380143, w: -0.00011086474}
        outSlope: {x: 0, y: 0, z: -0.006380143, w: -0.00011086474}
        tangentMode: 1
      - serializedVersion: 2
        time: 0.98333305
        value: {x: 0, y: 0, z: -0.01742514, w: 0.9998482}
        inSlope: {x: 0, y: 0, z: -0.0032358088, w: -5.5432374E-05}
        outSlope: {x: 0, y: 0, z: -0.0032358088, w: -5.5432374E-05}
        tangentMode: 1
      - serializedVersion: 2
        time: 0.9999997
        value: {x: 0, y: 0, z: -0.01745241, w: 0.9998477}
        inSlope: {x: 0, y: 0, z: -1.576083E-05, w: -5.1159126E-11}
        outSlope: {x: 0, y: 0, z: -1.576083E-05, w: -5.0931703E-11}
        tangentMode: 1
      - serializedVersion: 2
        time: 1.0166664
        value: {x: 0, y: 0, z: -0.017425666, w: 0.9998482}
        inSlope: {x: 0, y: 0, z: 0.0031736125, w: 5.5432323E-05}
        outSlope: {x: 0, y: 0, z: 0.0031736123, w: 5.5432323E-05}
        tangentMode: 1
      - serializedVersion: 2
        time: 1.0333331
        value: {x: 0, y: 0, z: -0.017346622, w: 0.99984956}
        inSlope: {x: 0, y: 0, z: 0.006258438, w: 0.00010728846}
        outSlope: {x: 0, y: 0, z: 0.006258438, w: 0.00010728846}
        tangentMode: 1
      - serializedVersion: 2
        time: 1.0499997
        value: {x: 0, y: 0, z: -0.017217051, w: 0.99985176}
        inSlope: {x: 0, y: 0, z: 0.009236811, w: 0.00015735641}
        outSlope: {x: 0, y: 0, z: 0.009236811, w: 0.00015735641}
        tangentMode: 1
      - serializedVersion: 2
        time: 1.0666664
        value: {x: 0, y: 0, z: -0.017038729, w: 0.9998548}
        inSlope: {x: 0, y: 0, z: 0.012108564, w: 0.00020563623}
        outSlope: {x: 0, y: 0, z: 0.012108564, w: 0.00020563623}
        tangentMode: 1
      - serializedVersion: 2
        time: 1.083333
        value: {x: 0, y: 0, z: -0.016813433, w: 0.9998586}
        inSlope: {x: 0, y: 0, z: 0.014873869, w: 0.00025033974}
        outSlope: {x: 0, y: 0, z: 0.014873869, w: 0.00025033974}
        tangentMode: 1
      - serializedVersion: 2
        time: 1.0999997
        value: {x: 0, y: 0, z: -0.016542934, w: 0.99986315}
        inSlope: {x: 0, y: 0, z: 0.017532779, w: 0.00028967886}
        outSlope: {x: 0, y: 0, z: 0.017532779, w: 0.00028967886}
        tangentMode: 1
      - serializedVersion: 2
        time: 1.1166663
        value: {x: 0, y: 0, z: -0.016229007, w: 0.9998683}
        inSlope: {x: 0, y: 0, z: 0.020085126, w: 0.00032544165}
        outSlope: {x: 0, y: 0, z: 0.020085126, w: 0.00032544165}
        tangentMode: 1
      - serializedVersion: 2
        time: 1.133333
        value: {x: 0, y: 0, z: -0.01587343, w: 0.999874}
        inSlope: {x: 0, y: 0, z: 0.022530857, w: 0.00035762822}
        outSlope: {x: 0, y: 0, z: 0.022530857, w: 0.00035762822}
        tangentMode: 1
      - serializedVersion: 2
        time: 1.1499996
        value: {x: 0, y: 0, z: -0.01547798, w: 0.9998802}
        inSlope: {x: 0, y: 0, z: 0.024870135, w: 0.0003844503}
        outSlope: {x: 0, y: 0, z: 0.024870135, w: 0.0003844503}
        tangentMode: 1
      - serializedVersion: 2
        time: 1.1666663
        value: {x: 0, y: 0, z: -0.015044427, w: 0.9998868}
        inSlope: {x: 0, y: 0, z: 0.027102966, w: 0.00040769618}
        outSlope: {x: 0, y: 0, z: 0.027102966, w: 0.00040769618}
        tangentMode: 1
      - serializedVersion: 2
        time: 1.1833329
        value: {x: 0, y: 0, z: -0.014574548, w: 0.9998938}
        inSlope: {x: 0, y: 0, z: 0.029229317, w: 0.00042557757}
        outSlope: {x: 0, y: 0, z: 0.029229317, w: 0.00042557757}
        tangentMode: 1
      - serializedVersion: 2
        time: 1.1999996
        value: {x: 0, y: 0, z: -0.014070117, w: 0.999901}
        inSlope: {x: 0, y: 0, z: 0.03124913, w: 0.0004398827}
        outSlope: {x: 0, y: 0, z: 0.031249132, w: 0.0004398827}
        tangentMode: 1
      - serializedVersion: 2
        time: 1.2166662
        value: {x: 0, y: 0, z: -0.013532911, w: 0.99990845}
        inSlope: {x: 0, y: 0, z: 0.033162415, w: 0.0004488234}
        outSlope: {x: 0, y: 0, z: 0.033162415, w: 0.0004488234}
        tangentMode: 1
      - serializedVersion: 2
        time: 1.2333329
        value: {x: 0, y: 0, z: -0.012964704, w: 0.99991596}
        inSlope: {x: 0, y: 0, z: 0.034969196, w: 0.0004523997}
        outSlope: {x: 0, y: 0, z: 0.034969196, w: 0.0004523997}
        tangentMode: 1
      - serializedVersion: 2
        time: 1.2499995
        value: {x: 0, y: 0, z: -0.012367273, w: 0.9999235}
        inSlope: {x: 0, y: 0, z: 0.036669463, w: 0.0004523997}
        outSlope: {x: 0, y: 0, z: 0.036669463, w: 0.0004523997}
        tangentMode: 1
      - serializedVersion: 2
        time: 1.2666662
        value: {x: 0, y: 0, z: -0.01174239, w: 0.99993104}
        inSlope: {x: 0, y: 0, z: 0.038263284, w: 0.0004488234}
        outSlope: {x: 0, y: 0, z: 0.038263284, w: 0.0004488234}
        tangentMode: 1
      - serializedVersion: 2
        time: 1.2833328
        value: {x: 0, y: 0, z: -0.011091831, w: 0.9999385}
        inSlope: {x: 0, y: 0, z: 0.039750457, w: 0.00044167083}
        outSlope: {x: 0, y: 0, z: 0.039750457, w: 0.00044167083}
        tangentMode: 1
      - serializedVersion: 2
        time: 1.2999995
        value: {x: 0, y: 0, z: -0.010417376, w: 0.99994576}
        inSlope: {x: 0, y: 0, z: 0.041131128, w: 0.0004273657}
        outSlope: {x: 0, y: 0, z: 0.041131128, w: 0.0004273657}
        tangentMode: 1
      - serializedVersion: 2
        time: 1.3166661
        value: {x: 0, y: 0, z: -0.009720795, w: 0.99995273}
        inSlope: {x: 0, y: 0, z: 0.04240532, w: 0.00041127246}
        outSlope: {x: 0, y: 0, z: 0.04240532, w: 0.00041127246}
        tangentMode: 1
      - serializedVersion: 2
        time: 1.3333328
        value: {x: 0, y: 0, z: -0.009003866, w: 0.99995947}
        inSlope: {x: 0, y: 0, z: 0.043572947, w: 0.00039160287}
        outSlope: {x: 0, y: 0, z: 0.043572947, w: 0.00039160287}
        tangentMode: 1
      - serializedVersion: 2
        time: 1.3499994
        value: {x: 0, y: 0, z: -0.008268365, w: 0.9999658}
        inSlope: {x: 0, y: 0, z: 0.044634014, w: 0.00036835705}
        outSlope: {x: 0, y: 0, z: 0.044634014, w: 0.00036835705}
        tangentMode: 1
      - serializedVersion: 2
        time: 1.3666661
        value: {x: 0, y: 0, z: -0.0075160675, w: 0.99997175}
        inSlope: {x: 0, y: 0, z: 0.0455885, w: 0.0003433231}
        outSlope: {x: 0, y: 0, z: 0.0455885, w: 0.0003433231}
        tangentMode: 1
      - serializedVersion: 2
        time: 1.3833327
        value: {x: 0, y: 0, z: -0.0067487494, w: 0.99997723}
        inSlope: {x: 0, y: 0, z: 0.046436485, w: 0.00031292468}
        outSlope: {x: 0, y: 0, z: 0.046436485, w: 0.00031292468}
        tangentMode: 1
      - serializedVersion: 2
        time: 1.3999994
        value: {x: 0, y: 0, z: -0.005968186, w: 0.9999822}
        inSlope: {x: 0, y: 0, z: 0.047177866, w: 0.00028073817}
        outSlope: {x: 0, y: 0, z: 0.047177866, w: 0.00028073817}
        tangentMode: 1
      - serializedVersion: 2
        time: 1.416666
        value: {x: 0, y: 0, z: -0.0051761554, w: 0.9999866}
        inSlope: {x: 0, y: 0, z: 0.047812656, w: 0.00024676346}
        outSlope: {x: 0, y: 0, z: 0.047812656, w: 0.00024676346}
        tangentMode: 1
      - serializedVersion: 2
        time: 1.4333327
        value: {x: 0, y: 0, z: -0.0043744324, w: 0.9999904}
        inSlope: {x: 0, y: 0, z: 0.04834094, w: 0.00021100065}
        outSlope: {x: 0, y: 0, z: 0.04834094, w: 0.00021100065}
        tangentMode: 1
      - serializedVersion: 2
        time: 1.4499993
        value: {x: 0, y: 0, z: -0.0035647922, w: 0.9999936}
        inSlope: {x: 0, y: 0, z: 0.04876258, w: 0.00017523783}
        outSlope: {x: 0, y: 0, z: 0.04876258, w: 0.00017523783}
        tangentMode: 1
      - serializedVersion: 2
        time: 1.466666
        value: {x: 0, y: 0, z: -0.0027490146, w: 0.99999624}
        inSlope: {x: 0, y: 0, z: 0.049077637, w: 0.00013589872}
        outSlope: {x: 0, y: 0, z: 0.049077637, w: 0.00013589872}
        tangentMode: 1
      - serializedVersion: 2
        time: 1.4833326
        value: {x: 0, y: 0, z: -0.0019288725, w: 0.99999815}
        inSlope: {x: 0, y: 0, z: 0.04928627, w: 9.477147E-05}
        outSlope: {x: 0, y: 0, z: 0.04928627, w: 9.477147E-05}
        tangentMode: 1
      - serializedVersion: 2
        time: 1.4999993
        value: {x: 0, y: 0, z: -0.0011061407, w: 0.9999994}
        inSlope: {x: 0, y: 0, z: 0.049388163, w: 5.364423E-05}
        outSlope: {x: 0, y: 0, z: 0.049388163, w: 5.364423E-05}
        tangentMode: 1
      - serializedVersion: 2
        time: 1.5166659
        value: {x: 0, y: 0, z: -0.00028260198, w: 0.99999994}
        inSlope: {x: 0, y: 0, z: 0.049383447, w: 1.4305128E-05}
        outSlope: {x: 0, y: 0, z: 0.049383447, w: 1.43051275E-05}
        tangentMode: 1
      - serializedVersion: 2
        time: 1.5333326
        value: {x: 0, y: 0, z: 0.0005399726, w: 0.9999999}
        inSlope: {x: 0, y: 0, z: 0.04927221, w: -2.6822116E-05}
        outSlope: {x: 0, y: 0, z: 0.04927221, w: -2.6822116E-05}
        tangentMode: 1
      - serializedVersion: 2
        time: 1.5499992
        value: {x: 0, y: 0, z: 0.0013598035, w: 0.99999905}
        inSlope: {x: 0, y: 0, z: 0.049054306, w: -6.794936E-05}
        outSlope: {x: 0, y: 0, z: 0.049054306, w: -6.794936E-05}
        tangentMode: 1
      - serializedVersion: 2
        time: 1.5666659
        value: {x: 0, y: 0, z: 0.0021751146, w: 0.9999976}
        inSlope: {x: 0, y: 0, z: 0.04872991, w: -0.00010550032}
        outSlope: {x: 0, y: 0, z: 0.04872991, w: -0.00010550032}
        tangentMode: 1
      - serializedVersion: 2
        time: 1.5833325
        value: {x: 0, y: 0, z: 0.0029841324, w: 0.9999955}
        inSlope: {x: 0, y: 0, z: 0.04829894, w: -0.0001430513}
        outSlope: {x: 0, y: 0, z: 0.04829894, w: -0.0001430513}
        tangentMode: 1
      - serializedVersion: 2
        time: 1.5999992
        value: {x: 0, y: 0, z: 0.0037850777, w: 0.99999285}
        inSlope: {x: 0, y: 0, z: 0.047761396, w: -0.00018060225}
        outSlope: {x: 0, y: 0, z: 0.047761396, w: -0.00018060225}
        tangentMode: 1
      - serializedVersion: 2
        time: 1.6166658
        value: {x: 0, y: 0, z: 0.0045761773, w: 0.9999895}
        inSlope: {x: 0, y: 0, z: 0.047117285, w: -0.00021636506}
        outSlope: {x: 0, y: 0, z: 0.047117285, w: -0.00021636506}
        tangentMode: 1
      - serializedVersion: 2
        time: 1.6333325
        value: {x: 0, y: 0, z: 0.0053556524, w: 0.99998564}
        inSlope: {x: 0, y: 0, z: 0.04636654, w: -0.00024676346}
        outSlope: {x: 0, y: 0, z: 0.04636654, w: -0.00024676346}
        tangentMode: 1
      - serializedVersion: 2
        time: 1.6499991
        value: {x: 0, y: 0, z: 0.006121727, w: 0.9999813}
        inSlope: {x: 0, y: 0, z: 0.045509152, w: -0.0002771619}
        outSlope: {x: 0, y: 0, z: 0.045509152, w: -0.0002771619}
        tangentMode: 1
      - serializedVersion: 2
        time: 1.6666658
        value: {x: 0, y: 0, z: 0.0068726228, w: 0.9999764}
        inSlope: {x: 0, y: 0, z: 0.044545293, w: -0.00030577212}
        outSlope: {x: 0, y: 0, z: 0.044545293, w: -0.00030577212}
        tangentMode: 1
      - serializedVersion: 2
        time: 1.6833324
        value: {x: 0, y: 0, z: 0.0076065687, w: 0.9999711}
        inSlope: {x: 0, y: 0, z: 0.043475002, w: -0.00033080607}
        outSlope: {x: 0, y: 0, z: 0.043475002, w: -0.00033080607}
        tangentMode: 1
      - serializedVersion: 2
        time: 1.6999991
        value: {x: 0, y: 0, z: 0.008321788, w: 0.99996537}
        inSlope: {x: 0, y: 0, z: 0.042297974, w: -0.0003522638}
        outSlope: {x: 0, y: 0, z: 0.042297974, w: -0.0003522638}
        tangentMode: 1
      - serializedVersion: 2
        time: 1.7166657
        value: {x: 0, y: 0, z: 0.0090165, w: 0.99995935}
        inSlope: {x: 0, y: 0, z: 0.041014314, w: -0.0003701452}
        outSlope: {x: 0, y: 0, z: 0.041014314, w: -0.0003701452}
        tangentMode: 1
      - serializedVersion: 2
        time: 1.7333324
        value: {x: 0, y: 0, z: 0.009688931, w: 0.99995303}
        inSlope: {x: 0, y: 0, z: 0.039624367, w: -0.00038266217}
        outSlope: {x: 0, y: 0, z: 0.039624367, w: -0.00038266217}
        tangentMode: 1
      - serializedVersion: 2
        time: 1.749999
        value: {x: 0, y: 0, z: 0.010337311, w: 0.9999466}
        inSlope: {x: 0, y: 0, z: 0.038127806, w: -0.00039339103}
        outSlope: {x: 0, y: 0, z: 0.038127806, w: -0.00039339103}
        tangentMode: 1
      - serializedVersion: 2
        time: 1.7666657
        value: {x: 0, y: 0, z: 0.010959856, w: 0.9999399}
        inSlope: {x: 0, y: 0, z: 0.036524653, w: -0.0004005436}
        outSlope: {x: 0, y: 0, z: 0.036524653, w: -0.0004005436}
        tangentMode: 1
      - serializedVersion: 2
        time: 1.7833323
        value: {x: 0, y: 0, z: 0.011554798, w: 0.99993324}
        inSlope: {x: 0, y: 0, z: 0.03481502, w: -0.0004005436}
        outSlope: {x: 0, y: 0, z: 0.03481502, w: -0.0004005436}
        tangentMode: 1
      - serializedVersion: 2
        time: 1.799999
        value: {x: 0, y: 0, z: 0.012120356, w: 0.99992657}
        inSlope: {x: 0, y: 0, z: 0.0329988, w: -0.00039875545}
        outSlope: {x: 0, y: 0, z: 0.0329988, w: -0.00039875545}
        tangentMode: 1
      - serializedVersion: 2
        time: 1.8166656
        value: {x: 0, y: 0, z: 0.012654757, w: 0.99991995}
        inSlope: {x: 0, y: 0, z: 0.031076187, w: -0.00039339103}
        outSlope: {x: 0, y: 0, z: 0.031076185, w: -0.00039339103}
        tangentMode: 1
      - serializedVersion: 2
        time: 1.8333323
        value: {x: 0, y: 0, z: 0.013156228, w: 0.99991345}
        inSlope: {x: 0, y: 0, z: 0.029046983, w: -0.00038266217}
        outSlope: {x: 0, y: 0, z: 0.029046983, w: -0.00038266217}
        tangentMode: 1
      - serializedVersion: 2
        time: 1.849999
        value: {x: 0, y: 0, z: 0.013622989, w: 0.9999072}
        inSlope: {x: 0, y: 0, z: 0.026911132, w: -0.00036656891}
        outSlope: {x: 0, y: 0, z: 0.026911132, w: -0.00036656891}
        tangentMode: 1
      - serializedVersion: 2
        time: 1.8666656
        value: {x: 0, y: 0, z: 0.014053265, w: 0.99990124}
        inSlope: {x: 0, y: 0, z: 0.024668943, w: -0.00034689938}
        outSlope: {x: 0, y: 0, z: 0.024668943, w: -0.00034689938}
        tangentMode: 1
      - serializedVersion: 2
        time: 1.8833323
        value: {x: 0, y: 0, z: 0.014445286, w: 0.99989563}
        inSlope: {x: 0, y: 0, z: 0.022320304, w: -0.00032186537}
        outSlope: {x: 0, y: 0, z: 0.022320304, w: -0.00032186537}
        tangentMode: 1
      - serializedVersion: 2
        time: 1.8999989
        value: {x: 0, y: 0, z: 0.014797274, w: 0.9998905}
        inSlope: {x: 0, y: 0, z: 0.019864991, w: -0.00029325514}
        outSlope: {x: 0, y: 0, z: 0.019864991, w: -0.00029325514}
        tangentMode: 1
      - serializedVersion: 2
        time: 1.9166656
        value: {x: 0, y: 0, z: 0.015107452, w: 0.99988586}
        inSlope: {x: 0, y: 0, z: 0.017303227, w: -0.00026106858}
        outSlope: {x: 0, y: 0, z: 0.017303227, w: -0.00026106858}
        tangentMode: 1
      - serializedVersion: 2
        time: 1.9333322
        value: {x: 0, y: 0, z: 0.015374048, w: 0.9998818}
        inSlope: {x: 0, y: 0, z: 0.014635096, w: -0.00022351762}
        outSlope: {x: 0, y: 0, z: 0.014635096, w: -0.00022351762}
        tangentMode: 1
      - serializedVersion: 2
        time: 1.9499989
        value: {x: 0, y: 0, z: 0.015595288, w: 0.9998784}
        inSlope: {x: 0, y: 0, z: 0.011860348, w: -0.00018417853}
        outSlope: {x: 0, y: 0, z: 0.011860348, w: -0.00018417853}
        tangentMode: 1
      - serializedVersion: 2
        time: 1.9666655
        value: {x: 0, y: 0, z: 0.015769392, w: 0.99987566}
        inSlope: {x: 0, y: 0, z: 0.0089789545, w: -0.00014126314}
        outSlope: {x: 0, y: 0, z: 0.0089789545, w: -0.00014126314}
        tangentMode: 1
      - serializedVersion: 2
        time: 1.9833322
        value: {x: 0, y: 0, z: 0.015894586, w: 0.9998737}
        inSlope: {x: 0, y: 0, z: 0.005991118, w: -9.476891E-05}
        outSlope: {x: 0, y: 0, z: 0.005991118, w: -9.476891E-05}
        tangentMode: 1
      - serializedVersion: 2
        time: 2
        value: {x: 0, y: 0, z: 0.015969101, w: 0.9998725}
        inSlope: {x: 0, y: 0, z: 0.0044705914, w: -7.1520524E-05}
        outSlope: {x: 0, y: 0, z: 0, w: 0}
        tangentMode: 1
      m_PreInfinity: 2
      m_PostInfinity: 2
      m_RotationOrder: 4
    path:
  m_CompressedRotationCurves: []
  m_EulerCurves: []
  m_PositionCurves: []
  m_ScaleCurves:
  - curve:
      serializedVersion: 2
      m_Curve:
      - serializedVersion: 2
        time: 0
        value: {x: 1.4, y: 1.4, z: 1.4}
        inSlope: {x: 0, y: 0, z: 0}
        outSlope: {x: 0, y: 0, z: 0}
        tangentMode: 1
      - serializedVersion: 2
        time: 2.0333333
        value: {x: 1.4, y: 1.4, z: 1.4}
        inSlope: {x: 0, y: 0, z: 0}
        outSlope: {x: 0, y: 0, z: 0}
        tangentMode: 1
      m_PreInfinity: 2
      m_PostInfinity: 2
      m_RotationOrder: 4
    path:
  m_FloatCurves:
  - curve:
      serializedVersion: 2
      m_Curve:
      - serializedVersion: 2
        time: 0
        value: 101.76
        inSlope: 0
        outSlope: 0
        tangentMode: 0
      - serializedVersion: 2
        time: 2.0333333
        value: 101.76
        inSlope: 0
        outSlope: 0
        tangentMode: 0
      m_PreInfinity: 2
      m_PostInfinity: 2
      m_RotationOrder: 4
    attribute: typetree_1460864421
    path:
    classID: 224
    script: {fileID: 0}
  - curve:
      serializedVersion: 2
      m_Curve:
      - serializedVersion: 2
        time: 0
        value: -61.7
        inSlope: 0
        outSlope: 0
        tangentMode: 0
      - serializedVersion: 2
        time: 2.0333333
        value: -61.7
        inSlope: 0
        outSlope: 0
        tangentMode: 0
      m_PreInfinity: 2
      m_PostInfinity: 2
      m_RotationOrder: 4
    attribute: typetree_538195251
    path:
    classID: 224
    script: {fileID: 0}
  m_PPtrCurves: []
  m_SampleRate: 60
  m_WrapMode: 0
  m_Bounds:
    m_Center: {x: 0, y: 0, z: 0}
    m_Extent: {x: 0, y: 0, z: 0}
  m_ClipBindingConstant:
    genericBindings:
    - serializedVersion: 2
      path: 0
      attribute: 2
      script: {fileID: 0}
      typeID: 4
      customType: 0
      isPPtrCurve: 0
    - serializedVersion: 2
      path: 0
      attribute: 3
      script: {fileID: 0}
      typeID: 4
      customType: 0
      isPPtrCurve: 0
    - serializedVersion: 2
      path: 0
      attribute: 1460864421
      script: {fileID: 0}
      typeID: 224
      customType: 0
      isPPtrCurve: 0
    - serializedVersion: 2
      path: 0
      attribute: 538195251
      script: {fileID: 0}
      typeID: 224
      customType: 0
      isPPtrCurve: 0
    pptrCurveMapping: []
  m_AnimationClipSettings:
    serializedVersion: 2
    m_AdditiveReferencePoseClip: {fileID: 0}
    m_AdditiveReferencePoseTime: 0
    m_StartTime: 0
    m_StopTime: 2
    m_OrientationOffsetY: 0
    m_Level: 0
    m_CycleOffset: 0
    m_HasAdditiveReferencePose: 0
    m_LoopTime: 1
    m_LoopBlend: 0
    m_LoopBlendOrientation: 0
    m_LoopBlendPositionY: 0
    m_LoopBlendPositionXZ: 0
    m_KeepOriginalOrientation: 0
    m_KeepOriginalPositionY: 1
    m_KeepOriginalPositionXZ: 0
    m_HeightFromFeet: 0
    m_Mirror: 0
  m_EditorCurves: []
  m_EulerEditorCurves: []
  m_HasGenericRootTransform: 0
  m_HasMotionFloatCurves: 0
  m_GenerateMotionCurves: 0
  m_Events: []
