%YAML 1.1
%TAG !u! tag:unity3d.com,2011:
--- !u!74 &7400000
AnimationClip:
  serializedVersion: 6
  m_ObjectHideFlags: 0
  m_PrefabParentObject: {fileID: 0}
  m_PrefabInternal: {fileID: 0}
  m_Name: Idle
  m_Legacy: 0
  m_Compressed: 0
  m_UseHighQualityCurve: 1
  m_RotationCurves:
  - curve:
      serializedVersion: 2
      m_Curve:
      - serializedVersion: 2
        time: 0
        value: {x: -0.043619387, y: 0, z: -0, w: 0.99904823}
        inSlope: {x: 0, y: 0, z: 0, w: 0}
        outSlope: {x: 0.026452838, y: 0.0054668454, z: 0.10243272, w: 0.0010621548}
        tangentMode: 1
      - serializedVersion: 2
        time: 0.40000004
        value: {x: 0.043585762, y: 0.0017124893, z: 0.039222453, w: 0.998278}
        inSlope: {x: 8.419155E-06, y: 0.00012857882, z: 0.00097486185, w: -3.754976E-05}
        outSlope: {x: 8.4694475E-06, y: 0.00012857883, z: 0.00097486516, w: -3.7549704E-05}
        tangentMode: 1
      - serializedVersion: 2
        time: 0.8000001
        value: {x: -0.043619387, y: -1.0890382E-09, z: -1.05835705E-08, w: 0.99904823}
        inSlope: {x: 1.490116E-07, y: -0.015293542, z: -0.14798413, w: 1.7462297E-09}
        outSlope: {x: 1.5925616E-07, y: -0.015293542, z: -0.14798413, w: 1.7462298E-09}
        tangentMode: 1
      - serializedVersion: 2
        time: 1.2
        value: {x: 0.043585762, y: -0.0017124893, z: -0.039222453, w: 0.998278}
        inSlope: {x: -8.568169E-06, y: 0.00012857142, z: 0.00097487215, w: 3.755093E-05}
        outSlope: {x: -8.605421E-06, y: 0.00012857153, z: 0.00097487215, w: 3.7550984E-05}
        tangentMode: 1
      - serializedVersion: 2
        time: 1.5833334
        value: {x: -0.043178506, y: -9.111386E-05, z: -0.0017072079, w: 0.99906594}
        inSlope: {x: -0.051399678, y: 0.0064693475, z: 0.10606728, w: -0.002011655}
        outSlope: {x: -0.051399685, y: 0.0064693475, z: 0.10606727, w: -0.002011655}
        tangentMode: 1
      - serializedVersion: 2
        time: 1.6
        value: {x: -0.043613113, y: -1.8601393E-05, z: -0.00041165884, w: 0.9990487}
        inSlope: {x: -0.0069895955, y: 0.002482788, z: 0.050307527, w: -0.00029325404}
        outSlope: {x: 0, y: 0, z: 0, w: 0}
        tangentMode: 1
      m_PreInfinity: 2
      m_PostInfinity: 2
      m_RotationOrder: 4
    path: Main/Feet
  - curve:
      serializedVersion: 2
      m_Curve:
      - serializedVersion: 2
        time: 0
        value: {x: 0, y: 0, z: -0, w: 1}
        inSlope: {x: 0, y: 0, z: 0, w: 0}
        outSlope: {x: 0, y: 0, z: 0, w: 0}
        tangentMode: 1
      - serializedVersion: 2
        time: 1.6333333
        value: {x: 0, y: 0, z: -0, w: 1}
        inSlope: {x: 0, y: 0, z: 0, w: 0}
        outSlope: {x: 0, y: 0, z: 0, w: 0}
        tangentMode: 1
      m_PreInfinity: 2
      m_PostInfinity: 2
      m_RotationOrder: 4
    path: Main
  - curve:
      serializedVersion: 2
      m_Curve:
      - serializedVersion: 2
        time: 0
        value: {x: 4.9297106E-17, y: 0.98388505, z: -4.9297106E-17, w: -0.17880222}
        inSlope: {x: 0, y: 0, z: 0, w: 0}
        outSlope: {x: 0, y: 0, z: 0, w: 0}
        tangentMode: 1
      - serializedVersion: 2
        time: 1.6333333
        value: {x: 4.9297106E-17, y: 0.98388505, z: -4.9297106E-17, w: -0.17880222}
        inSlope: {x: 0, y: 0, z: 0, w: 0}
        outSlope: {x: 0, y: 0, z: 0, w: 0}
        tangentMode: 1
      m_PreInfinity: 2
      m_PostInfinity: 2
      m_RotationOrder: 4
    path: Main/Feet/LeftWing
  - curve:
      serializedVersion: 2
      m_Curve:
      - serializedVersion: 2
        time: 0
        value: {x: 0, y: 0, z: -0, w: 1}
        inSlope: {x: 0, y: 0, z: 0, w: 0}
        outSlope: {x: 0, y: 0, z: 0, w: 0}
        tangentMode: 1
      - serializedVersion: 2
        time: 1.6333333
        value: {x: 0, y: 0, z: -0, w: 1}
        inSlope: {x: 0, y: 0, z: 0, w: 0}
        outSlope: {x: 0, y: 0, z: 0, w: 0}
        tangentMode: 1
      m_PreInfinity: 2
      m_PostInfinity: 2
      m_RotationOrder: 4
    path: Main/Feet/Ears
  - curve:
      serializedVersion: 2
      m_Curve:
      - serializedVersion: 2
        time: 0
        value: {x: -0.004353807, y: -0.16560036, z: 0.0005917888, w: 0.98618317}
        inSlope: {x: 0, y: 0, z: 0, w: 0}
        outSlope: {x: 0, y: 0, z: 0, w: 0}
        tangentMode: 1
      - serializedVersion: 2
        time: 1.6333333
        value: {x: -0.004353807, y: -0.16560036, z: 0.0005917888, w: 0.98618317}
        inSlope: {x: 0, y: 0, z: 0, w: 0}
        outSlope: {x: 0, y: 0, z: 0, w: 0}
        tangentMode: 1
      m_PreInfinity: 2
      m_PostInfinity: 2
      m_RotationOrder: 4
    path: Main/Feet/RightWing
  - curve:
      serializedVersion: 2
      m_Curve:
      - serializedVersion: 2
        time: 0
        value: {x: 0, y: 0, z: -0, w: 1}
        inSlope: {x: 0, y: 0, z: 0, w: 0}
        outSlope: {x: 0, y: 0, z: 0, w: 0}
        tangentMode: 1
      - serializedVersion: 2
        time: 1.6333333
        value: {x: 0, y: 0, z: -0, w: 1}
        inSlope: {x: 0, y: 0, z: 0, w: 0}
        outSlope: {x: 0, y: 0, z: 0, w: 0}
        tangentMode: 1
      m_PreInfinity: 2
      m_PostInfinity: 2
      m_RotationOrder: 4
    path: Bat
  m_CompressedRotationCurves: []
  m_EulerCurves: []
  m_PositionCurves:
  - curve:
      serializedVersion: 2
      m_Curve:
      - serializedVersion: 2
        time: 0
        value: {x: -0, y: -1.5879999, z: -0.08467655}
        inSlope: {x: 0, y: 0, z: 0}
        outSlope: {x: -0.20907028, y: -0, z: 0.11023692}
        tangentMode: 1
      - serializedVersion: 2
        time: 0.016666668
        value: {x: -0.0034845048, y: -1.5879999, z: -0.082839265}
        inSlope: {x: -0.20907028, y: 0, z: 0.11023692}
        outSlope: {x: -0.2253968, y: -0, z: 0.31625202}
        tangentMode: 1
      - serializedVersion: 2
        time: 0.033333335
        value: {x: -0.0072411182, y: -1.5879999, z: -0.0775684}
        inSlope: {x: -0.2253968, y: 0, z: 0.31625202}
        outSlope: {x: -0.23900224, y: -0, z: 0.50058204}
        tangentMode: 1
      - serializedVersion: 2
        time: 0.05
        value: {x: -0.011224489, y: -1.5879999, z: -0.06922536}
        inSlope: {x: -0.23900224, y: 0, z: 0.50058204}
        outSlope: {x: -0.24988665, y: -0, z: 0.66322625}
        tangentMode: 1
      - serializedVersion: 2
        time: 0.06666667
        value: {x: -0.015389266, y: -1.5879999, z: -0.058171596}
        inSlope: {x: -0.24988665, y: 0, z: 0.66322625}
        outSlope: {x: -0.2580499, y: -0, z: 0.8041844}
        tangentMode: 1
      - serializedVersion: 2
        time: 0.083333336
        value: {x: -0.019690098, y: -1.5879999, z: -0.044768523}
        inSlope: {x: -0.2580499, y: 0, z: 0.8041844}
        outSlope: {x: -0.26349208, y: -0, z: 0.92345685}
        tangentMode: 1
      - serializedVersion: 2
        time: 0.1
        value: {x: -0.024081632, y: -1.5879999, z: -0.029377576}
        inSlope: {x: -0.26349208, y: 0, z: 0.92345685}
        outSlope: {x: -0.26621318, y: -0, z: 1.0210431}
        tangentMode: 1
      - serializedVersion: 2
        time: 0.11666667
        value: {x: -0.028518518, y: -1.5879999, z: -0.012360194}
        inSlope: {x: -0.26621318, y: 0, z: 1.0210431}
        outSlope: {x: -0.26621294, y: -0, z: 1.0969431}
        tangentMode: 1
      - serializedVersion: 2
        time: 0.13333334
        value: {x: -0.032955404, y: -1.5879999, z: 0.0059222006}
        inSlope: {x: -0.26621294, y: 0, z: 1.0969431}
        outSlope: {x: -0.26349208, y: -0, z: 1.1511583}
        tangentMode: 1
      - serializedVersion: 2
        time: 0.15
        value: {x: -0.037346937, y: -1.5879999, z: 0.025108172}
        inSlope: {x: -0.26349208, y: 0, z: 1.1511583}
        outSlope: {x: -0.25804982, y: -0, z: 1.1836872}
        tangentMode: 1
      - serializedVersion: 2
        time: 0.23333333
        value: {x: -0.057037037, y: -1.5879999, z: 0.12194161}
        inSlope: {x: -0.2090704, y: 0, z: 1.0969437}
        outSlope: {x: -0.19002257, y: -0, z: 1.0210431}
        tangentMode: 1
      - serializedVersion: 2
        time: 0.28333333
        value: {x: -0.06540438, y: -1.5879999, z: 0.16775301}
        inSlope: {x: -0.14376424, y: 0, z: 0.8041851}
        outSlope: {x: -0.116553396, y: -0, z: 0.66322577}
        tangentMode: 1
      - serializedVersion: 2
        time: 0.31666666
        value: {x: -0.06879062, y: -1.5879999, z: 0.18714981}
        inSlope: {x: -0.08662127, y: 0, z: 0.5005822}
        outSlope: {x: -0.05396829, y: -0, z: 0.31625262}
        tangentMode: 1
      - serializedVersion: 2
        time: 0.35
        value: {x: -0.07, y: -1.5879999, z: 0.19425796}
        inSlope: {x: -0.018594092, y: 0, z: 0.11023646}
        outSlope: {x: 0.014011562, y: -0, z: -0.11023626}
        tangentMode: 1
      - serializedVersion: 2
        time: 0.38333333
        value: {x: -0.06907994, y: -1.5879999, z: 0.18714981}
        inSlope: {x: 0.041191615, y: 0, z: -0.3162532}
        outSlope: {x: 0.06710781, y: -0, z: -0.5005813}
        tangentMode: 1
      - serializedVersion: 2
        time: 0.43333334
        value: {x: -0.06451303, y: -1.5879999, z: 0.15434994}
        inSlope: {x: 0.1151472, y: 0, z: -0.80418366}
        outSlope: {x: 0.13727087, y: -0, z: -0.92345726}
        tangentMode: 1
      - serializedVersion: 2
        time: 0.48333332
        value: {x: -0.056627598, y: -1.5879999, z: 0.10365922}
        inSlope: {x: 0.1777255, y: 0, z: -1.0969447}
        outSlope: {x: 0.19605571, y: -0, z: -1.1511574}
        tangentMode: 1
      - serializedVersion: 2
        time: 0.55
        value: {x: -0.041934814, y: -1.5879999, z: 0.025108172}
        inSlope: {x: 0.24346355, y: 0, z: -1.1836883}
        outSlope: {x: 0.2567377, y: -0, z: -1.1511594}
        tangentMode: 1
      - serializedVersion: 2
        time: 0.56666666
        value: {x: -0.037655856, y: -1.5879999, z: 0.0059222006}
        inSlope: {x: 0.2567377, y: 0, z: -1.1511594}
        outSlope: {x: 0.26874757, y: -0, z: -1.0969447}
        tangentMode: 1
      - serializedVersion: 2
        time: 0.5833333
        value: {x: -0.033176735, y: -1.5879999, z: -0.012360194}
        inSlope: {x: 0.26874757, y: 0, z: -1.0969447}
        outSlope: {x: 0.27949217, y: -0, z: -1.0210403}
        tangentMode: 1
      - serializedVersion: 2
        time: 0.6
        value: {x: -0.028518518, y: -1.5879999, z: -0.029377576}
        inSlope: {x: 0.27949217, y: 0, z: -1.0210403}
        outSlope: {x: 0.28897473, y: -0, z: -0.9234577}
        tangentMode: 1
      - serializedVersion: 2
        time: 0.6166667
        value: {x: -0.023702277, y: -1.5879999, z: -0.044768523}
        inSlope: {x: 0.28897473, y: 0, z: -0.9234577}
        outSlope: {x: 0.2971921, y: -0, z: -0.8041851}
        tangentMode: 1
      - serializedVersion: 2
        time: 0.6333333
        value: {x: -0.01874908, y: -1.5879999, z: -0.058171596}
        inSlope: {x: 0.2971921, y: 0, z: -0.8041851}
        outSlope: {x: 0.30414513, y: -0, z: -0.6632269}
        tangentMode: 1
      - serializedVersion: 2
        time: 0.65
        value: {x: -0.01368, y: -1.5879999, z: -0.06922536}
        inSlope: {x: 0.30414513, y: 0, z: -0.6632269}
        outSlope: {x: 0.30983296, y: -0, z: -0.5005807}
        tangentMode: 1
      - serializedVersion: 2
        time: 0.6666667
        value: {x: -0.008516104, y: -1.5879999, z: -0.0775684}
        inSlope: {x: 0.30983296, y: 0, z: -0.5005807}
        outSlope: {x: 0.3142587, y: -0, z: -0.31625235}
        tangentMode: 1
      - serializedVersion: 2
        time: 0.68333334
        value: {x: -0.0032784636, y: -1.5879999, z: -0.082839265}
        inSlope: {x: 0.3142587, y: 0, z: -0.31625235}
        outSlope: {x: 0.31741923, y: -0, z: -0.11023703}
        tangentMode: 1
      - serializedVersion: 2
        time: 0.7
        value: {x: 0.0020118519, y: -1.5879999, z: -0.08467655}
        inSlope: {x: 0.31741923, y: 0, z: -0.11023703}
        outSlope: {x: 0.31931552, y: -0, z: 0.08474586}
        tangentMode: 1
      - serializedVersion: 2
        time: 0.71666664
        value: {x: 0.007333772, y: -1.5879999, z: -0.08326412}
        inSlope: {x: 0.31931552, y: 0, z: 0.08474586}
        outSlope: {x: 0.3199465, y: -0, z: 0.24455129}
        tangentMode: 1
      - serializedVersion: 2
        time: 0.73333335
        value: {x: 0.012666227, y: -1.5879999, z: -0.07918826}
        inSlope: {x: 0.3199465, y: 0, z: 0.24455127}
        outSlope: {x: 0.3193155, y: -0, z: 0.38983077}
        tangentMode: 1
      - serializedVersion: 2
        time: 0.75
        value: {x: 0.017988147, y: -1.5879999, z: -0.07269108}
        inSlope: {x: 0.3193155, y: 0, z: 0.38983077}
        outSlope: {x: 0.3174192, y: -0, z: 0.52058136}
        tangentMode: 1
      - serializedVersion: 2
        time: 0.76666665
        value: {x: 0.023278462, y: -1.5879999, z: -0.06401473}
        inSlope: {x: 0.3174192, y: 0, z: 0.52058136}
        outSlope: {x: 0.31425765, y: -0, z: 0.63680196}
        tangentMode: 1
      - serializedVersion: 2
        time: 0.78333336
        value: {x: 0.028516104, y: -1.5879999, z: -0.05340134}
        inSlope: {x: 0.31425765, y: 0, z: 0.63680196}
        outSlope: {x: 0.30983406, y: -0, z: 0.73849934}
        tangentMode: 1
      - serializedVersion: 2
        time: 0.8
        value: {x: 0.03368, y: -1.5879999, z: -0.04109303}
        inSlope: {x: 0.30983406, y: 0, z: 0.73849934}
        outSlope: {x: 0.3041452, y: -0, z: 0.82566625}
        tangentMode: 1
      - serializedVersion: 2
        time: 0.81666666
        value: {x: 0.03874908, y: -1.5879999, z: -0.027331939}
        inSlope: {x: 0.3041452, y: 0, z: 0.82566625}
        outSlope: {x: 0.29719204, y: -0, z: 0.8983056}
        tangentMode: 1
      - serializedVersion: 2
        time: 0.8333333
        value: {x: 0.04370228, y: -1.5879999, z: -0.012360194}
        inSlope: {x: 0.29719204, y: 0, z: 0.8983056}
        outSlope: {x: 0.28897372, y: -0, z: 0.95641357}
        tangentMode: 1
      - serializedVersion: 2
        time: 0.85
        value: {x: 0.04851852, y: -1.5879999, z: 0.0035800745}
        inSlope: {x: 0.28897372, y: 0, z: 0.95641357}
        outSlope: {x: 0.2794933, y: -0, z: 1.0000006}
        tangentMode: 1
      - serializedVersion: 2
        time: 0.8666667
        value: {x: 0.053176735, y: -1.5879999, z: 0.020246735}
        inSlope: {x: 0.2794933, y: 0, z: 1.0000006}
        outSlope: {x: 0.26874757, y: -0, z: 1.0290563}
        tangentMode: 1
      - serializedVersion: 2
        time: 0.98333335
        value: {x: 0.07958969, y: -1.5879999, z: 0.13691336}
        inSlope: {x: 0.17772485, y: 0, z: 0.8983022}
        outSlope: {x: 0.15813032, y: -0, z: 0.82566625}
        tangentMode: 1
      - serializedVersion: 2
        time: 1.0333333
        value: {x: 0.08643215, y: -1.5879999, z: 0.17359614}
        inSlope: {x: 0.11514713, y: 0, z: 0.63680476}
        outSlope: {x: 0.09175996, y: -0, z: 0.52058077}
        tangentMode: 1
      - serializedVersion: 2
        time: 1.0833334
        value: {x: 0.08976647, y: -1.5879999, z: 0.19284554}
        inSlope: {x: 0.041191902, y: 0, z: 0.24455245}
        outSlope: {x: 0.014011587, y: -0, z: 0.08474586}
        tangentMode: 1
      - serializedVersion: 2
        time: 1.15
        value: {x: 0.088290006, y: -1.5879999, z: 0.18644778}
        inSlope: {x: -0.056199696, y: 0, z: -0.25538087}
        outSlope: {x: -0.07660053, y: -0, z: -0.34463915}
        tangentMode: 1
      - serializedVersion: 2
        time: 1.2333333
        value: {x: 0.07890666, y: -1.5879999, z: 0.14533077}
        inSlope: {x: -0.14620042, y: 0, z: -0.6272936}
        outSlope: {x: -0.16059995, y: -0, z: -0.6793608}
        tangentMode: 1
      - serializedVersion: 2
        time: 1.4
        value: {x: 0.04464, y: -1.5879999, z: 0.013508399}
        inSlope: {x: -0.23619999, y: 0, z: -0.8132499}
        outSlope: {x: -0.23860039, y: -0, z: -0.79093504}
        tangentMode: 1
      - serializedVersion: 2
        time: 1.4166666
        value: {x: 0.04066333, y: -1.5879999, z: 0.00032616153}
        inSlope: {x: -0.23860037, y: 0, z: -0.79093504}
        outSlope: {x: -0.23980014, y: -0, z: -0.761182}
        tangentMode: 1
      - serializedVersion: 2
        time: 1.4333333
        value: {x: 0.036666665, y: -1.5879999, z: -0.012360194}
        inSlope: {x: -0.23980014, y: 0, z: -0.761182}
        outSlope: {x: -0.23979858, y: -0, z: -0.7239855}
        tangentMode: 1
      - serializedVersion: 2
        time: 1.45
        value: {x: 0.03267, y: -1.5879999, z: -0.024426693}
        inSlope: {x: -0.23979859, y: 0, z: -0.7239855}
        outSlope: {x: -0.23860022, y: -0, z: -0.6793611}
        tangentMode: 1
      - serializedVersion: 2
        time: 1.4666667
        value: {x: 0.028693331, y: -1.5879999, z: -0.03574937}
        inSlope: {x: -0.23860024, y: 0, z: -0.6793611}
        outSlope: {x: -0.23620012, y: -0, z: -0.6272933}
        tangentMode: 1
      - serializedVersion: 2
        time: 1.4833333
        value: {x: 0.024756666, y: -1.5879999, z: -0.046204247}
        inSlope: {x: -0.23620014, y: 0, z: -0.6272933}
        outSlope: {x: -0.23260024, y: -0, z: -0.5677871}
        tangentMode: 1
      - serializedVersion: 2
        time: 1.5
        value: {x: 0.02088, y: -1.5879999, z: -0.055667356}
        inSlope: {x: -0.23260024, y: 0, z: -0.5677871}
        outSlope: {x: -0.22780024, y: -0, z: -0.50084317}
        tangentMode: 1
      - serializedVersion: 2
        time: 1.5333333
        value: {x: 0.013386667, y: -1.5879999, z: -0.0711224}
        inSlope: {x: -0.22180022, y: 0, z: -0.42646018}
        outSlope: {x: -0.21460019, y: -0, z: -0.34463942}
        tangentMode: 1
      - serializedVersion: 2
        time: 1.5666667
        value: {x: 0.0063733333, y: -1.5879999, z: -0.08112271}
        inSlope: {x: -0.20619872, y: 0, z: -0.2553782}
        outSlope: {x: -0.19660018, y: -0, z: -0.15868336}
        tangentMode: 1
      - serializedVersion: 2
        time: 1.5833334
        value: {x: 0.0030966667, y: -1.5879999, z: -0.08376743}
        inSlope: {x: -0.19660018, y: 0, z: -0.15868336}
        outSlope: {x: -0.18580016, y: -0, z: -0.054547172}
        tangentMode: 1
      - serializedVersion: 2
        time: 1.6
        value: {x: -0, y: -1.5879999, z: -0.08467655}
        inSlope: {x: -0.18580016, y: 0, z: -0.054547172}
        outSlope: {x: 0, y: 0, z: 0}
        tangentMode: 1
      m_PreInfinity: 2
      m_PostInfinity: 2
      m_RotationOrder: 4
    path: Main/Feet/Ears
  - curve:
      serializedVersion: 2
      m_Curve:
      - serializedVersion: 2
        time: 0
        value: {x: -0, y: -0.81170386, z: 0}
        inSlope: {x: 0, y: 0, z: 0}
        outSlope: {x: 0, y: 0, z: 0}
        tangentMode: 1
      - serializedVersion: 2
        time: 1.6333333
        value: {x: -0, y: -0.81170386, z: 0}
        inSlope: {x: 0, y: 0, z: 0}
        outSlope: {x: 0, y: 0, z: 0}
        tangentMode: 1
      m_PreInfinity: 2
      m_PostInfinity: 2
      m_RotationOrder: 4
    path: Main
  - curve:
      serializedVersion: 2
      m_Curve:
      - serializedVersion: 2
        time: 0
        value: {x: -0, y: 0.81170386, z: 0}
        inSlope: {x: 0, y: 0, z: 0}
        outSlope: {x: 0, y: 0, z: 0}
        tangentMode: 1
      - serializedVersion: 2
        time: 1.6333333
        value: {x: -0, y: 0.81170386, z: 0}
        inSlope: {x: 0, y: 0, z: 0}
        outSlope: {x: 0, y: 0, z: 0}
        tangentMode: 1
      m_PreInfinity: 2
      m_PostInfinity: 2
      m_RotationOrder: 4
    path: Main/Feet
  - curve:
      serializedVersion: 2
      m_Curve:
      - serializedVersion: 2
        time: 0
        value: {x: -0.835, y: -0.2843662, z: -0.19999999}
        inSlope: {x: 0, y: 0, z: 0}
        outSlope: {x: 0, y: 0, z: 0}
        tangentMode: 1
      - serializedVersion: 2
        time: 1.6333333
        value: {x: -0.835, y: -0.2843662, z: -0.19999999}
        inSlope: {x: 0, y: 0, z: 0}
        outSlope: {x: 0, y: 0, z: 0}
        tangentMode: 1
      m_PreInfinity: 2
      m_PostInfinity: 2
      m_RotationOrder: 4
    path: Main/Feet/LeftWing
  - curve:
      serializedVersion: 2
      m_Curve:
      - serializedVersion: 2
        time: 0
        value: {x: 0.755, y: -0.2843662, z: -0.41}
        inSlope: {x: 0, y: 0, z: 0}
        outSlope: {x: 0, y: 0, z: 0}
        tangentMode: 1
      - serializedVersion: 2
        time: 1.6333333
        value: {x: 0.755, y: -0.2843662, z: -0.41}
        inSlope: {x: 0, y: 0, z: 0}
        outSlope: {x: 0, y: 0, z: 0}
        tangentMode: 1
      m_PreInfinity: 2
      m_PostInfinity: 2
      m_RotationOrder: 4
    path: Main/Feet/RightWing
  - curve:
      serializedVersion: 2
      m_Curve:
      - serializedVersion: 2
        time: 0
        value: {x: -0, y: 0, z: 0}
        inSlope: {x: 0, y: 0, z: 0}
        outSlope: {x: 0, y: 0, z: 0}
        tangentMode: 1
      - serializedVersion: 2
        time: 1.6333333
        value: {x: -0, y: 0, z: 0}
        inSlope: {x: 0, y: 0, z: 0}
        outSlope: {x: 0, y: 0, z: 0}
        tangentMode: 1
      m_PreInfinity: 2
      m_PostInfinity: 2
      m_RotationOrder: 4
    path: Bat
  m_ScaleCurves:
  - curve:
      serializedVersion: 2
      m_Curve:
      - serializedVersion: 2
        time: 0
        value: {x: 1, y: 1, z: 1}
        inSlope: {x: 0, y: 0, z: 0}
        outSlope: {x: 0, y: 0, z: 0}
        tangentMode: 1
      - serializedVersion: 2
        time: 1.6333333
        value: {x: 1, y: 1, z: 1}
        inSlope: {x: 0, y: 0, z: 0}
        outSlope: {x: 0, y: 0, z: 0}
        tangentMode: 1
      m_PreInfinity: 2
      m_PostInfinity: 2
      m_RotationOrder: 4
    path: Main
  - curve:
      serializedVersion: 2
      m_Curve:
      - serializedVersion: 2
        time: 0
        value: {x: 1, y: 1, z: 1}
        inSlope: {x: 0, y: 0, z: 0}
        outSlope: {x: 0, y: 0, z: 0}
        tangentMode: 1
      - serializedVersion: 2
        time: 1.6333333
        value: {x: 1, y: 1, z: 1}
        inSlope: {x: 0, y: 0, z: 0}
        outSlope: {x: 0, y: 0, z: 0}
        tangentMode: 1
      m_PreInfinity: 2
      m_PostInfinity: 2
      m_RotationOrder: 4
    path: Main/Feet
  - curve:
      serializedVersion: 2
      m_Curve:
      - serializedVersion: 2
        time: 0
        value: {x: 0.84, y: 0.735, z: 1}
        inSlope: {x: 0, y: 0, z: 0}
        outSlope: {x: 0, y: 0, z: 0}
        tangentMode: 1
      - serializedVersion: 2
        time: 1.6333333
        value: {x: 0.84, y: 0.735, z: 1}
        inSlope: {x: 0, y: 0, z: 0}
        outSlope: {x: 0, y: 0, z: 0}
        tangentMode: 1
      m_PreInfinity: 2
      m_PostInfinity: 2
      m_RotationOrder: 4
    path: Main/Feet/LeftWing
  - curve:
      serializedVersion: 2
      m_Curve:
      - serializedVersion: 2
        time: 0
        value: {x: 1, y: 1, z: 1}
        inSlope: {x: 0, y: 0, z: 0}
        outSlope: {x: 0, y: 0, z: 0}
        tangentMode: 1
      - serializedVersion: 2
        time: 1.6333333
        value: {x: 1, y: 1, z: 1}
        inSlope: {x: 0, y: 0, z: 0}
        outSlope: {x: 0, y: 0, z: 0}
        tangentMode: 1
      m_PreInfinity: 2
      m_PostInfinity: 2
      m_RotationOrder: 4
    path: Main/Feet/Ears
  - curve:
      serializedVersion: 2
      m_Curve:
      - serializedVersion: 2
        time: 0
        value: {x: 1, y: 0.72, z: 1}
        inSlope: {x: 0, y: 0, z: 0}
        outSlope: {x: 0, y: 0, z: 0}
        tangentMode: 1
      - serializedVersion: 2
        time: 1.6333333
        value: {x: 1, y: 0.72, z: 1}
        inSlope: {x: 0, y: 0, z: 0}
        outSlope: {x: 0, y: 0, z: 0}
        tangentMode: 1
      m_PreInfinity: 2
      m_PostInfinity: 2
      m_RotationOrder: 4
    path: Main/Feet/RightWing
  - curve:
      serializedVersion: 2
      m_Curve:
      - serializedVersion: 2
        time: 0
        value: {x: 1, y: 1, z: 1}
        inSlope: {x: 0, y: 0, z: 0}
        outSlope: {x: 0, y: 0, z: 0}
        tangentMode: 1
      - serializedVersion: 2
        time: 1.6333333
        value: {x: 1, y: 1, z: 1}
        inSlope: {x: 0, y: 0, z: 0}
        outSlope: {x: 0, y: 0, z: 0}
        tangentMode: 1
      m_PreInfinity: 2
      m_PostInfinity: 2
      m_RotationOrder: 4
    path: Bat
  m_FloatCurves: []
  m_PPtrCurves: []
  m_SampleRate: 60
  m_WrapMode: 0
  m_Bounds:
    m_Center: {x: 0, y: 0, z: 0}
    m_Extent: {x: 0, y: 0, z: 0}
  m_ClipBindingConstant:
    genericBindings:
    - serializedVersion: 2
      path: 4083629236
      attribute: 1
      script: {fileID: 0}
      typeID: 4
      customType: 0
      isPPtrCurve: 0
    - serializedVersion: 2
      path: 89500671
      attribute: 2
      script: {fileID: 0}
      typeID: 4
      customType: 0
      isPPtrCurve: 0
    - serializedVersion: 2
      path: 521822810
      attribute: 1
      script: {fileID: 0}
      typeID: 4
      customType: 0
      isPPtrCurve: 0
    - serializedVersion: 2
      path: 89500671
      attribute: 1
      script: {fileID: 0}
      typeID: 4
      customType: 0
      isPPtrCurve: 0
    - serializedVersion: 2
      path: 1748931104
      attribute: 1
      script: {fileID: 0}
      typeID: 4
      customType: 0
      isPPtrCurve: 0
    - serializedVersion: 2
      path: 2567190366
      attribute: 1
      script: {fileID: 0}
      typeID: 4
      customType: 0
      isPPtrCurve: 0
    - serializedVersion: 2
      path: 2815520639
      attribute: 1
      script: {fileID: 0}
      typeID: 4
      customType: 0
      isPPtrCurve: 0
    - serializedVersion: 2
      path: 521822810
      attribute: 2
      script: {fileID: 0}
      typeID: 4
      customType: 0
      isPPtrCurve: 0
    - serializedVersion: 2
      path: 1748931104
      attribute: 2
      script: {fileID: 0}
      typeID: 4
      customType: 0
      isPPtrCurve: 0
    - serializedVersion: 2
      path: 4083629236
      attribute: 2
      script: {fileID: 0}
      typeID: 4
      customType: 0
      isPPtrCurve: 0
    - serializedVersion: 2
      path: 2567190366
      attribute: 2
      script: {fileID: 0}
      typeID: 4
      customType: 0
      isPPtrCurve: 0
    - serializedVersion: 2
      path: 2815520639
      attribute: 2
      script: {fileID: 0}
      typeID: 4
      customType: 0
      isPPtrCurve: 0
    - serializedVersion: 2
      path: 521822810
      attribute: 3
      script: {fileID: 0}
      typeID: 4
      customType: 0
      isPPtrCurve: 0
    - serializedVersion: 2
      path: 89500671
      attribute: 3
      script: {fileID: 0}
      typeID: 4
      customType: 0
      isPPtrCurve: 0
    - serializedVersion: 2
      path: 1748931104
      attribute: 3
      script: {fileID: 0}
      typeID: 4
      customType: 0
      isPPtrCurve: 0
    - serializedVersion: 2
      path: 4083629236
      attribute: 3
      script: {fileID: 0}
      typeID: 4
      customType: 0
      isPPtrCurve: 0
    - serializedVersion: 2
      path: 2567190366
      attribute: 3
      script: {fileID: 0}
      typeID: 4
      customType: 0
      isPPtrCurve: 0
    - serializedVersion: 2
      path: 2815520639
      attribute: 3
      script: {fileID: 0}
      typeID: 4
      customType: 0
      isPPtrCurve: 0
    pptrCurveMapping: []
  m_AnimationClipSettings:
    serializedVersion: 2
    m_AdditiveReferencePoseClip: {fileID: 0}
    m_AdditiveReferencePoseTime: 0
    m_StartTime: 0
    m_StopTime: 1.6
    m_OrientationOffsetY: 0
    m_Level: 0
    m_CycleOffset: 0
    m_HasAdditiveReferencePose: 0
    m_LoopTime: 1
    m_LoopBlend: 0
    m_LoopBlendOrientation: 0
    m_LoopBlendPositionY: 0
    m_LoopBlendPositionXZ: 0
    m_KeepOriginalOrientation: 0
    m_KeepOriginalPositionY: 1
    m_KeepOriginalPositionXZ: 0
    m_HeightFromFeet: 0
    m_Mirror: 0
  m_EditorCurves: []
  m_EulerEditorCurves: []
  m_HasGenericRootTransform: 0
  m_HasMotionFloatCurves: 0
  m_GenerateMotionCurves: 0
  m_Events: []
