%YAML 1.1
%TAG !u! tag:unity3d.com,2011:
--- !u!74 &7400000
AnimationClip:
  m_ObjectHideFlags: 0
  m_PrefabParentObject: {fileID: 0}
  m_PrefabInternal: {fileID: 0}
  m_Name: Idle_4
  serializedVersion: 6
  m_Legacy: 0
  m_Compressed: 0
  m_UseHighQualityCurve: 1
  m_RotationCurves:
  - curve:
      serializedVersion: 2
      m_Curve:
      - serializedVersion: 2
        time: 0
        value: {x: -0.00053240143, y: 0.017444286, z: 0.030566473, w: 0.9993804}
        inSlope: {x: 0, y: 0, z: 0, w: 0}
        outSlope: {x: -0.000259605, y: -0.0051166485, z: -0.011950023, w: 0.00045061109}
        tangentMode: 1
      - serializedVersion: 2
        time: 0.6
        value: {x: -0.00044286824, y: -0.0060051754, z: -0.02420876, w: 0.9996888}
        inSlope: {x: -0.002922481, y: 0.05006775, z: 0.1170628, w: 0.0031185178}
        outSlope: {x: -0.002922481, y: 0.050067753, z: 0.11706284, w: 0.003118518}
        tangentMode: 1
      - serializedVersion: 2
        time: 1
        value: {x: -0.00053240143, y: 0.017444286, z: 0.030566473, w: 0.9993804}
        inSlope: {x: 0.0002596027, y: 0.0051166774, z: 0.01195008, w: -0.0004506129}
        outSlope: {x: 0, y: 0, z: 0, w: 0}
        tangentMode: 1
      m_PreInfinity: 2
      m_PostInfinity: 2
      m_RotationOrder: 4
    path: Root/Body_CTRL
  - curve:
      serializedVersion: 2
      m_Curve:
      - serializedVersion: 2
        time: 0
        value: {x: -0.069408186, y: 0.008851573, z: -0.25414494, w: 0.9646318}
        inSlope: {x: 0, y: 0, z: 0, w: 0}
        outSlope: {x: -0.13094679, y: 0.03915455, z: -0.009904503, w: -0.012552737}
        tangentMode: 1
      - serializedVersion: 2
        time: 0.18333334
        value: {x: -0.20951885, y: 0.046872865, z: -0.25238594, w: 0.9435074}
        inSlope: {x: -0.77991855, y: 0.18861431, z: 0.08025792, w: -0.16012603}
        outSlope: {x: -0.7799186, y: 0.18861432, z: 0.08025792, w: -0.16012603}
        tangentMode: 1
      - serializedVersion: 2
        time: 0.33333334
        value: {x: -0.20313339, y: 0.04599723, z: -0.24961376, w: 0.9456818}
        inSlope: {x: 0.75175035, y: -0.17477855, z: -0.010201788, w: 0.16661704}
        outSlope: {x: 0.75175035, y: -0.17477855, z: -0.010201785, w: 0.16661704}
        tangentMode: 1
      - serializedVersion: 2
        time: 0.5166667
        value: {x: -0.06258823, y: 0.006650418, z: -0.2575091, w: 0.9642238}
        inSlope: {x: 0.38865912, y: -0.12603614, z: -0.24456549, w: -0.039255016}
        outSlope: {x: 0.38865912, y: -0.12603614, z: -0.24456547, w: -0.039255016}
        tangentMode: 1
      - serializedVersion: 2
        time: 0.78333336
        value: {x: -0.026476039, y: -0.0041556195, z: -0.33818, w: 0.9406998}
        inSlope: {x: -0.12614654, y: 0.027035495, z: 0.23585707, w: 0.0810598}
        outSlope: {x: -0.12614654, y: 0.027035495, z: 0.23585708, w: 0.081059836}
        tangentMode: 1
      - serializedVersion: 2
        time: 1
        value: {x: -0.069408186, y: 0.008851573, z: -0.25414494, w: 0.9646318}
        inSlope: {x: -0.033625655, y: 0.013332249, z: 0.06906895, w: 0.015710663}
        outSlope: {x: 0, y: 0, z: 0, w: 0}
        tangentMode: 1
      m_PreInfinity: 2
      m_PostInfinity: 2
      m_RotationOrder: 4
    path: Root/Body_CTRL/LArm_CTRL
  - curve:
      serializedVersion: 2
      m_Curve:
      - serializedVersion: 2
        time: 0
        value: {x: -0.13654354, y: -0.01625361, z: 0.25693557, w: 0.95659596}
        inSlope: {x: 0, y: 0, z: 0, w: 0}
        outSlope: {x: 0.0014206766, y: 0.006176121, z: 0.055031773, w: -0.014501809}
        tangentMode: 1
      - serializedVersion: 2
        time: 0.28333336
        value: {x: -0.13370465, y: -0.008484579, z: 0.32526138, w: 0.9360855}
        inSlope: {x: 0.041443266, y: -0.007303773, z: -0.16507927, w: 0.06308737}
        outSlope: {x: 0.041443266, y: -0.007303769, z: -0.16507928, w: 0.06308736}
        tangentMode: 1
      - serializedVersion: 2
        time: 0.53333336
        value: {x: -0.14743662, y: -0.019898001, z: 0.25370502, w: 0.9557721}
        inSlope: {x: -0.41585726, y: -0.13219923, z: -0.064425826, w: -0.050109074}
        outSlope: {x: -0.41585726, y: -0.13219923, z: -0.064425826, w: -0.050109077}
        tangentMode: 1
      - serializedVersion: 2
        time: 0.8000001
        value: {x: -0.23390837, y: -0.04282476, z: 0.25451362, w: 0.9373771}
        inSlope: {x: 0.40825742, y: 0.10069599, z: 0.03737745, w: 0.095905006}
        outSlope: {x: 0.40825745, y: 0.10069599, z: 0.03737745, w: 0.095905006}
        tangentMode: 1
      - serializedVersion: 2
        time: 1
        value: {x: -0.13654354, y: -0.01625361, z: 0.25693557, w: 0.95659596}
        inSlope: {x: 0.083828375, y: 0.025001327, z: -0.0034064206, w: 0.013371767}
        outSlope: {x: 0, y: 0, z: 0, w: 0}
        tangentMode: 1
      m_PreInfinity: 2
      m_PostInfinity: 2
      m_RotationOrder: 4
    path: Root/Body_CTRL/RArm_CTRL
  - curve:
      serializedVersion: 2
      m_Curve:
      - serializedVersion: 2
        time: 0
        value: {x: 0, y: 0, z: -0, w: 1}
        inSlope: {x: 0, y: 0, z: 0, w: 0}
        outSlope: {x: 0, y: 0, z: 0, w: 0}
        tangentMode: 1
      - serializedVersion: 2
        time: 1.0333333
        value: {x: 0, y: 0, z: -0, w: 1}
        inSlope: {x: 0, y: 0, z: 0, w: 0}
        outSlope: {x: 0, y: 0, z: 0, w: 0}
        tangentMode: 1
      m_PreInfinity: 2
      m_PostInfinity: 2
      m_RotationOrder: 4
    path: Yeti
  - curve:
      serializedVersion: 2
      m_Curve:
      - serializedVersion: 2
        time: 0
        value: {x: 0, y: 0, z: -0, w: 1}
        inSlope: {x: 0, y: 0, z: 0, w: 0}
        outSlope: {x: 0, y: 0, z: 0, w: 0}
        tangentMode: 1
      - serializedVersion: 2
        time: 1.0333333
        value: {x: 0, y: 0, z: -0, w: 1}
        inSlope: {x: 0, y: 0, z: 0, w: 0}
        outSlope: {x: 0, y: 0, z: 0, w: 0}
        tangentMode: 1
      m_PreInfinity: 2
      m_PostInfinity: 2
      m_RotationOrder: 4
    path: Root
  - curve:
      serializedVersion: 2
      m_Curve:
      - serializedVersion: 2
        time: 0
        value: {x: 0, y: 0, z: -0, w: 1}
        inSlope: {x: 0, y: 0, z: 0, w: 0}
        outSlope: {x: 0, y: 0, z: 0, w: 0}
        tangentMode: 1
      - serializedVersion: 2
        time: 1.0333333
        value: {x: 0, y: 0, z: -0, w: 1}
        inSlope: {x: 0, y: 0, z: 0, w: 0}
        outSlope: {x: 0, y: 0, z: 0, w: 0}
        tangentMode: 1
      m_PreInfinity: 2
      m_PostInfinity: 2
      m_RotationOrder: 4
    path: Root/LLeg_CTRL
  - curve:
      serializedVersion: 2
      m_Curve:
      - serializedVersion: 2
        time: 0
        value: {x: 0, y: 0, z: -0, w: 1}
        inSlope: {x: 0, y: 0, z: 0, w: 0}
        outSlope: {x: 0, y: 0, z: 0, w: 0}
        tangentMode: 1
      - serializedVersion: 2
        time: 1.0333333
        value: {x: 0, y: 0, z: -0, w: 1}
        inSlope: {x: 0, y: 0, z: 0, w: 0}
        outSlope: {x: 0, y: 0, z: 0, w: 0}
        tangentMode: 1
      m_PreInfinity: 2
      m_PostInfinity: 2
      m_RotationOrder: 4
    path: Root/RLeg_CTRL
  m_CompressedRotationCurves: []
  m_EulerCurves: []
  m_PositionCurves:
  - curve:
      serializedVersion: 2
      m_Curve:
      - serializedVersion: 2
        time: 0
        value: {x: -0, y: 0.61, z: 0}
        inSlope: {x: 0, y: 0, z: 0}
        outSlope: {x: -0.0000010322452, y: 0.12334899, z: -0.00022338127}
        tangentMode: 1
      - serializedVersion: 2
        time: 0.016666668
        value: {x: -0.000000017204087, y: 0.6120558, z: -0.0000037230213}
        inSlope: {x: -0.0000010322452, y: 0.12334899, z: -0.00022338127}
        outSlope: {x: -0.00000290469, y: 0.3470993, z: -0.00062858453}
        tangentMode: 1
      - serializedVersion: 2
        time: 0.033333335
        value: {x: -0.00000006561559, y: 0.61784077, z: -0.000014199431}
        inSlope: {x: -0.00000290469, y: 0.3470993, z: -0.00062858453}
        outSlope: {x: -0.0000044890667, y: 0.5364235, z: -0.0009714489}
        tangentMode: 1
      - serializedVersion: 2
        time: 0.05
        value: {x: -0.00000014043336, y: 0.62678117, z: -0.000030390245}
        inSlope: {x: -0.0000044890667, y: 0.5364235, z: -0.0009714489}
        outSlope: {x: -0.000005785374, y: 0.69132835, z: -0.001251974}
        tangentMode: 1
      - serializedVersion: 2
        time: 0.06666667
        value: {x: -0.00000023685628, y: 0.63830334, z: -0.000051256484}
        inSlope: {x: -0.000005785374, y: 0.69132835, z: -0.001251974}
        outSlope: {x: -0.0000067936135, y: 0.811805, z: -0.0014701604}
        tangentMode: 1
      - serializedVersion: 2
        time: 0.083333336
        value: {x: -0.00000035008316, y: 0.6518334, z: -0.000075759155}
        inSlope: {x: -0.0000067936135, y: 0.811805, z: -0.0014701604}
        outSlope: {x: -0.000007513787, y: 0.8978669, z: -0.001626008}
        tangentMode: 1
      - serializedVersion: 2
        time: 0.13333334
        value: {x: -0.00000074257645, y: 0.69873464, z: -0.000160696}
        inSlope: {x: -0.000008089919, y: 0.9667095, z: -0.0017506855}
        outSlope: {x: -0.000007945888, y: 0.94950265, z: -0.0017195162}
        tangentMode: 1
      - serializedVersion: 2
        time: 0.18333334
        value: {x: -0.0000011134646, y: 0.7430542, z: -0.00024095741}
        inSlope: {x: -0.0000067936153, y: 0.81180733, z: -0.0014701614}
        outSlope: {x: -0.0000057853736, y: 0.69132847, z: -0.0012519737}
        tangentMode: 1
      - serializedVersion: 2
        time: 0.21666667
        value: {x: -0.0000012847051, y: 0.7635167, z: -0.00027801446}
        inSlope: {x: -0.000004489064, y: 0.5364258, z: -0.0009714492}
        outSlope: {x: -0.0000029046964, y: 0.34709933, z: -0.0006285847}
        tangentMode: 1
      - serializedVersion: 2
        time: 0.23333333
        value: {x: -0.0000013331168, y: 0.7693017, z: -0.00028849088}
        inSlope: {x: -0.0000029046964, y: 0.34709933, z: -0.0006285847}
        outSlope: {x: -0.0000010322401, y: 0.123349, z: -0.00022338108}
        tangentMode: 1
      - serializedVersion: 2
        time: 0.25
        value: {x: -0.0000013503208, y: 0.77135754, z: -0.0002922139}
        inSlope: {x: -0.0000010322401, y: 0.123349, z: -0.00022338108}
        outSlope: {x: 0.0000010322392, y: -0.12334889, z: 0.00022338088}
        tangentMode: 1
      - serializedVersion: 2
        time: 0.26666668
        value: {x: -0.0000013331168, y: 0.7693017, z: -0.00028849088}
        inSlope: {x: 0.0000010322392, y: -0.12334889, z: 0.00022338088}
        outSlope: {x: 0.000002904699, y: -0.34709963, z: 0.0006285852}
        tangentMode: 1
      - serializedVersion: 2
        time: 0.28333333
        value: {x: -0.0000012847051, y: 0.7635167, z: -0.00027801446}
        inSlope: {x: 0.000002904699, y: -0.34709963, z: 0.0006285852}
        outSlope: {x: 0.00000448906, y: -0.5364253, z: 0.0009714483}
        tangentMode: 1
      - serializedVersion: 2
        time: 0.31666666
        value: {x: -0.0000011134646, y: 0.7430542, z: -0.00024095741}
        inSlope: {x: 0.000005785378, y: -0.6913291, z: 0.0012519748}
        outSlope: {x: 0.00000679361, y: -0.81180656, z: 0.00147016}
        tangentMode: 1
      - serializedVersion: 2
        time: 0.4
        value: {x: -0.00000047531293, y: 0.6667979, z: -0.00010285929}
        inSlope: {x: 0.0000079458805, y: -0.9494972, z: 0.0017195153}
        outSlope: {x: 0.000007513794, y: -0.8978676, z: 0.0016260095}
        tangentMode: 1
      - serializedVersion: 2
        time: 0.41666666
        value: {x: -0.00000035008316, y: 0.6518334, z: -0.000075759155}
        inSlope: {x: 0.0000075137946, y: -0.8978676, z: 0.0016260095}
        outSlope: {x: 0.0000067936076, y: -0.81180423, z: 0.0014701592}
        tangentMode: 1
      - serializedVersion: 2
        time: 0.43333334
        value: {x: -0.00000023685628, y: 0.63830334, z: -0.000051256484}
        inSlope: {x: 0.0000067936076, y: -0.81180423, z: 0.0014701592}
        outSlope: {x: 0.0000057853804, y: -0.6913291, z: 0.0012519754}
        tangentMode: 1
      - serializedVersion: 2
        time: 0.45
        value: {x: -0.00000014043336, y: 0.62678117, z: -0.000030390245}
        inSlope: {x: 0.0000057853804, y: -0.6913291, z: 0.0012519754}
        outSlope: {x: 0.0000044890626, y: -0.536423, z: 0.000971448}
        tangentMode: 1
      - serializedVersion: 2
        time: 0.46666667
        value: {x: -0.00000006561559, y: 0.61784077, z: -0.000014199431}
        inSlope: {x: 0.0000044890626, y: -0.536423, z: 0.000971448}
        outSlope: {x: 0.0000029046928, y: -0.34709963, z: 0.0006285851}
        tangentMode: 1
      - serializedVersion: 2
        time: 0.48333332
        value: {x: -0.000000017204087, y: 0.6120558, z: -0.0000037230213}
        inSlope: {x: 0.0000029046928, y: -0.34709963, z: 0.0006285851}
        outSlope: {x: 0.0000010322444, y: -0.12334889, z: 0.00022338108}
        tangentMode: 1
      - serializedVersion: 2
        time: 0.5
        value: {x: -0, y: 0.61, z: 0}
        inSlope: {x: 0.0000010322444, y: -0.12334889, z: 0.00022338108}
        outSlope: {x: -0.0000010322462, y: 0.12334911, z: -0.00022338149}
        tangentMode: 1
      - serializedVersion: 2
        time: 0.51666665
        value: {x: -0.000000017204087, y: 0.6120558, z: -0.0000037230213}
        inSlope: {x: -0.0000010322462, y: 0.123349115, z: -0.00022338149}
        outSlope: {x: -0.0000029046823, y: 0.34709838, z: -0.0006285829}
        tangentMode: 1
      - serializedVersion: 2
        time: 0.53333336
        value: {x: -0.00000006561559, y: 0.61784077, z: -0.000014199431}
        inSlope: {x: -0.0000029046823, y: 0.34709838, z: -0.0006285829}
        outSlope: {x: -0.0000044890708, y: 0.536424, z: -0.00097144983}
        tangentMode: 1
      - serializedVersion: 2
        time: 0.55
        value: {x: -0.00000014043336, y: 0.62678117, z: -0.000030390245}
        inSlope: {x: -0.0000044890708, y: 0.536424, z: -0.0009714499}
        outSlope: {x: -0.0000057853804, y: 0.6913291, z: -0.0012519754}
        tangentMode: 1
      - serializedVersion: 2
        time: 0.56666666
        value: {x: -0.00000023685628, y: 0.63830334, z: -0.000051256484}
        inSlope: {x: -0.0000057853804, y: 0.6913291, z: -0.0012519754}
        outSlope: {x: -0.00000679362, y: 0.8118057, z: -0.0014701618}
        tangentMode: 1
      - serializedVersion: 2
        time: 0.5833333
        value: {x: -0.00000035008316, y: 0.6518334, z: -0.000075759155}
        inSlope: {x: -0.00000679362, y: 0.8118057, z: -0.0014701618}
        outSlope: {x: -0.0000075137673, y: 0.89786446, z: -0.0016260037}
        tangentMode: 1
      - serializedVersion: 2
        time: 0.6333333
        value: {x: -0.00000074257645, y: 0.69873464, z: -0.000160696}
        inSlope: {x: -0.000008089931, y: 0.9667108, z: -0.0017506877}
        outSlope: {x: -0.000007945894, y: 0.9495035, z: -0.0017195179}
        tangentMode: 1
      - serializedVersion: 2
        time: 0.68333334
        value: {x: -0.0000011134646, y: 0.7430542, z: -0.00024095741}
        inSlope: {x: -0.000006793622, y: 0.811808, z: -0.0014701624}
        outSlope: {x: -0.000005785378, y: 0.6913291, z: -0.0012519748}
        tangentMode: 1
      - serializedVersion: 2
        time: 0.71666664
        value: {x: -0.0000012847051, y: 0.7635167, z: -0.00027801446}
        inSlope: {x: -0.000004489068, y: 0.53642625, z: -0.00097145006}
        outSlope: {x: -0.0000029046885, y: 0.34709838, z: -0.00062858296}
        tangentMode: 1
      - serializedVersion: 2
        time: 0.73333335
        value: {x: -0.0000013331168, y: 0.7693017, z: -0.00028849088}
        inSlope: {x: -0.0000029046885, y: 0.34709838, z: -0.00062858296}
        outSlope: {x: -0.0000010322411, y: 0.12334911, z: -0.00022338127}
        tangentMode: 1
      - serializedVersion: 2
        time: 0.75
        value: {x: -0.0000013503208, y: 0.77135754, z: -0.0002922139}
        inSlope: {x: -0.0000010322411, y: 0.123349115, z: -0.00022338127}
        outSlope: {x: 0.0000010322411, y: -0.12334911, z: 0.00022338127}
        tangentMode: 1
      - serializedVersion: 2
        time: 0.76666665
        value: {x: -0.0000013331168, y: 0.7693017, z: -0.00028849088}
        inSlope: {x: 0.0000010322411, y: -0.123349115, z: 0.00022338127}
        outSlope: {x: 0.0000029046885, y: -0.34709838, z: 0.00062858296}
        tangentMode: 1
      - serializedVersion: 2
        time: 0.78333336
        value: {x: -0.0000012847051, y: 0.7635167, z: -0.00027801446}
        inSlope: {x: 0.0000029046885, y: -0.34709838, z: 0.00062858296}
        outSlope: {x: 0.000004489068, y: -0.53642625, z: 0.00097145006}
        tangentMode: 1
      - serializedVersion: 2
        time: 0.81666666
        value: {x: -0.0000011134646, y: 0.7430542, z: -0.00024095741}
        inSlope: {x: 0.000005785378, y: -0.6913291, z: 0.0012519748}
        outSlope: {x: 0.000006793622, y: -0.811808, z: 0.0014701625}
        tangentMode: 1
      - serializedVersion: 2
        time: 0.9
        value: {x: -0.00000047531293, y: 0.6667979, z: -0.00010285929}
        inSlope: {x: 0.000007945894, y: -0.9494989, z: 0.0017195182}
        outSlope: {x: 0.0000075137673, y: -0.89786446, z: 0.0016260037}
        tangentMode: 1
      - serializedVersion: 2
        time: 0.9166667
        value: {x: -0.00000035008316, y: 0.6518334, z: -0.000075759155}
        inSlope: {x: 0.0000075137677, y: -0.89786446, z: 0.0016260037}
        outSlope: {x: 0.00000679362, y: -0.8118057, z: 0.0014701618}
        tangentMode: 1
      - serializedVersion: 2
        time: 0.93333334
        value: {x: -0.00000023685628, y: 0.63830334, z: -0.000051256484}
        inSlope: {x: 0.00000679362, y: -0.8118057, z: 0.0014701618}
        outSlope: {x: 0.0000057853804, y: -0.6913291, z: 0.0012519754}
        tangentMode: 1
      - serializedVersion: 2
        time: 0.95
        value: {x: -0.00000014043336, y: 0.62678117, z: -0.000030390245}
        inSlope: {x: 0.0000057853804, y: -0.6913291, z: 0.0012519754}
        outSlope: {x: 0.0000044890708, y: -0.536424, z: 0.00097144983}
        tangentMode: 1
      - serializedVersion: 2
        time: 0.96666664
        value: {x: -0.00000006561559, y: 0.61784077, z: -0.000014199431}
        inSlope: {x: 0.0000044890708, y: -0.536424, z: 0.0009714499}
        outSlope: {x: 0.0000029046823, y: -0.34709838, z: 0.0006285829}
        tangentMode: 1
      - serializedVersion: 2
        time: 0.98333335
        value: {x: -0.000000017204087, y: 0.6120558, z: -0.0000037230213}
        inSlope: {x: 0.0000029046823, y: -0.34709838, z: 0.0006285829}
        outSlope: {x: 0.0000010322462, y: -0.12334911, z: 0.00022338149}
        tangentMode: 1
      - serializedVersion: 2
        time: 1
        value: {x: -0, y: 0.61, z: 0}
        inSlope: {x: 0.0000010322462, y: -0.123349115, z: 0.00022338149}
        outSlope: {x: 0, y: 0, z: 0}
        tangentMode: 1
      m_PreInfinity: 2
      m_PostInfinity: 2
      m_RotationOrder: 4
    path: Root/Body_CTRL
  - curve:
      serializedVersion: 2
      m_Curve:
      - serializedVersion: 2
        time: 0
        value: {x: -0, y: 0, z: 0}
        inSlope: {x: 0, y: 0, z: 0}
        outSlope: {x: 0, y: 0, z: 0}
        tangentMode: 1
      - serializedVersion: 2
        time: 1.0333333
        value: {x: -0, y: 0, z: 0}
        inSlope: {x: 0, y: 0, z: 0}
        outSlope: {x: 0, y: 0, z: 0}
        tangentMode: 1
      m_PreInfinity: 2
      m_PostInfinity: 2
      m_RotationOrder: 4
    path: Yeti
  - curve:
      serializedVersion: 2
      m_Curve:
      - serializedVersion: 2
        time: 0
        value: {x: -0, y: 0, z: 0}
        inSlope: {x: 0, y: 0, z: 0}
        outSlope: {x: 0, y: 0, z: 0}
        tangentMode: 1
      - serializedVersion: 2
        time: 1.0333333
        value: {x: -0, y: 0, z: 0}
        inSlope: {x: 0, y: 0, z: 0}
        outSlope: {x: 0, y: 0, z: 0}
        tangentMode: 1
      m_PreInfinity: 2
      m_PostInfinity: 2
      m_RotationOrder: 4
    path: Root
  - curve:
      serializedVersion: 2
      m_Curve:
      - serializedVersion: 2
        time: 0
        value: {x: -1.2128882, y: 1.215136, z: 0}
        inSlope: {x: 0, y: 0, z: 0}
        outSlope: {x: 0, y: 0, z: 0}
        tangentMode: 1
      - serializedVersion: 2
        time: 1.0333333
        value: {x: -1.2128882, y: 1.215136, z: 0}
        inSlope: {x: 0, y: 0, z: 0}
        outSlope: {x: 0, y: 0, z: 0}
        tangentMode: 1
      m_PreInfinity: 2
      m_PostInfinity: 2
      m_RotationOrder: 4
    path: Root/LLeg_CTRL
  - curve:
      serializedVersion: 2
      m_Curve:
      - serializedVersion: 2
        time: 0
        value: {x: 1.2128882, y: 1.2151363, z: 0}
        inSlope: {x: 0, y: 0, z: 0}
        outSlope: {x: 0, y: 0, z: 0}
        tangentMode: 1
      - serializedVersion: 2
        time: 1.0333333
        value: {x: 1.2128882, y: 1.2151363, z: 0}
        inSlope: {x: 0, y: 0, z: 0}
        outSlope: {x: 0, y: 0, z: 0}
        tangentMode: 1
      m_PreInfinity: 2
      m_PostInfinity: 2
      m_RotationOrder: 4
    path: Root/RLeg_CTRL
  - curve:
      serializedVersion: 2
      m_Curve:
      - serializedVersion: 2
        time: 0
        value: {x: -2.0954218, y: 3.2419472, z: 0.020071907}
        inSlope: {x: 0, y: 0, z: 0}
        outSlope: {x: 0, y: 0, z: 0}
        tangentMode: 1
      - serializedVersion: 2
        time: 1.0333333
        value: {x: -2.0954218, y: 3.2419472, z: 0.020071907}
        inSlope: {x: 0, y: 0, z: 0}
        outSlope: {x: 0, y: 0, z: 0}
        tangentMode: 1
      m_PreInfinity: 2
      m_PostInfinity: 2
      m_RotationOrder: 4
    path: Root/Body_CTRL/LArm_CTRL
  - curve:
      serializedVersion: 2
      m_Curve:
      - serializedVersion: 2
        time: 0
        value: {x: 2.1163237, y: 3.2495403, z: 0.0200719}
        inSlope: {x: 0, y: 0, z: 0}
        outSlope: {x: 0, y: 0, z: 0}
        tangentMode: 1
      - serializedVersion: 2
        time: 1.0333333
        value: {x: 2.1163237, y: 3.2495403, z: 0.0200719}
        inSlope: {x: 0, y: 0, z: 0}
        outSlope: {x: 0, y: 0, z: 0}
        tangentMode: 1
      m_PreInfinity: 2
      m_PostInfinity: 2
      m_RotationOrder: 4
    path: Root/Body_CTRL/RArm_CTRL
  m_ScaleCurves:
  - curve:
      serializedVersion: 2
      m_Curve:
      - serializedVersion: 2
        time: 0
        value: {x: 1.04, y: 0.925, z: 1.04}
        inSlope: {x: 0, y: 0, z: 0}
        outSlope: {x: -0.03180027, y: 0.0035369394, z: -0.03180027}
        tangentMode: 1
      - serializedVersion: 2
        time: 0.3166667
        value: {x: 1.0056969, y: 0.92881376, z: 1.0056969}
        inSlope: {x: 0.19376639, y: -0.021541718, z: 0.19376639}
        outSlope: {x: 0.19376639, y: -0.021541718, z: 0.19376639}
        tangentMode: 1
      - serializedVersion: 2
        time: 0.5833334
        value: {x: 1.0292147, y: 0.9261991, z: 1.0292147}
        inSlope: {x: -0.22038838, y: 0.024501108, z: -0.22038838}
        outSlope: {x: -0.22038838, y: 0.024501108, z: -0.22038838}
        tangentMode: 1
      - serializedVersion: 2
        time: 0.8333334
        value: {x: 1.0091852, y: 0.92842597, z: 1.0091852}
        inSlope: {x: 0.22038838, y: -0.024501108, z: 0.22038838}
        outSlope: {x: 0.22038838, y: -0.024501108, z: 0.22038838}
        tangentMode: 1
      - serializedVersion: 2
        time: 1
        value: {x: 1.04, y: 0.925, z: 1.04}
        inSlope: {x: 0.03180041, y: -0.003536956, z: 0.03180041}
        outSlope: {x: 0, y: 0, z: 0}
        tangentMode: 1
      m_PreInfinity: 2
      m_PostInfinity: 2
      m_RotationOrder: 4
    path: Root
  - curve:
      serializedVersion: 2
      m_Curve:
      - serializedVersion: 2
        time: 0
        value: {x: 1, y: 1, z: 1}
        inSlope: {x: 0, y: 0, z: 0}
        outSlope: {x: -0.034400225, y: 0.019111631, z: 0}
        tangentMode: 1
      - serializedVersion: 2
        time: 0.3166667
        value: {x: 0.9628933, y: 1.0206147, z: 1}
        inSlope: {x: 0.20960036, y: -0.116447225, z: 0}
        outSlope: {x: 0.20960036, y: -0.116447225, z: 0}
        tangentMode: 1
      - serializedVersion: 2
        time: 0.5666667
        value: {x: 0.9921067, y: 1.0043852, z: 1}
        inSlope: {x: -0.20960018, y: 0.11644713, z: 0}
        outSlope: {x: -0.20960018, y: 0.11644713, z: 0}
        tangentMode: 1
      - serializedVersion: 2
        time: 0.8166667
        value: {x: 0.9628933, y: 1.0206147, z: 1}
        inSlope: {x: 0.20960052, y: -0.11644732, z: 0}
        outSlope: {x: 0.20960052, y: -0.11644732, z: 0}
        tangentMode: 1
      - serializedVersion: 2
        time: 1
        value: {x: 1, y: 1, z: 1}
        inSlope: {x: 0.034400377, y: -0.01911172, z: 0}
        outSlope: {x: 0, y: 0, z: 0}
        tangentMode: 1
      m_PreInfinity: 2
      m_PostInfinity: 2
      m_RotationOrder: 4
    path: Root/Body_CTRL
  - curve:
      serializedVersion: 2
      m_Curve:
      - serializedVersion: 2
        time: 0
        value: {x: 1, y: 1, z: 1}
        inSlope: {x: 0, y: 0, z: 0}
        outSlope: {x: 0, y: 0, z: 0}
        tangentMode: 1
      - serializedVersion: 2
        time: 1.0333333
        value: {x: 1, y: 1, z: 1}
        inSlope: {x: 0, y: 0, z: 0}
        outSlope: {x: 0, y: 0, z: 0}
        tangentMode: 1
      m_PreInfinity: 2
      m_PostInfinity: 2
      m_RotationOrder: 4
    path: Yeti
  - curve:
      serializedVersion: 2
      m_Curve:
      - serializedVersion: 2
        time: 0
        value: {x: 1, y: 1, z: 1}
        inSlope: {x: 0, y: 0, z: 0}
        outSlope: {x: 0, y: 0, z: 0}
        tangentMode: 1
      - serializedVersion: 2
        time: 1.0333333
        value: {x: 1, y: 1, z: 1}
        inSlope: {x: 0, y: 0, z: 0}
        outSlope: {x: 0, y: 0, z: 0}
        tangentMode: 1
      m_PreInfinity: 2
      m_PostInfinity: 2
      m_RotationOrder: 4
    path: Root/LLeg_CTRL
  - curve:
      serializedVersion: 2
      m_Curve:
      - serializedVersion: 2
        time: 0
        value: {x: 1, y: 1, z: 1}
        inSlope: {x: 0, y: 0, z: 0}
        outSlope: {x: 0, y: 0, z: 0}
        tangentMode: 1
      - serializedVersion: 2
        time: 1.0333333
        value: {x: 1, y: 1, z: 1}
        inSlope: {x: 0, y: 0, z: 0}
        outSlope: {x: 0, y: 0, z: 0}
        tangentMode: 1
      m_PreInfinity: 2
      m_PostInfinity: 2
      m_RotationOrder: 4
    path: Root/RLeg_CTRL
  - curve:
      serializedVersion: 2
      m_Curve:
      - serializedVersion: 2
        time: 0
        value: {x: 1, y: 1, z: 1}
        inSlope: {x: 0, y: 0, z: 0}
        outSlope: {x: 0, y: 0, z: 0}
        tangentMode: 1
      - serializedVersion: 2
        time: 1.0333333
        value: {x: 1, y: 1, z: 1}
        inSlope: {x: 0, y: 0, z: 0}
        outSlope: {x: 0, y: 0, z: 0}
        tangentMode: 1
      m_PreInfinity: 2
      m_PostInfinity: 2
      m_RotationOrder: 4
    path: Root/Body_CTRL/LArm_CTRL
  - curve:
      serializedVersion: 2
      m_Curve:
      - serializedVersion: 2
        time: 0
        value: {x: 1, y: 1, z: 1}
        inSlope: {x: 0, y: 0, z: 0}
        outSlope: {x: 0, y: 0, z: 0}
        tangentMode: 1
      - serializedVersion: 2
        time: 1.0333333
        value: {x: 1, y: 1, z: 1}
        inSlope: {x: 0, y: 0, z: 0}
        outSlope: {x: 0, y: 0, z: 0}
        tangentMode: 1
      m_PreInfinity: 2
      m_PostInfinity: 2
      m_RotationOrder: 4
    path: Root/Body_CTRL/RArm_CTRL
  m_FloatCurves: []
  m_PPtrCurves: []
  m_SampleRate: 60
  m_WrapMode: 0
  m_Bounds:
    m_Center: {x: 0, y: 0, z: 0}
    m_Extent: {x: 0, y: 0, z: 0}
  m_ClipBindingConstant:
    genericBindings:
    - serializedVersion: 2
      path: 2449294696
      attribute: 1
      script: {fileID: 0}
      typeID: 4
      customType: 0
      isPPtrCurve: 0
    - serializedVersion: 2
      path: 2449294696
      attribute: 2
      script: {fileID: 0}
      typeID: 4
      customType: 0
      isPPtrCurve: 0
    - serializedVersion: 2
      path: 2609167066
      attribute: 2
      script: {fileID: 0}
      typeID: 4
      customType: 0
      isPPtrCurve: 0
    - serializedVersion: 2
      path: 4286980921
      attribute: 2
      script: {fileID: 0}
      typeID: 4
      customType: 0
      isPPtrCurve: 0
    - serializedVersion: 2
      path: 3066451557
      attribute: 3
      script: {fileID: 0}
      typeID: 4
      customType: 0
      isPPtrCurve: 0
    - serializedVersion: 2
      path: 2449294696
      attribute: 3
      script: {fileID: 0}
      typeID: 4
      customType: 0
      isPPtrCurve: 0
    - serializedVersion: 2
      path: 2791371761
      attribute: 1
      script: {fileID: 0}
      typeID: 4
      customType: 0
      isPPtrCurve: 0
    - serializedVersion: 2
      path: 3066451557
      attribute: 1
      script: {fileID: 0}
      typeID: 4
      customType: 0
      isPPtrCurve: 0
    - serializedVersion: 2
      path: 2976748304
      attribute: 1
      script: {fileID: 0}
      typeID: 4
      customType: 0
      isPPtrCurve: 0
    - serializedVersion: 2
      path: 3580824307
      attribute: 1
      script: {fileID: 0}
      typeID: 4
      customType: 0
      isPPtrCurve: 0
    - serializedVersion: 2
      path: 2609167066
      attribute: 1
      script: {fileID: 0}
      typeID: 4
      customType: 0
      isPPtrCurve: 0
    - serializedVersion: 2
      path: 4286980921
      attribute: 1
      script: {fileID: 0}
      typeID: 4
      customType: 0
      isPPtrCurve: 0
    - serializedVersion: 2
      path: 2791371761
      attribute: 2
      script: {fileID: 0}
      typeID: 4
      customType: 0
      isPPtrCurve: 0
    - serializedVersion: 2
      path: 3066451557
      attribute: 2
      script: {fileID: 0}
      typeID: 4
      customType: 0
      isPPtrCurve: 0
    - serializedVersion: 2
      path: 2976748304
      attribute: 2
      script: {fileID: 0}
      typeID: 4
      customType: 0
      isPPtrCurve: 0
    - serializedVersion: 2
      path: 3580824307
      attribute: 2
      script: {fileID: 0}
      typeID: 4
      customType: 0
      isPPtrCurve: 0
    - serializedVersion: 2
      path: 2791371761
      attribute: 3
      script: {fileID: 0}
      typeID: 4
      customType: 0
      isPPtrCurve: 0
    - serializedVersion: 2
      path: 2976748304
      attribute: 3
      script: {fileID: 0}
      typeID: 4
      customType: 0
      isPPtrCurve: 0
    - serializedVersion: 2
      path: 3580824307
      attribute: 3
      script: {fileID: 0}
      typeID: 4
      customType: 0
      isPPtrCurve: 0
    - serializedVersion: 2
      path: 2609167066
      attribute: 3
      script: {fileID: 0}
      typeID: 4
      customType: 0
      isPPtrCurve: 0
    - serializedVersion: 2
      path: 4286980921
      attribute: 3
      script: {fileID: 0}
      typeID: 4
      customType: 0
      isPPtrCurve: 0
    pptrCurveMapping: []
  m_AnimationClipSettings:
    serializedVersion: 2
    m_AdditiveReferencePoseClip: {fileID: 0}
    m_AdditiveReferencePoseTime: 0
    m_StartTime: 0
    m_StopTime: 1
    m_OrientationOffsetY: 0
    m_Level: 0
    m_CycleOffset: 0
    m_HasAdditiveReferencePose: 0
    m_LoopTime: 1
    m_LoopBlend: 0
    m_LoopBlendOrientation: 0
    m_LoopBlendPositionY: 0
    m_LoopBlendPositionXZ: 0
    m_KeepOriginalOrientation: 0
    m_KeepOriginalPositionY: 1
    m_KeepOriginalPositionXZ: 0
    m_HeightFromFeet: 0
    m_Mirror: 0
  m_EditorCurves: []
  m_EulerEditorCurves: []
  m_HasGenericRootTransform: 0
  m_HasMotionFloatCurves: 0
  m_GenerateMotionCurves: 0
  m_Events: []
