%YAML 1.1
%TAG !u! tag:unity3d.com,2011:
--- !u!74 &7400000
AnimationClip:
  serializedVersion: 6
  m_ObjectHideFlags: 0
  m_PrefabParentObject: {fileID: 0}
  m_PrefabInternal: {fileID: 0}
  m_Name: PrizeIdle2
  m_Legacy: 0
  m_Compressed: 0
  m_UseHighQualityCurve: 1
  m_RotationCurves:
  - curve:
      serializedVersion: 2
      m_Curve:
      - serializedVersion: 2
        time: 0
        value: {x: -0.17101009, y: -0.17101009, z: -0.030153701, w: 0.96984625}
        inSlope: {x: 0, y: 0, z: 0, w: 0}
        outSlope: {x: 0, y: 0, z: 0, w: 0}
        tangentMode: 1
      - serializedVersion: 2
        time: 0.016666668
        value: {x: -0.17101009, y: -0.17101009, z: -0.030153701, w: 0.96984625}
        inSlope: {x: 0, y: 0, z: 0, w: 0}
        outSlope: {x: 0, y: 0, z: 0, w: 0}
        tangentMode: 1
      - serializedVersion: 2
        time: 0.033333335
        value: {x: -0.17101009, y: -0.17101009, z: -0.030153701, w: 0.96984625}
        inSlope: {x: 0, y: 0, z: 0, w: 0}
        outSlope: {x: 0, y: 0, z: 0, w: 0}
        tangentMode: 1
      - serializedVersion: 2
        time: 0.050000004
        value: {x: -0.17101009, y: -0.17101009, z: -0.030153701, w: 0.96984625}
        inSlope: {x: 0, y: 0, z: 0, w: 0}
        outSlope: {x: 0, y: 0, z: 0, w: 0}
        tangentMode: 1
      - serializedVersion: 2
        time: 0.06666667
        value: {x: -0.17101009, y: -0.17101009, z: -0.030153701, w: 0.96984625}
        inSlope: {x: 0, y: 0, z: 0, w: 0}
        outSlope: {x: 0, y: 0, z: 0, w: 0}
        tangentMode: 1
      - serializedVersion: 2
        time: 0.083333336
        value: {x: -0.17101009, y: -0.17101009, z: -0.030153701, w: 0.96984625}
        inSlope: {x: 0, y: 0, z: 0, w: 0}
        outSlope: {x: 0, y: 0, z: 0, w: 0}
        tangentMode: 1
      - serializedVersion: 2
        time: 0.1
        value: {x: -0.17101009, y: -0.17101009, z: -0.030153701, w: 0.96984625}
        inSlope: {x: 0, y: 0, z: 0, w: 0}
        outSlope: {x: 0, y: 0, z: 0, w: 0}
        tangentMode: 1
      - serializedVersion: 2
        time: 0.11666667
        value: {x: -0.17101009, y: -0.17101009, z: -0.030153701, w: 0.96984625}
        inSlope: {x: 0, y: 0, z: 0, w: 0}
        outSlope: {x: 0, y: 0, z: 0, w: 0}
        tangentMode: 1
      - serializedVersion: 2
        time: 0.13333334
        value: {x: -0.17101009, y: -0.17101009, z: -0.030153701, w: 0.96984625}
        inSlope: {x: 0, y: 0, z: 0, w: 0}
        outSlope: {x: 0, y: 0, z: 0, w: 0}
        tangentMode: 1
      - serializedVersion: 2
        time: 0.15
        value: {x: -0.17101009, y: -0.17101009, z: -0.030153701, w: 0.96984625}
        inSlope: {x: 0, y: 0, z: 0, w: 0}
        outSlope: {x: 0, y: 0, z: 0, w: 0}
        tangentMode: 1
      - serializedVersion: 2
        time: 0.16666667
        value: {x: -0.17101009, y: -0.17101009, z: -0.030153701, w: 0.96984625}
        inSlope: {x: 0, y: 0, z: 0, w: 0}
        outSlope: {x: 0, y: 0, z: 0, w: 0}
        tangentMode: 1
      - serializedVersion: 2
        time: 0.18333334
        value: {x: -0.17101009, y: -0.17101009, z: -0.030153701, w: 0.96984625}
        inSlope: {x: 0, y: 0, z: 0, w: 0}
        outSlope: {x: 0, y: 0, z: 0, w: 0}
        tangentMode: 1
      - serializedVersion: 2
        time: 0.2
        value: {x: -0.17101009, y: -0.17101009, z: -0.030153701, w: 0.96984625}
        inSlope: {x: 0, y: 0, z: 0, w: 0}
        outSlope: {x: 0, y: 0, z: 0, w: 0}
        tangentMode: 1
      - serializedVersion: 2
        time: 0.21666667
        value: {x: -0.17101009, y: -0.17101009, z: -0.030153701, w: 0.96984625}
        inSlope: {x: 0, y: 0, z: 0, w: 0}
        outSlope: {x: 0, y: 0, z: 0, w: 0}
        tangentMode: 1
      - serializedVersion: 2
        time: 0.23333333
        value: {x: -0.17101009, y: -0.17101009, z: -0.030153701, w: 0.96984625}
        inSlope: {x: 0, y: 0, z: 0, w: 0}
        outSlope: {x: 0, y: 0, z: 0, w: 0}
        tangentMode: 1
      - serializedVersion: 2
        time: 0.25
        value: {x: -0.17101009, y: -0.17101009, z: -0.030153701, w: 0.96984625}
        inSlope: {x: 0, y: 0, z: 0, w: 0}
        outSlope: {x: 0, y: 0, z: 0, w: 0}
        tangentMode: 1
      - serializedVersion: 2
        time: 0.26666668
        value: {x: -0.17101009, y: -0.17101009, z: -0.030153701, w: 0.96984625}
        inSlope: {x: 0, y: 0, z: 0, w: 0}
        outSlope: {x: 0, y: 0, z: 0, w: 0}
        tangentMode: 1
      - serializedVersion: 2
        time: 0.28333336
        value: {x: -0.17101009, y: -0.17101009, z: -0.030153701, w: 0.96984625}
        inSlope: {x: 0, y: 0, z: 0, w: 0}
        outSlope: {x: 0, y: 0, z: 0, w: 0}
        tangentMode: 1
      - serializedVersion: 2
        time: 0.30000004
        value: {x: -0.17101009, y: -0.17101009, z: -0.030153701, w: 0.96984625}
        inSlope: {x: 0, y: 0, z: 0, w: 0}
        outSlope: {x: 0, y: 0, z: 0, w: 0}
        tangentMode: 1
      - serializedVersion: 2
        time: 0.31666672
        value: {x: -0.17101009, y: -0.17101009, z: -0.030153701, w: 0.96984625}
        inSlope: {x: 0, y: 0, z: 0, w: 0}
        outSlope: {x: 0, y: 0, z: 0, w: 0}
        tangentMode: 1
      - serializedVersion: 2
        time: 0.3333334
        value: {x: -0.17101009, y: -0.17101009, z: -0.030153701, w: 0.96984625}
        inSlope: {x: 0, y: 0, z: 0, w: 0}
        outSlope: {x: 0, y: 0, z: 0, w: 0}
        tangentMode: 1
      - serializedVersion: 2
        time: 0.35000008
        value: {x: -0.17101009, y: -0.17101009, z: -0.030153701, w: 0.96984625}
        inSlope: {x: 0, y: 0, z: 0, w: 0}
        outSlope: {x: 0, y: 0, z: 0, w: 0}
        tangentMode: 1
      - serializedVersion: 2
        time: 0.36666676
        value: {x: -0.17101009, y: -0.17101009, z: -0.030153701, w: 0.96984625}
        inSlope: {x: 0, y: 0, z: 0, w: 0}
        outSlope: {x: 0, y: 0, z: 0, w: 0}
        tangentMode: 1
      - serializedVersion: 2
        time: 0.38333344
        value: {x: -0.17101009, y: -0.17101009, z: -0.030153701, w: 0.96984625}
        inSlope: {x: 0, y: 0, z: 0, w: 0}
        outSlope: {x: 0, y: 0, z: 0, w: 0}
        tangentMode: 1
      - serializedVersion: 2
        time: 0.40000013
        value: {x: -0.17101009, y: -0.17101009, z: -0.030153701, w: 0.96984625}
        inSlope: {x: 0, y: 0, z: 0, w: 0}
        outSlope: {x: 0, y: 0, z: 0, w: 0}
        tangentMode: 1
      - serializedVersion: 2
        time: 0.4166668
        value: {x: -0.17101009, y: -0.17101009, z: -0.030153701, w: 0.96984625}
        inSlope: {x: 0, y: 0, z: 0, w: 0}
        outSlope: {x: 0, y: 0, z: 0, w: 0}
        tangentMode: 1
      - serializedVersion: 2
        time: 0.4333335
        value: {x: -0.17101009, y: -0.17101009, z: -0.030153701, w: 0.96984625}
        inSlope: {x: 0, y: 0, z: 0, w: 0}
        outSlope: {x: 0, y: 0, z: 0, w: 0}
        tangentMode: 1
      - serializedVersion: 2
        time: 0.45000017
        value: {x: -0.17101009, y: -0.17101009, z: -0.030153701, w: 0.96984625}
        inSlope: {x: 0, y: 0, z: 0, w: 0}
        outSlope: {x: 0, y: 0, z: 0, w: 0}
        tangentMode: 1
      - serializedVersion: 2
        time: 0.46666685
        value: {x: -0.17101009, y: -0.17101009, z: -0.030153701, w: 0.96984625}
        inSlope: {x: 0, y: 0, z: 0, w: 0}
        outSlope: {x: 0, y: 0, z: 0, w: 0}
        tangentMode: 1
      - serializedVersion: 2
        time: 0.48333353
        value: {x: -0.17101009, y: -0.17101009, z: -0.030153701, w: 0.96984625}
        inSlope: {x: 0, y: 0, z: 0, w: 0}
        outSlope: {x: 0, y: 0, z: 0, w: 0}
        tangentMode: 1
      - serializedVersion: 2
        time: 0.5000002
        value: {x: -0.17101009, y: -0.17101009, z: -0.030153701, w: 0.96984625}
        inSlope: {x: 0, y: 0, z: 0, w: 0}
        outSlope: {x: 0, y: 0, z: 0, w: 0}
        tangentMode: 1
      - serializedVersion: 2
        time: 0.5166668
        value: {x: -0.17101009, y: -0.17101009, z: -0.030153701, w: 0.96984625}
        inSlope: {x: 0, y: 0, z: 0, w: 0}
        outSlope: {x: 0, y: 0, z: 0, w: 0}
        tangentMode: 1
      - serializedVersion: 2
        time: 0.5333335
        value: {x: -0.17101009, y: -0.17101009, z: -0.030153701, w: 0.96984625}
        inSlope: {x: 0, y: 0, z: 0, w: 0}
        outSlope: {x: 0, y: 0, z: 0, w: 0}
        tangentMode: 1
      - serializedVersion: 2
        time: 0.55000013
        value: {x: -0.17101009, y: -0.17101009, z: -0.030153701, w: 0.96984625}
        inSlope: {x: 0, y: 0, z: 0, w: 0}
        outSlope: {x: 0, y: 0, z: 0, w: 0}
        tangentMode: 1
      - serializedVersion: 2
        time: 0.5666668
        value: {x: -0.17101009, y: -0.17101009, z: -0.030153701, w: 0.96984625}
        inSlope: {x: 0.00012919318, y: -0.0041618985, z: -0.0007338084, w: -0.00073313783}
        outSlope: {x: 0.00012919318, y: -0.0041618985, z: -0.0007338084, w: -0.00073313783}
        tangentMode: 1
      - serializedVersion: 2
        time: 0.58333343
        value: {x: -0.17100579, y: -0.17114882, z: -0.030178161, w: 0.9698218}
        inSlope: {x: 0.00048100995, y: -0.0154580325, z: -0.0027256298, w: -0.0027287032}
        outSlope: {x: 0.00048100995, y: -0.0154580325, z: -0.0027256298, w: -0.0027287032}
        tangentMode: 1
      - serializedVersion: 2
        time: 0.6000001
        value: {x: -0.17099406, y: -0.17152536, z: -0.030244555, w: 0.9697553}
        inSlope: {x: 0.00087216584, y: -0.027941493, z: -0.0049267756, w: -0.004945998}
        outSlope: {x: 0.00087216584, y: -0.027941493, z: -0.0049267756, w: -0.004945998}
        tangentMode: 1
      - serializedVersion: 2
        time: 0.61666673
        value: {x: -0.17097671, y: -0.1720802, z: -0.030342387, w: 0.96965694}
        inSlope: {x: 0.0011537981, y: -0.03685493, z: -0.006498496, w: -0.0065428084}
        outSlope: {x: 0.0011537981, y: -0.03685493, z: -0.006498496, w: -0.0065428084}
        tangentMode: 1
      - serializedVersion: 2
        time: 0.6333334
        value: {x: -0.1709556, y: -0.17275386, z: -0.030461172, w: 0.9695372}
        inSlope: {x: 0.0013259065, y: -0.042200573, z: -0.007441181, w: -0.007519133}
        outSlope: {x: 0.0013259065, y: -0.042200573, z: -0.0074411817, w: -0.0075191334}
        tangentMode: 1
      - serializedVersion: 2
        time: 0.65000004
        value: {x: -0.17093252, y: -0.17348689, z: -0.030590426, w: 0.9694063}
        inSlope: {x: 0.0013875974, y: -0.04397888, z: -0.007754609, w: -0.007871397}
        outSlope: {x: 0.0013875974, y: -0.04397888, z: -0.007754609, w: -0.007871397}
        tangentMode: 1
      - serializedVersion: 2
        time: 0.6666667
        value: {x: -0.17090935, y: -0.17421982, z: -0.030719658, w: 0.9692748}
        inSlope: {x: 0.0013366354, y: -0.042189397, z: -0.0074391137, w: -0.0075817183}
        outSlope: {x: 0.0013366354, y: -0.042189397, z: -0.007439114, w: -0.0075817183}
        tangentMode: 1
      - serializedVersion: 2
        time: 0.68333334
        value: {x: -0.17088796, y: -0.1748932, z: -0.030838396, w: 0.9691536}
        inSlope: {x: 0.0011716795, y: -0.03683705, z: -0.0064954786, w: -0.0066447323}
        outSlope: {x: 0.0011716795, y: -0.03683705, z: -0.0064954786, w: -0.0066447323}
        tangentMode: 1
      - serializedVersion: 2
        time: 0.7
        value: {x: -0.17087029, y: -0.17544772, z: -0.030936174, w: 0.9690533}
        inSlope: {x: 0.0008909413, y: -0.027922718, z: -0.0049234787, w: -0.0050532864}
        outSlope: {x: 0.0008909413, y: -0.027922718, z: -0.0049234787, w: -0.0050532864}
        tangentMode: 1
      - serializedVersion: 2
        time: 0.71666664
        value: {x: -0.17085826, y: -0.17582396, z: -0.031002512, w: 0.96898514}
        inSlope: {x: 0.00049397396, y: -0.0154450685, z: -0.0027233388, w: -0.0028002288}
        outSlope: {x: 0.00049397396, y: -0.0154450685, z: -0.0027233388, w: -0.0028002288}
        tangentMode: 1
      - serializedVersion: 2
        time: 0.7333333
        value: {x: -0.17085382, y: -0.17596255, z: -0.031026952, w: 0.96896}
        inSlope: {x: -0.00014260424, y: 0.0044591767, z: 0.0007862791, w: 0.0008082398}
        outSlope: {x: -0.00014260424, y: 0.0044591767, z: 0.0007862791, w: 0.0008082398}
        tangentMode: 1
      - serializedVersion: 2
        time: 0.74999994
        value: {x: -0.17086302, y: -0.17567532, z: -0.030976303, w: 0.9690121}
        inSlope: {x: -0.0010290751, y: 0.03224778, z: 0.005686177, w: 0.0058364924}
        outSlope: {x: -0.0010290751, y: 0.03224778, z: 0.005686177, w: 0.0058364924}
        tangentMode: 1
      - serializedVersion: 2
        time: 0.7666666
        value: {x: -0.17088813, y: -0.17488763, z: -0.030837413, w: 0.96915454}
        inSlope: {x: -0.0018730777, y: 0.05894473, z: 0.010393514, w: 0.010625134}
        outSlope: {x: -0.0018730777, y: 0.05894473, z: 0.010393514, w: 0.010625134}
        tangentMode: 1
      - serializedVersion: 2
        time: 0.78333324
        value: {x: -0.17092545, y: -0.1737105, z: -0.030629853, w: 0.96936625}
        inSlope: {x: -0.0024940097, y: 0.078979954, z: 0.013926322, w: 0.014142407}
        outSlope: {x: -0.0024940097, y: 0.078979954, z: 0.013926322, w: 0.014142407}
        tangentMode: 1
      - serializedVersion: 2
        time: 0.7999999
        value: {x: -0.17097126, y: -0.17225496, z: -0.030373203, w: 0.96962595}
        inSlope: {x: -0.0028918711, y: 0.09235212, z: 0.016284153, w: 0.01639904}
        outSlope: {x: -0.0028918711, y: 0.09235212, z: 0.016284153, w: 0.01639904}
        tangentMode: 1
      - serializedVersion: 2
        time: 0.81666654
        value: {x: -0.17102185, y: -0.1706321, z: -0.030087048, w: 0.9699129}
        inSlope: {x: -0.0030720262, y: 0.0990572, z: 0.01746645, w: 0.017423647}
        outSlope: {x: -0.0030720262, y: 0.0990572, z: 0.01746645, w: 0.017423647}
        tangentMode: 1
      - serializedVersion: 2
        time: 0.8333332
        value: {x: -0.17107366, y: -0.16895306, z: -0.029790988, w: 0.97020674}
        inSlope: {x: -0.003042969, y: 0.099086255, z: 0.017471591, w: 0.01725735}
        outSlope: {x: -0.003042969, y: 0.099086255, z: 0.017471591, w: 0.01725735}
        tangentMode: 1
      - serializedVersion: 2
        time: 0.84999985
        value: {x: -0.17112328, y: -0.16732922, z: -0.029504662, w: 0.97048813}
        inSlope: {x: -0.0028114049, y: 0.09243125, z: 0.016298123, w: 0.015944853}
        outSlope: {x: -0.0028114049, y: 0.09243125, z: 0.016298123, w: 0.015944853}
        tangentMode: 1
      - serializedVersion: 2
        time: 0.8666665
        value: {x: -0.17116737, y: -0.16587202, z: -0.029247718, w: 0.97073823}
        inSlope: {x: -0.0023844861, y: 0.07908769, z: 0.013945265, w: 0.013523711}
        outSlope: {x: -0.0023844861, y: 0.07908769, z: 0.013945265, w: 0.013523711}
        tangentMode: 1
      - serializedVersion: 2
        time: 0.88333315
        value: {x: -0.17120276, y: -0.16469297, z: -0.02903982, w: 0.9709389}
        inSlope: {x: -0.0017684716, y: 0.05904978, z: 0.01041201, w: 0.010029683}
        outSlope: {x: -0.0017684716, y: 0.05904978, z: 0.01041201, w: 0.010029683}
        tangentMode: 1
      - serializedVersion: 2
        time: 0.8999998
        value: {x: -0.17122632, y: -0.1639037, z: -0.028900651, w: 0.97107255}
        inSlope: {x: -0.00096380804, y: 0.032314837, z: 0.0056979675, w: 0.005464559}
        outSlope: {x: -0.00096380804, y: 0.032314837, z: 0.0056979675, w: 0.005464559}
        tangentMode: 1
      - serializedVersion: 2
        time: 0.91666645
        value: {x: -0.17123489, y: -0.16361581, z: -0.028849889, w: 0.9711211}
        inSlope: {x: 0.00015288606, y: -0.0051400117, z: -0.0009063081, w: -0.00086903665}
        outSlope: {x: 0.00015288606, y: -0.005140011, z: -0.0009063082, w: -0.00086903665}
        tangentMode: 1
      - serializedVersion: 2
        time: 0.9333331
        value: {x: -0.17122123, y: -0.16407503, z: -0.028930862, w: 0.9710436}
        inSlope: {x: 0.0015284135, y: -0.05116587, z: -0.009021843, w: -0.00866712}
        outSlope: {x: 0.0015284135, y: -0.05116587, z: -0.009021843, w: -0.00866712}
        tangentMode: 1
      - serializedVersion: 2
        time: 0.94999975
        value: {x: -0.17118394, y: -0.16532134, z: -0.029150616, w: 0.97083217}
        inSlope: {x: 0.0027819006, y: -0.092473716, z: -0.016305555, w: -0.015776768}
        outSlope: {x: 0.0027819006, y: -0.092473716, z: -0.016305555, w: -0.015776768}
        tangentMode: 1
      - serializedVersion: 2
        time: 0.9666664
        value: {x: -0.1711285, y: -0.16715749, z: -0.02947438, w: 0.9705177}
        inSlope: {x: 0.0037081575, y: -0.12194854, z: -0.021502899, w: -0.02102854}
        outSlope: {x: 0.0037081575, y: -0.12194854, z: -0.021502899, w: -0.02102854}
        tangentMode: 1
      - serializedVersion: 2
        time: 0.98333305
        value: {x: -0.17106034, y: -0.16938628, z: -0.029867379, w: 0.9701312}
        inSlope: {x: 0.004300479, y: -0.13959794, z: -0.024614878, w: -0.024388455}
        outSlope: {x: 0.004300479, y: -0.13959794, z: -0.024614878, w: -0.024388455}
        tangentMode: 1
      - serializedVersion: 2
        time: 0.9999997
        value: {x: -0.17098515, y: -0.17181075, z: -0.030294875, w: 0.96970475}
        inSlope: {x: 0.0045436583, y: -0.14543596, z: -0.025644243, w: -0.025768854}
        outSlope: {x: 0.0045436583, y: -0.14543596, z: -0.025644243, w: -0.025768854}
        tangentMode: 1
      - serializedVersion: 2
        time: 1.0166664
        value: {x: -0.17090888, y: -0.17423415, z: -0.030722188, w: 0.96927226}
        inSlope: {x: 0.0044184886, y: -0.13947967, z: -0.024594102, w: -0.025057174}
        outSlope: {x: 0.0044184886, y: -0.13947967, z: -0.024594102, w: -0.025057174}
        tangentMode: 1
      - serializedVersion: 2
        time: 1.0333331
        value: {x: -0.17083786, y: -0.17646007, z: -0.031114679, w: 0.9688695}
        inSlope: {x: 0.0039053, y: -0.12175095, z: -0.02146803, w: -0.022147914}
        outSlope: {x: 0.0039053, y: -0.12175095, z: -0.02146803, w: -0.022147914}
        tangentMode: 1
      - serializedVersion: 2
        time: 1.0499997
        value: {x: -0.1707787, y: -0.17829251, z: -0.03143779, w: 0.968534}
        inSlope: {x: 0.0029897718, y: -0.092265844, z: -0.016268954, w: -0.01695694}
        outSlope: {x: 0.0029897718, y: -0.092265844, z: -0.016268954, w: -0.01695694}
        tangentMode: 1
      - serializedVersion: 2
        time: 1.0666664
        value: {x: -0.1707382, y: -0.1795356, z: -0.031656977, w: 0.9683043}
        inSlope: {x: 0.0016647594, y: -0.05103042, z: -0.008998037, w: -0.009441385}
        outSlope: {x: 0.0016647594, y: -0.05103042, z: -0.008998037, w: -0.009441385}
        tangentMode: 1
      - serializedVersion: 2
        time: 1.083333
        value: {x: -0.17072321, y: -0.17999353, z: -0.031737722, w: 0.9682193}
        inSlope: {x: -3.486875E-05, y: 0.0010626029, z: 0.00018741953, w: 0.00019848366}
        outSlope: {x: -3.4868746E-05, y: 0.0010626027, z: 0.00018741959, w: 0.0001984837}
        tangentMode: 1
      - serializedVersion: 2
        time: 1.0999997
        value: {x: -0.17073937, y: -0.17950018, z: -0.03165073, w: 0.9683109}
        inSlope: {x: -0.0018060225, y: 0.055389456, z: 0.009766715, w: 0.0102424715}
        outSlope: {x: -0.0018060225, y: 0.055389456, z: 0.009766715, w: 0.0102424715}
        tangentMode: 1
      - serializedVersion: 2
        time: 1.1166663
        value: {x: -0.17078342, y: -0.17814721, z: -0.031412166, w: 0.9685607}
        inSlope: {x: -0.0032772156, y: 0.101255275, z: 0.017853973, w: 0.018585937}
        outSlope: {x: -0.0032772156, y: 0.101255275, z: 0.017853973, w: 0.018585937}
        tangentMode: 1
      - serializedVersion: 2
        time: 1.133333
        value: {x: -0.17084861, y: -0.176125, z: -0.031055598, w: 0.9689304}
        inSlope: {x: -0.0043429476, y: 0.13569354, z: 0.023926388, w: 0.024629854}
        outSlope: {x: -0.0043429476, y: 0.13569354, z: 0.023926388, w: 0.024629854}
        tangentMode: 1
      - serializedVersion: 2
        time: 1.1499996
        value: {x: -0.17092818, y: -0.1736241, z: -0.03061462, w: 0.9693817}
        inSlope: {x: -0.005008136, y: 0.15869796, z: 0.027982786, w: 0.028401043}
        outSlope: {x: -0.005008136, y: 0.15869796, z: 0.027982786, w: 0.028401043}
        tangentMode: 1
      - serializedVersion: 2
        time: 1.1666663
        value: {x: -0.17101555, y: -0.17083508, z: -0.030122839, w: 0.9698771}
        inSlope: {x: -0.005286639, y: 0.17025472, z: 0.030020596, w: 0.02998176}
        outSlope: {x: -0.005286639, y: 0.17025472, z: 0.030020598, w: 0.02998176}
        tangentMode: 1
      - serializedVersion: 2
        time: 1.1833329
        value: {x: -0.1711044, y: -0.16794895, z: -0.029613934, w: 0.9703811}
        inSlope: {x: -0.005199467, y: 0.17034055, z: 0.030035628, w: 0.029490022}
        outSlope: {x: -0.005199467, y: 0.17034055, z: 0.03003563, w: 0.029490022}
        tangentMode: 1
      - serializedVersion: 2
        time: 1.1999996
        value: {x: -0.17118886, y: -0.16515706, z: -0.029121652, w: 0.9708601}
        inSlope: {x: -0.0047716545, y: 0.15893266, z: 0.028024025, w: 0.027059939}
        outSlope: {x: -0.0047716545, y: 0.15893266, z: 0.028024025, w: 0.027059939}
        tangentMode: 1
      - serializedVersion: 2
        time: 1.2166662
        value: {x: -0.17126346, y: -0.1626512, z: -0.028679801, w: 0.9712831}
        inSlope: {x: -0.004022423, y: 0.13601227, z: 0.023982603, w: 0.022811316}
        outSlope: {x: -0.004022423, y: 0.13601227, z: 0.023982603, w: 0.022811316}
        tangentMode: 1
      - serializedVersion: 2
        time: 1.2333329
        value: {x: -0.17132294, y: -0.16062333, z: -0.028322233, w: 0.9716205}
        inSlope: {x: -0.002966526, y: 0.10156418, z: 0.017908568, w: 0.016826406}
        outSlope: {x: -0.002966526, y: 0.10156418, z: 0.017908568, w: 0.016826406}
        tangentMode: 1
      - serializedVersion: 2
        time: 1.2499995
        value: {x: -0.17136234, y: -0.15926573, z: -0.02808285, w: 0.97184396}
        inSlope: {x: -0.0016106681, y: 0.055585705, z: 0.009801304, w: 0.009133825}
        outSlope: {x: -0.0016106681, y: 0.055585705, z: 0.009801304, w: 0.009133825}
        tangentMode: 1
      - serializedVersion: 2
        time: 1.2666662
        value: {x: -0.17137663, y: -0.15877047, z: -0.027995523, w: 0.97192496}
        inSlope: {x: 1.0728846E-05, y: -0.00037103926, z: -6.543479E-05, w: -6.0796796E-05}
        outSlope: {x: 1.0728836E-05, y: -0.00037103985, z: -6.5434724E-05, w: -6.0796738E-05}
        tangentMode: 1
      - serializedVersion: 2
        time: 1.2833328
        value: {x: -0.17136198, y: -0.1592781, z: -0.02808503, w: 0.97184193}
        inSlope: {x: 0.0016513483, y: -0.05698135, z: -0.010047397, w: -0.009364495}
        outSlope: {x: 0.0016513483, y: -0.05698135, z: -0.010047397, w: -0.009364495}
        tangentMode: 1
      - serializedVersion: 2
        time: 1.2999995
        value: {x: -0.17132159, y: -0.16066985, z: -0.028330436, w: 0.9716128}
        inSlope: {x: 0.0030420749, y: -0.10411675, z: -0.01835862, w: -0.017253773}
        outSlope: {x: 0.0030420749, y: -0.10411675, z: -0.01835862, w: -0.017253773}
        tangentMode: 1
      - serializedVersion: 2
        time: 1.3166661
        value: {x: -0.17126058, y: -0.16274865, z: -0.028696984, w: 0.9712668}
        inSlope: {x: 0.0041261353, y: -0.1394294, z: -0.024585094, w: -0.023399614}
        outSlope: {x: 0.0041261353, y: -0.1394294, z: -0.024585094, w: -0.023399614}
        tangentMode: 1
      - serializedVersion: 2
        time: 1.3333328
        value: {x: -0.17118405, y: -0.16531749, z: -0.029149938, w: 0.9708328}
        inSlope: {x: 0.004896377, y: -0.16292647, z: -0.02872833, w: -0.02776983}
        outSlope: {x: 0.004896377, y: -0.16292647, z: -0.02872833, w: -0.02776983}
        tangentMode: 1
      - serializedVersion: 2
        time: 1.3499994
        value: {x: -0.17109737, y: -0.16817953, z: -0.029654594, w: 0.97034115}
        inSlope: {x: 0.005337601, y: -0.17461912, z: -0.030790113, w: -0.030273227}
        outSlope: {x: 0.005337601, y: -0.17461912, z: -0.030790113, w: -0.030273229}
        tangentMode: 1
      - serializedVersion: 2
        time: 1.3666661
        value: {x: -0.17100613, y: -0.17113812, z: -0.030176274, w: 0.9698237}
        inSlope: {x: 0.005429243, y: -0.17452838, z: -0.030774076, w: -0.030788213}
        outSlope: {x: 0.005429243, y: -0.17452838, z: -0.030774076, w: -0.030788213}
        tangentMode: 1
      - serializedVersion: 2
        time: 1.3833327
        value: {x: -0.1709164, y: -0.17399713, z: -0.030680396, w: 0.9693149}
        inSlope: {x: 0.0051449286, y: -0.1626806, z: -0.028684966, w: -0.029177098}
        outSlope: {x: 0.0051449286, y: -0.1626806, z: -0.028684966, w: -0.029177098}
        tangentMode: 1
      - serializedVersion: 2
        time: 1.3999994
        value: {x: -0.17083463, y: -0.1765608, z: -0.03113244, w: 0.96885115}
        inSlope: {x: 0.0044632, y: -0.1390977, z: -0.0245267, w: -0.025312925}
        outSlope: {x: 0.0044632, y: -0.1390977, z: -0.0245267, w: -0.025312925}
        tangentMode: 1
      - serializedVersion: 2
        time: 1.416666
        value: {x: -0.17076762, y: -0.17863372, z: -0.03149795, w: 0.9684711}
        inSlope: {x: 0.0033688578, y: -0.10379578, z: -0.018302014, w: -0.019106288}
        outSlope: {x: 0.0033688578, y: -0.10379578, z: -0.018302014, w: -0.019106288}
        tangentMode: 1
      - serializedVersion: 2
        time: 1.4333327
        value: {x: -0.17072234, y: -0.18002066, z: -0.031742506, w: 0.9682143}
        inSlope: {x: 0.0018565374, y: -0.05678108, z: -0.010012025, w: -0.010530363}
        outSlope: {x: 0.0018565374, y: -0.05678108, z: -0.010012025, w: -0.010530363}
        tangentMode: 1
      - serializedVersion: 2
        time: 1.4499993
        value: {x: -0.17070574, y: -0.18052642, z: -0.031831685, w: 0.9681201}
        inSlope: {x: 0.00031426578, y: -0.00956119, z: -0.0016858818, w: -0.0017809885}
        outSlope: {x: 0.00031426578, y: -0.00956119, z: -0.0016858818, w: -0.0017809885}
        tangentMode: 1
      - serializedVersion: 2
        time: 1.466666
        value: {x: -0.17071186, y: -0.18033937, z: -0.0317987, w: 0.9681549}
        inSlope: {x: -0.00069290464, y: 0.021129122, z: 0.0037257036, w: 0.003930334}
        outSlope: {x: -0.00069290464, y: 0.021129122, z: 0.0037257036, w: 0.003930334}
        tangentMode: 1
      - serializedVersion: 2
        time: 1.4833326
        value: {x: -0.17072883, y: -0.17982212, z: -0.031707495, w: 0.9682511}
        inSlope: {x: -0.0012749445, y: 0.03896091, z: 0.006869926, w: 0.0072312425}
        outSlope: {x: -0.0012749445, y: 0.03896091, z: 0.006869926, w: 0.0072312425}
        tangentMode: 1
      - serializedVersion: 2
        time: 1.4999993
        value: {x: -0.17075436, y: -0.17904067, z: -0.031569704, w: 0.96839595}
        inSlope: {x: -0.0017215328, y: 0.05283644, z: 0.009316439, w: 0.009765038}
        outSlope: {x: -0.0017215328, y: 0.05283644, z: 0.009316439, w: 0.009765038}
        tangentMode: 1
      - serializedVersion: 2
        time: 1.5166659
        value: {x: -0.17078622, y: -0.1780609, z: -0.031396948, w: 0.9685766}
        inSlope: {x: -0.0020335633, y: 0.06275526, z: 0.011065353, w: 0.011531722}
        outSlope: {x: -0.0020335633, y: 0.06275526, z: 0.011065353, w: 0.011531722}
        tangentMode: 1
      - serializedVersion: 2
        time: 1.5333326
        value: {x: -0.17082214, y: -0.17694883, z: -0.03120086, w: 0.96878034}
        inSlope: {x: -0.0022123775, y: 0.068714686, z: 0.01211622, w: 0.012547386}
        outSlope: {x: -0.0022123775, y: 0.068714686, z: 0.01211622, w: 0.012547386}
        tangentMode: 1
      - serializedVersion: 2
        time: 1.5499992
        value: {x: -0.17085996, y: -0.17577042, z: -0.030993074, w: 0.96899486}
        inSlope: {x: -0.0022619984, y: 0.07071204, z: 0.012468428, w: 0.012826336}
        outSlope: {x: -0.0022619984, y: 0.07071204, z: 0.012468428, w: 0.012826336}
        tangentMode: 1
      - serializedVersion: 2
        time: 1.5666659
        value: {x: -0.17089754, y: -0.17459176, z: -0.030785246, w: 0.9692079}
        inSlope: {x: -0.0021842143, y: 0.06874419, z: 0.0121214725, w: 0.012386452}
        outSlope: {x: -0.0021842143, y: 0.06874419, z: 0.0121214725, w: 0.012386452}
        tangentMode: 1
      - serializedVersion: 2
        time: 1.5833325
        value: {x: -0.17093277, y: -0.17347895, z: -0.030589025, w: 0.96940774}
        inSlope: {x: -0.0019826014, y: 0.062808454, z: 0.011074852, w: 0.011243831}
        outSlope: {x: -0.0019826014, y: 0.062808454, z: 0.011074852, w: 0.011243831}
        tangentMode: 1
      - serializedVersion: 2
        time: 1.5999992
        value: {x: -0.17096363, y: -0.17249815, z: -0.030416084, w: 0.9695827}
        inSlope: {x: -0.001660289, y: 0.05289992, z: 0.009327726, w: 0.009416351}
        outSlope: {x: -0.001660289, y: 0.05289992, z: 0.009327726, w: 0.009416351}
        tangentMode: 1
      - serializedVersion: 2
        time: 1.6166658
        value: {x: -0.17098811, y: -0.17171562, z: -0.030278102, w: 0.9697216}
        inSlope: {x: -0.0012190652, y: 0.03901992, z: 0.006880264, w: 0.0069165295}
        outSlope: {x: -0.0012190652, y: 0.03901992, z: 0.006880264, w: 0.0069165295}
        tangentMode: 1
      - serializedVersion: 2
        time: 1.6333325
        value: {x: -0.17100427, y: -0.17119749, z: -0.030186743, w: 0.9698132}
        inSlope: {x: -0.000659377, y: 0.021165779, z: 0.003732018, w: 0.0037390029}
        outSlope: {x: -0.000659377, y: 0.021165779, z: 0.003732018, w: 0.0037390029}
        tangentMode: 1
      - serializedVersion: 2
        time: 1.6499991
        value: {x: -0.17101009, y: -0.17101009, z: -0.030153701, w: 0.96984625}
        inSlope: {x: -0.00017479078, y: 0.0056219157, z: 0.0009912446, w: 0.0009906301}
        outSlope: {x: -0.00017479078, y: 0.0056219157, z: 0.0009912448, w: 0.0009906301}
        tangentMode: 1
      - serializedVersion: 2
        time: 1.6666658
        value: {x: -0.17101009, y: -0.17101009, z: -0.030153701, w: 0.96984625}
        inSlope: {x: 0, y: 0, z: 0, w: 0}
        outSlope: {x: 0, y: 0, z: 0, w: 0}
        tangentMode: 1
      - serializedVersion: 2
        time: 1.6833324
        value: {x: -0.17101009, y: -0.17101009, z: -0.030153701, w: 0.96984625}
        inSlope: {x: 0, y: 0, z: 0, w: 0}
        outSlope: {x: 0, y: 0, z: 0, w: 0}
        tangentMode: 1
      - serializedVersion: 2
        time: 1.6999991
        value: {x: -0.17101009, y: -0.17101009, z: -0.030153701, w: 0.96984625}
        inSlope: {x: 0, y: 0, z: 0, w: 0}
        outSlope: {x: 0, y: 0, z: 0, w: 0}
        tangentMode: 1
      - serializedVersion: 2
        time: 1.7166657
        value: {x: -0.17101009, y: -0.17101009, z: -0.030153701, w: 0.96984625}
        inSlope: {x: 0, y: 0, z: 0, w: 0}
        outSlope: {x: 0, y: 0, z: 0, w: 0}
        tangentMode: 1
      - serializedVersion: 2
        time: 1.7333324
        value: {x: -0.17101009, y: -0.17101009, z: -0.030153701, w: 0.96984625}
        inSlope: {x: 0, y: 0, z: 0, w: 0}
        outSlope: {x: 0, y: 0, z: 0, w: 0}
        tangentMode: 1
      - serializedVersion: 2
        time: 1.749999
        value: {x: -0.17101009, y: -0.17101009, z: -0.030153701, w: 0.96984625}
        inSlope: {x: 0, y: 0, z: 0, w: 0}
        outSlope: {x: 0, y: 0, z: 0, w: 0}
        tangentMode: 1
      - serializedVersion: 2
        time: 1.7666657
        value: {x: -0.17101009, y: -0.17101009, z: -0.030153701, w: 0.96984625}
        inSlope: {x: 0, y: 0, z: 0, w: 0}
        outSlope: {x: 0, y: 0, z: 0, w: 0}
        tangentMode: 1
      - serializedVersion: 2
        time: 1.7833323
        value: {x: -0.17101009, y: -0.17101009, z: -0.030153701, w: 0.96984625}
        inSlope: {x: 0, y: 0, z: 0, w: 0}
        outSlope: {x: 0, y: 0, z: 0, w: 0}
        tangentMode: 1
      - serializedVersion: 2
        time: 1.799999
        value: {x: -0.17101009, y: -0.17101009, z: -0.030153701, w: 0.96984625}
        inSlope: {x: 0, y: 0, z: 0, w: 0}
        outSlope: {x: 0, y: 0, z: 0, w: 0}
        tangentMode: 1
      - serializedVersion: 2
        time: 1.8166656
        value: {x: -0.17101009, y: -0.17101009, z: -0.030153701, w: 0.96984625}
        inSlope: {x: 0, y: 0, z: 0, w: 0}
        outSlope: {x: 0, y: 0, z: 0, w: 0}
        tangentMode: 1
      - serializedVersion: 2
        time: 1.8333323
        value: {x: -0.17101009, y: -0.17101009, z: -0.030153701, w: 0.96984625}
        inSlope: {x: 0, y: 0, z: 0, w: 0}
        outSlope: {x: 0, y: 0, z: 0, w: 0}
        tangentMode: 1
      - serializedVersion: 2
        time: 1.849999
        value: {x: -0.17101009, y: -0.17101009, z: -0.030153701, w: 0.96984625}
        inSlope: {x: 0, y: 0, z: 0, w: 0}
        outSlope: {x: 0, y: 0, z: 0, w: 0}
        tangentMode: 1
      - serializedVersion: 2
        time: 1.8666656
        value: {x: -0.17101009, y: -0.17101009, z: -0.030153701, w: 0.96984625}
        inSlope: {x: 0, y: 0, z: 0, w: 0}
        outSlope: {x: 0, y: 0, z: 0, w: 0}
        tangentMode: 1
      - serializedVersion: 2
        time: 1.8833323
        value: {x: -0.17101009, y: -0.17101009, z: -0.030153701, w: 0.96984625}
        inSlope: {x: 0, y: 0, z: 0, w: 0}
        outSlope: {x: 0, y: 0, z: 0, w: 0}
        tangentMode: 1
      - serializedVersion: 2
        time: 1.8999989
        value: {x: -0.17101009, y: -0.17101009, z: -0.030153701, w: 0.96984625}
        inSlope: {x: 0, y: 0, z: 0, w: 0}
        outSlope: {x: 0, y: 0, z: 0, w: 0}
        tangentMode: 1
      - serializedVersion: 2
        time: 1.9166656
        value: {x: -0.17101009, y: -0.17101009, z: -0.030153701, w: 0.96984625}
        inSlope: {x: 0, y: 0, z: 0, w: 0}
        outSlope: {x: 0, y: 0, z: 0, w: 0}
        tangentMode: 1
      - serializedVersion: 2
        time: 1.9333322
        value: {x: -0.17101009, y: -0.17101009, z: -0.030153701, w: 0.96984625}
        inSlope: {x: 0, y: 0, z: 0, w: 0}
        outSlope: {x: 0, y: 0, z: 0, w: 0}
        tangentMode: 1
      - serializedVersion: 2
        time: 1.9499989
        value: {x: -0.17101009, y: -0.17101009, z: -0.030153701, w: 0.96984625}
        inSlope: {x: 0, y: 0, z: 0, w: 0}
        outSlope: {x: 0, y: 0, z: 0, w: 0}
        tangentMode: 1
      - serializedVersion: 2
        time: 1.9666655
        value: {x: -0.17101009, y: -0.17101009, z: -0.030153701, w: 0.96984625}
        inSlope: {x: 0, y: 0, z: 0, w: 0}
        outSlope: {x: 0, y: 0, z: 0, w: 0}
        tangentMode: 1
      - serializedVersion: 2
        time: 1.9833322
        value: {x: -0.17101009, y: -0.17101009, z: -0.030153701, w: 0.96984625}
        inSlope: {x: 0, y: 0, z: 0, w: 0}
        outSlope: {x: 0, y: 0, z: 0, w: 0}
        tangentMode: 1
      - serializedVersion: 2
        time: 1.9999988
        value: {x: -0.17101009, y: -0.17101009, z: -0.030153701, w: 0.96984625}
        inSlope: {x: 0, y: 0, z: 0, w: 0}
        outSlope: {x: 0, y: 0, z: 0, w: 0}
        tangentMode: 1
      - serializedVersion: 2
        time: 2.0166655
        value: {x: -0.17101009, y: -0.17101009, z: -0.030153701, w: 0.96984625}
        inSlope: {x: 0, y: 0, z: 0, w: 0}
        outSlope: {x: 0, y: 0, z: 0, w: 0}
        tangentMode: 1
      - serializedVersion: 2
        time: 2.033332
        value: {x: -0.17101009, y: -0.17101009, z: -0.030153701, w: 0.96984625}
        inSlope: {x: 0, y: 0, z: 0, w: 0}
        outSlope: {x: 0, y: 0, z: 0, w: 0}
        tangentMode: 1
      - serializedVersion: 2
        time: 2.0499988
        value: {x: -0.17101009, y: -0.17101009, z: -0.030153701, w: 0.96984625}
        inSlope: {x: 0, y: 0, z: 0, w: 0}
        outSlope: {x: 0, y: 0, z: 0, w: 0}
        tangentMode: 1
      - serializedVersion: 2
        time: 2.0666654
        value: {x: -0.17101009, y: -0.17101009, z: -0.030153701, w: 0.96984625}
        inSlope: {x: 0, y: 0, z: 0, w: 0}
        outSlope: {x: 0, y: 0, z: 0, w: 0}
        tangentMode: 1
      - serializedVersion: 2
        time: 2.083332
        value: {x: -0.17101009, y: -0.17101009, z: -0.030153701, w: 0.96984625}
        inSlope: {x: 0, y: 0, z: 0, w: 0}
        outSlope: {x: 0, y: 0, z: 0, w: 0}
        tangentMode: 1
      - serializedVersion: 2
        time: 2.0999987
        value: {x: -0.17101009, y: -0.17101009, z: -0.030153701, w: 0.96984625}
        inSlope: {x: 0, y: 0, z: 0, w: 0}
        outSlope: {x: 0, y: 0, z: 0, w: 0}
        tangentMode: 1
      - serializedVersion: 2
        time: 2.1166654
        value: {x: -0.17101009, y: -0.17101009, z: -0.030153701, w: 0.96984625}
        inSlope: {x: 0, y: 0, z: 0, w: 0}
        outSlope: {x: 0, y: 0, z: 0, w: 0}
        tangentMode: 1
      - serializedVersion: 2
        time: 2.133332
        value: {x: -0.17101009, y: -0.17101009, z: -0.030153701, w: 0.96984625}
        inSlope: {x: 0, y: 0, z: 0, w: 0}
        outSlope: {x: 0, y: 0, z: 0, w: 0}
        tangentMode: 1
      - serializedVersion: 2
        time: 2.1499987
        value: {x: -0.17101009, y: -0.17101009, z: -0.030153701, w: 0.96984625}
        inSlope: {x: 0, y: 0, z: 0, w: 0}
        outSlope: {x: 0, y: 0, z: 0, w: 0}
        tangentMode: 1
      - serializedVersion: 2
        time: 2.1666653
        value: {x: -0.17101009, y: -0.17101009, z: -0.030153701, w: 0.96984625}
        inSlope: {x: 0, y: 0, z: 0, w: 0}
        outSlope: {x: 0, y: 0, z: 0, w: 0}
        tangentMode: 1
      - serializedVersion: 2
        time: 2.183332
        value: {x: -0.17101009, y: -0.17101009, z: -0.030153701, w: 0.96984625}
        inSlope: {x: 0, y: 0, z: 0, w: 0}
        outSlope: {x: 0, y: 0, z: 0, w: 0}
        tangentMode: 1
      - serializedVersion: 2
        time: 2.1999986
        value: {x: -0.17101009, y: -0.17101009, z: -0.030153701, w: 0.96984625}
        inSlope: {x: 0, y: 0, z: 0, w: 0}
        outSlope: {x: 0, y: 0, z: 0, w: 0}
        tangentMode: 1
      - serializedVersion: 2
        time: 2.2166653
        value: {x: -0.17101009, y: -0.17101009, z: -0.030153701, w: 0.96984625}
        inSlope: {x: 0, y: 0, z: 0, w: 0}
        outSlope: {x: 0, y: 0, z: 0, w: 0}
        tangentMode: 1
      - serializedVersion: 2
        time: 2.233332
        value: {x: -0.17101009, y: -0.17101009, z: -0.030153701, w: 0.96984625}
        inSlope: {x: 0, y: 0, z: 0, w: 0}
        outSlope: {x: 0, y: 0, z: 0, w: 0}
        tangentMode: 1
      - serializedVersion: 2
        time: 2.2499986
        value: {x: -0.17101009, y: -0.17101009, z: -0.030153701, w: 0.96984625}
        inSlope: {x: 0, y: 0, z: 0, w: 0}
        outSlope: {x: 0, y: 0, z: 0, w: 0}
        tangentMode: 1
      - serializedVersion: 2
        time: 2.2666652
        value: {x: -0.17101009, y: -0.17101009, z: -0.030153701, w: 0.96984625}
        inSlope: {x: 0, y: 0, z: 0, w: 0}
        outSlope: {x: 0, y: 0, z: 0, w: 0}
        tangentMode: 1
      - serializedVersion: 2
        time: 2.2833319
        value: {x: -0.17101009, y: -0.17101009, z: -0.030153701, w: 0.96984625}
        inSlope: {x: 0, y: 0, z: 0, w: 0}
        outSlope: {x: 0, y: 0, z: 0, w: 0}
        tangentMode: 1
      - serializedVersion: 2
        time: 2.2999985
        value: {x: -0.17101009, y: -0.17101009, z: -0.030153701, w: 0.96984625}
        inSlope: {x: 0, y: 0, z: 0, w: 0}
        outSlope: {x: 0, y: 0, z: 0, w: 0}
        tangentMode: 1
      - serializedVersion: 2
        time: 2.3166652
        value: {x: -0.17101009, y: -0.17101009, z: -0.030153701, w: 0.96984625}
        inSlope: {x: 0, y: 0, z: 0, w: 0}
        outSlope: {x: 0, y: 0, z: 0, w: 0}
        tangentMode: 1
      - serializedVersion: 2
        time: 2.3333318
        value: {x: -0.17101009, y: -0.17101009, z: -0.030153701, w: 0.96984625}
        inSlope: {x: 0, y: 0, z: 0, w: 0}
        outSlope: {x: 0, y: 0, z: 0, w: 0}
        tangentMode: 1
      - serializedVersion: 2
        time: 2.3499985
        value: {x: -0.17101009, y: -0.17101009, z: -0.030153701, w: 0.96984625}
        inSlope: {x: 0, y: 0, z: 0, w: 0}
        outSlope: {x: 0, y: 0, z: 0, w: 0}
        tangentMode: 1
      - serializedVersion: 2
        time: 2.3666651
        value: {x: -0.17101009, y: -0.17101009, z: -0.030153701, w: 0.96984625}
        inSlope: {x: 0, y: 0, z: 0, w: 0}
        outSlope: {x: 0, y: 0, z: 0, w: 0}
        tangentMode: 1
      - serializedVersion: 2
        time: 2.3833318
        value: {x: -0.17101009, y: -0.17101009, z: -0.030153701, w: 0.96984625}
        inSlope: {x: 0, y: 0, z: 0, w: 0}
        outSlope: {x: 0, y: 0, z: 0, w: 0}
        tangentMode: 1
      - serializedVersion: 2
        time: 2.3999984
        value: {x: -0.17101009, y: -0.17101009, z: -0.030153701, w: 0.96984625}
        inSlope: {x: 0, y: 0, z: 0, w: 0}
        outSlope: {x: 0, y: 0, z: 0, w: 0}
        tangentMode: 1
      - serializedVersion: 2
        time: 2.416665
        value: {x: -0.17101009, y: -0.17101009, z: -0.030153701, w: 0.96984625}
        inSlope: {x: 0, y: 0, z: 0, w: 0}
        outSlope: {x: 0, y: 0, z: 0, w: 0}
        tangentMode: 1
      - serializedVersion: 2
        time: 2.4333317
        value: {x: -0.17101009, y: -0.17101009, z: -0.030153701, w: 0.96984625}
        inSlope: {x: 0, y: 0, z: 0, w: 0}
        outSlope: {x: 0, y: 0, z: 0, w: 0}
        tangentMode: 1
      - serializedVersion: 2
        time: 2.4499984
        value: {x: -0.17101009, y: -0.17101009, z: -0.030153701, w: 0.96984625}
        inSlope: {x: 0, y: 0, z: 0, w: 0}
        outSlope: {x: 0, y: 0, z: 0, w: 0}
        tangentMode: 1
      - serializedVersion: 2
        time: 2.466665
        value: {x: -0.17101009, y: -0.17101009, z: -0.030153701, w: 0.96984625}
        inSlope: {x: 0, y: 0, z: 0, w: 0}
        outSlope: {x: 0, y: 0, z: 0, w: 0}
        tangentMode: 1
      - serializedVersion: 2
        time: 2.4833317
        value: {x: -0.17101009, y: -0.17101009, z: -0.030153701, w: 0.96984625}
        inSlope: {x: 0, y: 0, z: 0, w: 0}
        outSlope: {x: 0, y: 0, z: 0, w: 0}
        tangentMode: 1
      - serializedVersion: 2
        time: 2.4999983
        value: {x: -0.17101009, y: -0.17101009, z: -0.030153701, w: 0.96984625}
        inSlope: {x: 0, y: 0, z: 0, w: 0}
        outSlope: {x: 0, y: 0, z: 0, w: 0}
        tangentMode: 1
      - serializedVersion: 2
        time: 2.516665
        value: {x: -0.17101009, y: -0.17101009, z: -0.030153701, w: 0.96984625}
        inSlope: {x: 0, y: 0, z: 0, w: 0}
        outSlope: {x: 0, y: 0, z: 0, w: 0}
        tangentMode: 1
      - serializedVersion: 2
        time: 2.5333316
        value: {x: -0.17101009, y: -0.17101009, z: -0.030153701, w: 0.96984625}
        inSlope: {x: 0, y: 0, z: 0, w: 0}
        outSlope: {x: 0, y: 0, z: 0, w: 0}
        tangentMode: 1
      - serializedVersion: 2
        time: 2.5499983
        value: {x: -0.17101009, y: -0.17101009, z: -0.030153701, w: 0.96984625}
        inSlope: {x: 0, y: 0, z: 0, w: 0}
        outSlope: {x: 0, y: 0, z: 0, w: 0}
        tangentMode: 1
      - serializedVersion: 2
        time: 2.566665
        value: {x: -0.17101009, y: -0.17101009, z: -0.030153701, w: 0.96984625}
        inSlope: {x: 0, y: 0, z: 0, w: 0}
        outSlope: {x: 0, y: 0, z: 0, w: 0}
        tangentMode: 1
      - serializedVersion: 2
        time: 2.5833316
        value: {x: -0.17101009, y: -0.17101009, z: -0.030153701, w: 0.96984625}
        inSlope: {x: 0, y: 0, z: 0, w: 0}
        outSlope: {x: 0, y: 0, z: 0, w: 0}
        tangentMode: 1
      - serializedVersion: 2
        time: 2.5999982
        value: {x: -0.17101009, y: -0.17101009, z: -0.030153701, w: 0.96984625}
        inSlope: {x: 0, y: 0, z: 0, w: 0}
        outSlope: {x: 0, y: 0, z: 0, w: 0}
        tangentMode: 1
      - serializedVersion: 2
        time: 2.616665
        value: {x: -0.17101009, y: -0.17101009, z: -0.030153701, w: 0.96984625}
        inSlope: {x: 0, y: 0, z: 0, w: 0}
        outSlope: {x: 0, y: 0, z: 0, w: 0}
        tangentMode: 1
      - serializedVersion: 2
        time: 2.6333315
        value: {x: -0.17101009, y: -0.17101009, z: -0.030153701, w: 0.96984625}
        inSlope: {x: 0, y: 0, z: 0, w: 0}
        outSlope: {x: 0, y: 0, z: 0, w: 0}
        tangentMode: 1
      - serializedVersion: 2
        time: 2.6499982
        value: {x: -0.17101009, y: -0.17101009, z: -0.030153701, w: 0.96984625}
        inSlope: {x: 0, y: 0, z: 0, w: 0}
        outSlope: {x: 0, y: 0, z: 0, w: 0}
        tangentMode: 1
      - serializedVersion: 2
        time: 2.6666648
        value: {x: -0.17101009, y: -0.17101009, z: -0.030153701, w: 0.96984625}
        inSlope: {x: 0, y: 0, z: 0, w: 0}
        outSlope: {x: 0, y: 0, z: 0, w: 0}
        tangentMode: 1
      - serializedVersion: 2
        time: 2.6833315
        value: {x: -0.17101009, y: -0.17101009, z: -0.030153701, w: 0.96984625}
        inSlope: {x: 0, y: 0, z: 0, w: 0}
        outSlope: {x: 0, y: 0, z: 0, w: 0}
        tangentMode: 1
      - serializedVersion: 2
        time: 2.6999981
        value: {x: -0.17101009, y: -0.17101009, z: -0.030153701, w: 0.96984625}
        inSlope: {x: 0, y: 0, z: 0, w: 0}
        outSlope: {x: 0, y: 0, z: 0, w: 0}
        tangentMode: 1
      - serializedVersion: 2
        time: 2.7166648
        value: {x: -0.17101009, y: -0.17101009, z: -0.030153701, w: 0.96984625}
        inSlope: {x: 0, y: 0, z: 0, w: 0}
        outSlope: {x: 0, y: 0, z: 0, w: 0}
        tangentMode: 1
      - serializedVersion: 2
        time: 2.7333314
        value: {x: -0.17101009, y: -0.17101009, z: -0.030153701, w: 0.96984625}
        inSlope: {x: 0, y: 0, z: 0, w: 0}
        outSlope: {x: 0, y: 0, z: 0, w: 0}
        tangentMode: 1
      - serializedVersion: 2
        time: 2.749998
        value: {x: -0.17101009, y: -0.17101009, z: -0.030153701, w: 0.96984625}
        inSlope: {x: 0, y: 0, z: 0, w: 0}
        outSlope: {x: 0, y: 0, z: 0, w: 0}
        tangentMode: 1
      - serializedVersion: 2
        time: 2.7666647
        value: {x: -0.17101009, y: -0.17101009, z: -0.030153701, w: 0.96984625}
        inSlope: {x: 0, y: 0, z: 0, w: 0}
        outSlope: {x: 0, y: 0, z: 0, w: 0}
        tangentMode: 1
      - serializedVersion: 2
        time: 2.7833314
        value: {x: -0.17101009, y: -0.17101009, z: -0.030153701, w: 0.96984625}
        inSlope: {x: 0, y: 0, z: 0, w: 0}
        outSlope: {x: 0, y: 0, z: 0, w: 0}
        tangentMode: 1
      - serializedVersion: 2
        time: 2.799998
        value: {x: -0.17101009, y: -0.17101009, z: -0.030153701, w: 0.96984625}
        inSlope: {x: 0, y: 0, z: 0, w: 0}
        outSlope: {x: 0, y: 0, z: 0, w: 0}
        tangentMode: 1
      - serializedVersion: 2
        time: 2.8166647
        value: {x: -0.17101009, y: -0.17101009, z: -0.030153701, w: 0.96984625}
        inSlope: {x: 0, y: 0, z: 0, w: 0}
        outSlope: {x: 0, y: 0, z: 0, w: 0}
        tangentMode: 1
      - serializedVersion: 2
        time: 2.8333313
        value: {x: -0.17101009, y: -0.17101009, z: -0.030153701, w: 0.96984625}
        inSlope: {x: 0, y: 0, z: 0, w: 0}
        outSlope: {x: 0, y: 0, z: 0, w: 0}
        tangentMode: 1
      - serializedVersion: 2
        time: 2.849998
        value: {x: -0.17101009, y: -0.17101009, z: -0.030153701, w: 0.96984625}
        inSlope: {x: 0, y: 0, z: 0, w: 0}
        outSlope: {x: 0, y: 0, z: 0, w: 0}
        tangentMode: 1
      - serializedVersion: 2
        time: 2.8666646
        value: {x: -0.17101009, y: -0.17101009, z: -0.030153701, w: 0.96984625}
        inSlope: {x: 0, y: 0, z: 0, w: 0}
        outSlope: {x: 0, y: 0, z: 0, w: 0}
        tangentMode: 1
      - serializedVersion: 2
        time: 2.8833313
        value: {x: -0.17101009, y: -0.17101009, z: -0.030153701, w: 0.96984625}
        inSlope: {x: 0, y: 0, z: 0, w: 0}
        outSlope: {x: 0, y: 0, z: 0, w: 0}
        tangentMode: 1
      - serializedVersion: 2
        time: 2.899998
        value: {x: -0.17101009, y: -0.17101009, z: -0.030153701, w: 0.96984625}
        inSlope: {x: 0, y: 0, z: 0, w: 0}
        outSlope: {x: 0, y: 0, z: 0, w: 0}
        tangentMode: 1
      - serializedVersion: 2
        time: 2.9166646
        value: {x: -0.17101009, y: -0.17101009, z: -0.030153701, w: 0.96984625}
        inSlope: {x: 0, y: 0, z: 0, w: 0}
        outSlope: {x: 0, y: 0, z: 0, w: 0}
        tangentMode: 1
      - serializedVersion: 2
        time: 2.9333313
        value: {x: -0.17101009, y: -0.17101009, z: -0.030153701, w: 0.96984625}
        inSlope: {x: 0, y: 0, z: 0, w: 0}
        outSlope: {x: 0, y: 0, z: 0, w: 0}
        tangentMode: 1
      - serializedVersion: 2
        time: 2.949998
        value: {x: -0.17101009, y: -0.17101009, z: -0.030153701, w: 0.96984625}
        inSlope: {x: 0, y: 0, z: 0, w: 0}
        outSlope: {x: 0, y: 0, z: 0, w: 0}
        tangentMode: 1
      - serializedVersion: 2
        time: 2.9666646
        value: {x: -0.17101009, y: -0.17101009, z: -0.030153701, w: 0.96984625}
        inSlope: {x: 0, y: 0, z: 0, w: 0}
        outSlope: {x: 0, y: 0, z: 0, w: 0}
        tangentMode: 1
      - serializedVersion: 2
        time: 2.9833333
        value: {x: -0.17101009, y: -0.17101009, z: -0.030153701, w: 0.96984625}
        inSlope: {x: 0, y: 0, z: 0, w: 0}
        outSlope: {x: 0, y: 0, z: 0, w: 0}
        tangentMode: 1
      m_PreInfinity: 2
      m_PostInfinity: 2
      m_RotationOrder: 4
    path:
  m_CompressedRotationCurves: []
  m_EulerCurves: []
  m_PositionCurves:
  - curve:
      serializedVersion: 2
      m_Curve:
      - serializedVersion: 2
        time: 0
        value: {x: -156, y: 96, z: -300}
        inSlope: {x: 0, y: 0, z: 0}
        outSlope: {x: 0, y: 0, z: 0}
        tangentMode: 1
      m_PreInfinity: 2
      m_PostInfinity: 2
      m_RotationOrder: 4
    path:
  m_ScaleCurves:
  - curve:
      serializedVersion: 2
      m_Curve:
      - serializedVersion: 2
        time: 0
        value: {x: 40, y: 40, z: 40}
        inSlope: {x: 0, y: 0, z: 0}
        outSlope: {x: 0, y: 0, z: 0}
        tangentMode: 1
      m_PreInfinity: 2
      m_PostInfinity: 2
      m_RotationOrder: 4
    path:
  m_FloatCurves: []
  m_PPtrCurves: []
  m_SampleRate: 60
  m_WrapMode: 0
  m_Bounds:
    m_Center: {x: 0, y: 0, z: 0}
    m_Extent: {x: 0, y: 0, z: 0}
  m_ClipBindingConstant:
    genericBindings:
    - serializedVersion: 2
      path: 0
      attribute: 1
      script: {fileID: 0}
      typeID: 4
      customType: 0
      isPPtrCurve: 0
    - serializedVersion: 2
      path: 0
      attribute: 2
      script: {fileID: 0}
      typeID: 4
      customType: 0
      isPPtrCurve: 0
    - serializedVersion: 2
      path: 0
      attribute: 3
      script: {fileID: 0}
      typeID: 4
      customType: 0
      isPPtrCurve: 0
    pptrCurveMapping: []
  m_AnimationClipSettings:
    serializedVersion: 2
    m_AdditiveReferencePoseClip: {fileID: 0}
    m_AdditiveReferencePoseTime: 0
    m_StartTime: 0
    m_StopTime: 2.9833333
    m_OrientationOffsetY: 0
    m_Level: 0
    m_CycleOffset: 0
    m_HasAdditiveReferencePose: 0
    m_LoopTime: 1
    m_LoopBlend: 0
    m_LoopBlendOrientation: 0
    m_LoopBlendPositionY: 0
    m_LoopBlendPositionXZ: 0
    m_KeepOriginalOrientation: 0
    m_KeepOriginalPositionY: 1
    m_KeepOriginalPositionXZ: 0
    m_HeightFromFeet: 0
    m_Mirror: 0
  m_EditorCurves: []
  m_EulerEditorCurves: []
  m_HasGenericRootTransform: 0
  m_HasMotionFloatCurves: 0
  m_GenerateMotionCurves: 0
  m_Events: []
