%YAML 1.1
%TAG !u! tag:unity3d.com,2011:
--- !u!74 &7400000
AnimationClip:
  serializedVersion: 6
  m_ObjectHideFlags: 0
  m_PrefabParentObject: {fileID: 0}
  m_PrefabInternal: {fileID: 0}
  m_Name: PrizeReveal3
  m_Legacy: 0
  m_Compressed: 0
  m_UseHighQualityCurve: 1
  m_RotationCurves:
  - curve:
      serializedVersion: 2
      m_Curve:
      - serializedVersion: 2
        time: 0
        value: {x: 0.17101009, y: 0.17101009, z: 0.030153701, w: -0.96984625}
        inSlope: {x: 0, y: 0, z: 0, w: 0}
        outSlope: {x: 0, y: 0, z: 0, w: 0}
        tangentMode: 1
      - serializedVersion: 2
        time: 0.016666668
        value: {x: 0.17101009, y: 0.17101009, z: 0.030153701, w: -0.96984625}
        inSlope: {x: 0, y: 0, z: 0, w: 0}
        outSlope: {x: 0, y: 0, z: 0, w: 0}
        tangentMode: 1
      - serializedVersion: 2
        time: 0.033333335
        value: {x: 0.17101009, y: 0.17101009, z: 0.030153701, w: -0.96984625}
        inSlope: {x: 0, y: 0, z: 0, w: 0}
        outSlope: {x: 0, y: 0, z: 0, w: 0}
        tangentMode: 1
      - serializedVersion: 2
        time: 0.050000004
        value: {x: 0.17101009, y: 0.17101009, z: 0.030153701, w: -0.96984625}
        inSlope: {x: 0, y: 0, z: 0, w: 0}
        outSlope: {x: 0, y: 0, z: 0, w: 0}
        tangentMode: 1
      - serializedVersion: 2
        time: 0.06666667
        value: {x: 0.17101009, y: 0.17101009, z: 0.030153701, w: -0.96984625}
        inSlope: {x: -0.00043004754, y: 0.0138281295, z: 0.00243824, w: 0.0024408104}
        outSlope: {x: -0.00043004754, y: 0.0138281295, z: 0.00243824, w: 0.0024408104}
        tangentMode: 1
      - serializedVersion: 2
        time: 0.083333336
        value: {x: 0.17099576, y: 0.17147103, z: 0.030234976, w: -0.9697649}
        inSlope: {x: -0.0017032028, y: 0.05449534, z: 0.009608959, w: 0.00965953}
        outSlope: {x: -0.0017032028, y: 0.05449534, z: 0.009608959, w: 0.00965953}
        tangentMode: 1
      - serializedVersion: 2
        time: 0.1
        value: {x: 0.17095332, y: 0.1728266, z: 0.030474, w: -0.96952426}
        inSlope: {x: -0.003370196, y: 0.10693969, z: 0.018856322, w: 0.019111635}
        outSlope: {x: -0.003370196, y: 0.10693969, z: 0.018856322, w: 0.019111635}
        tangentMode: 1
      - serializedVersion: 2
        time: 0.11666667
        value: {x: 0.17088342, y: 0.17503569, z: 0.03086352, w: -0.96912783}
        inSlope: {x: -0.0050090244, y: 0.15690428, z: 0.027666423, w: 0.028406378}
        outSlope: {x: -0.0050090244, y: 0.15690428, z: 0.027666423, w: 0.028406378}
        tangentMode: 1
      - serializedVersion: 2
        time: 0.13333334
        value: {x: 0.17078635, y: 0.17805675, z: 0.031396214, w: -0.9685774}
        inSlope: {x: -0.0066393605, y: 0.20436776, z: 0.036035586, w: 0.037654635}
        outSlope: {x: -0.0066393605, y: 0.20436776, z: 0.036035586, w: 0.037654635}
        tangentMode: 1
      - serializedVersion: 2
        time: 0.15
        value: {x: 0.1706621, y: 0.18184794, z: 0.032064706, w: -0.9678727}
        inSlope: {x: -0.008276851, y: 0.24931182, z: 0.043960404, w: 0.04694045}
        outSlope: {x: -0.008276851, y: 0.2493118, z: 0.043960404, w: 0.04694045}
        tangentMode: 1
      - serializedVersion: 2
        time: 0.16666667
        value: {x: 0.17051046, y: 0.18636714, z: 0.03286156, w: -0.9670127}
        inSlope: {x: -0.009932221, y: 0.29171976, z: 0.051438067, w: 0.05632818}
        outSlope: {x: -0.009932221, y: 0.29171976, z: 0.051438067, w: 0.05632818}
        tangentMode: 1
      - serializedVersion: 2
        time: 0.18333334
        value: {x: 0.17033103, y: 0.19157194, z: 0.03377931, w: -0.9659951}
        inSlope: {x: -0.01161486, y: 0.33157694, z: 0.058466014, w: 0.06587327}
        outSlope: {x: -0.01161486, y: 0.33157694, z: 0.058466014, w: 0.06587327}
        tangentMode: 1
      - serializedVersion: 2
        time: 0.2
        value: {x: 0.1701233, y: 0.1974197, z: 0.034810428, w: -0.9648169}
        inSlope: {x: -0.013330133, y: 0.36887038, z: 0.06504179, w: 0.07559896}
        outSlope: {x: -0.013330133, y: 0.36887038, z: 0.06504179, w: 0.07559896}
        tangentMode: 1
      - serializedVersion: 2
        time: 0.21666667
        value: {x: 0.1698867, y: 0.20386761, z: 0.035947368, w: -0.9634751}
        inSlope: {x: -0.015079829, y: 0.403588, z: 0.07116348, w: 0.08552135}
        outSlope: {x: -0.015079828, y: 0.403588, z: 0.07116348, w: 0.08552135}
        tangentMode: 1
      - serializedVersion: 2
        time: 0.23333333
        value: {x: 0.16962063, y: 0.21087264, z: 0.037182543, w: -0.9619662}
        inSlope: {x: -0.016863944, y: 0.43572176, z: 0.07682954, w: 0.09564043}
        outSlope: {x: -0.016863944, y: 0.43572176, z: 0.07682954, w: 0.09564043}
        tangentMode: 1
      - serializedVersion: 2
        time: 0.25
        value: {x: 0.16932456, y: 0.21839167, z: 0.038508352, w: -0.9602871}
        inSlope: {x: -0.018679343, y: 0.4652625, z: 0.08203824, w: 0.105934694}
        outSlope: {x: -0.018679343, y: 0.4652625, z: 0.08203824, w: 0.105934694}
        tangentMode: 1
      - serializedVersion: 2
        time: 0.26666668
        value: {x: 0.16899799, y: 0.22638139, z: 0.039917152, w: -0.95843506}
        inSlope: {x: -0.020520668, y: 0.4922064, z: 0.08678928, w: 0.116379164}
        outSlope: {x: -0.020520668, y: 0.4922064, z: 0.08678928, w: 0.116379164}
        tangentMode: 1
      - serializedVersion: 2
        time: 0.28333336
        value: {x: 0.16864054, y: 0.23479857, z: 0.04140133, w: -0.9564078}
        inSlope: {x: -0.02238078, y: 0.5165523, z: 0.091082156, w: 0.12692918}
        outSlope: {x: -0.02238078, y: 0.5165523, z: 0.091082156, w: 0.12692918}
        tangentMode: 1
      - serializedVersion: 2
        time: 0.30000004
        value: {x: 0.16825196, y: 0.24359982, z: 0.042953227, w: -0.9542041}
        inSlope: {x: -0.024250727, y: 0.5382997, z: 0.0949167, w: 0.13753104}
        outSlope: {x: -0.024250727, y: 0.5382997, z: 0.0949167, w: 0.13753104}
        tangentMode: 1
      - serializedVersion: 2
        time: 0.31666672
        value: {x: 0.16783218, y: 0.2527419, z: 0.044565223, w: -0.9518234}
        inSlope: {x: -0.026118435, y: 0.5574515, z: 0.09829394, w: 0.14812398}
        outSlope: {x: -0.026118435, y: 0.5574515, z: 0.09829394, w: 0.14812398}
        tangentMode: 1
      - serializedVersion: 2
        time: 0.3333334
        value: {x: 0.16738135, y: 0.26218155, z: 0.046229694, w: -0.9492666}
        inSlope: {x: -0.027970947, y: 0.5740155, z: 0.10121453, w: 0.15863286}
        outSlope: {x: -0.027970947, y: 0.5740155, z: 0.10121453, w: 0.15863286}
        tangentMode: 1
      - serializedVersion: 2
        time: 0.35000008
        value: {x: 0.16689982, y: 0.27187577, z: 0.047939043, w: -0.94653565}
        inSlope: {x: -0.029794848, y: 0.5880023, z: 0.103680596, w: 0.16897544}
        outSlope: {x: -0.029794846, y: 0.5880023, z: 0.103680596, w: 0.16897544}
        tangentMode: 1
      - serializedVersion: 2
        time: 0.36666676
        value: {x: 0.16638818, y: 0.28178164, z: 0.049685717, w: -0.9436341}
        inSlope: {x: -0.031574044, y: 0.59942496, z: 0.105694704, w: 0.17906412}
        outSlope: {x: -0.031574044, y: 0.59942496, z: 0.105694704, w: 0.17906412}
        tangentMode: 1
      - serializedVersion: 2
        time: 0.38333344
        value: {x: 0.16584735, y: 0.29185662, z: 0.051462203, w: -0.94056684}
        inSlope: {x: -0.03329289, y: 0.6083039, z: 0.10726044, w: 0.18881306}
        outSlope: {x: -0.03329289, y: 0.6083039, z: 0.10726044, w: 0.18881306}
        tangentMode: 1
      - serializedVersion: 2
        time: 0.40000013
        value: {x: 0.16527842, y: 0.30205846, z: 0.053261068, w: -0.9373403}
        inSlope: {x: -0.034933507, y: 0.61465895, z: 0.10838105, w: 0.19811852}
        outSlope: {x: -0.034933507, y: 0.61465895, z: 0.10838105, w: 0.19811852}
        tangentMode: 1
      - serializedVersion: 2
        time: 0.4166668
        value: {x: 0.1646829, y: 0.31234527, z: 0.055074908, w: -0.9339629}
        inSlope: {x: -0.036478013, y: 0.6185151, z: 0.109060876, w: 0.2068786}
        outSlope: {x: -0.036478013, y: 0.6185151, z: 0.109060876, w: 0.2068786}
        tangentMode: 1
      - serializedVersion: 2
        time: 0.4333335
        value: {x: 0.16406249, y: 0.32267565, z: 0.056896433, w: -0.93044436}
        inSlope: {x: -0.03790942, y: 0.6198991, z: 0.10930496, w: 0.21499497}
        outSlope: {x: -0.03790942, y: 0.6198991, z: 0.10930496, w: 0.21499497}
        tangentMode: 1
      - serializedVersion: 2
        time: 0.45000017
        value: {x: 0.16341925, y: 0.3330086, z: 0.05871841, w: -0.9267964}
        inSlope: {x: -0.039208498, y: 0.61884767, z: 0.10911955, w: 0.2223621}
        outSlope: {x: -0.039208498, y: 0.61884767, z: 0.10911955, w: 0.2223621}
        tangentMode: 1
      - serializedVersion: 2
        time: 0.46666685
        value: {x: 0.16275553, y: 0.34330392, z: 0.060533755, w: -0.9230323}
        inSlope: {x: -0.040356483, y: 0.61539924, z: 0.10851147, w: 0.22887091}
        outSlope: {x: -0.040356483, y: 0.61539924, z: 0.10851147, w: 0.22887091}
        tangentMode: 1
      - serializedVersion: 2
        time: 0.48333353
        value: {x: 0.16207403, y: 0.3535219, z: 0.06233546, w: -0.91916734}
        inSlope: {x: -0.041335527, y: 0.60958385, z: 0.10748618, w: 0.23442331}
        outSlope: {x: -0.041335527, y: 0.60958385, z: 0.10748618, w: 0.2344233}
        tangentMode: 1
      - serializedVersion: 2
        time: 0.5000002
        value: {x: 0.16137768, y: 0.36362338, z: 0.06411663, w: -0.9152182}
        inSlope: {x: -0.04212771, y: 0.6014466, z: 0.106051296, w: 0.23891889}
        outSlope: {x: -0.04212771, y: 0.6014466, z: 0.106051296, w: 0.23891889}
        tangentMode: 1
      - serializedVersion: 2
        time: 0.5166668
        value: {x: 0.16066977, y: 0.3735701, z: 0.0658705, w: -0.9112034}
        inSlope: {x: -0.04271556, y: 0.5910325, z: 0.10421487, w: 0.24225199}
        outSlope: {x: -0.04271556, y: 0.5910325, z: 0.10421487, w: 0.24225199}
        tangentMode: 1
      - serializedVersion: 2
        time: 0.5333335
        value: {x: 0.15995383, y: 0.38332444, z: 0.06759045, w: -0.9071431}
        inSlope: {x: -0.043082576, y: 0.57838404, z: 0.101984836, w: 0.24433339}
        outSlope: {x: -0.043082576, y: 0.57838404, z: 0.101984836, w: 0.24433339}
        tangentMode: 1
      - serializedVersion: 2
        time: 0.55000013
        value: {x: 0.15923369, y: 0.39284956, z: 0.06926999, w: -0.90305895}
        inSlope: {x: -0.043212663, y: 0.56354964, z: 0.099369235, w: 0.24507368}
        outSlope: {x: -0.043212663, y: 0.56354964, z: 0.099369235, w: 0.24507368}
        tangentMode: 1
      - serializedVersion: 2
        time: 0.5666668
        value: {x: 0.15851341, y: 0.4021094, z: 0.07090276, w: -0.898974}
        inSlope: {x: -0.043091517, y: 0.54657036, z: 0.09637499, w: 0.24438524}
        outSlope: {x: -0.043091517, y: 0.54657036, z: 0.09637499, w: 0.24438524}
        tangentMode: 1
      - serializedVersion: 2
        time: 0.58333343
        value: {x: 0.1577973, y: 0.41106856, z: 0.07248249, w: -0.8949128}
        inSlope: {x: -0.04270528, y: 0.52749264, z: 0.09301105, w: 0.2421912}
        outSlope: {x: -0.04270528, y: 0.52749264, z: 0.09301105, w: 0.2421912}
        tangentMode: 1
      - serializedVersion: 2
        time: 0.6000001
        value: {x: 0.1570899, y: 0.4196925, z: 0.07400312, w: -0.89090097}
        inSlope: {x: -0.042040985, y: 0.5063613, z: 0.08928524, w: 0.23842536}
        outSlope: {x: -0.042040985, y: 0.5063613, z: 0.08928524, w: 0.23842536}
        tangentMode: 1
      - serializedVersion: 2
        time: 0.61666673
        value: {x: 0.15639594, y: 0.42794725, z: 0.07545866, w: -0.8869653}
        inSlope: {x: -0.041087903, y: 0.4832174, z: 0.08520425, w: 0.2330216}
        outSlope: {x: -0.041087903, y: 0.48321742, z: 0.08520425, w: 0.2330216}
        tangentMode: 1
      - serializedVersion: 2
        time: 0.6333334
        value: {x: 0.15572031, y: 0.43579972, z: 0.07684326, w: -0.8831336}
        inSlope: {x: -0.039837547, y: 0.45810115, z: 0.08077569, w: 0.22592983}
        outSlope: {x: -0.039837547, y: 0.45810115, z: 0.08077569, w: 0.22592983}
        tangentMode: 1
      - serializedVersion: 2
        time: 0.65000004
        value: {x: 0.15506802, y: 0.44321728, z: 0.07815118, w: -0.8794343}
        inSlope: {x: -0.03828097, y: 0.43104392, z: 0.076004714, w: 0.21710357}
        outSlope: {x: -0.03828097, y: 0.43104392, z: 0.076004714, w: 0.21710357}
        tangentMode: 1
      - serializedVersion: 2
        time: 0.6666667
        value: {x: 0.15444428, y: 0.45016783, z: 0.07937675, w: -0.8758968}
        inSlope: {x: -0.03641326, y: 0.4020769, z: 0.07089689, w: 0.20651063}
        outSlope: {x: -0.03641326, y: 0.4020769, z: 0.07089689, w: 0.20651063}
        tangentMode: 1
      - serializedVersion: 2
        time: 0.68333334
        value: {x: 0.15385425, y: 0.45661983, z: 0.08051441, w: -0.8725506}
        inSlope: {x: -0.03423083, y: 0.37122434, z: 0.06545691, w: 0.19413131}
        outSlope: {x: -0.03423083, y: 0.37122434, z: 0.06545691, w: 0.19413131}
        tangentMode: 1
      - serializedVersion: 2
        time: 0.7
        value: {x: 0.15330325, y: 0.46254197, z: 0.081558645, w: -0.8694258}
        inSlope: {x: -0.031730562, y: 0.3385049, z: 0.0596877, w: 0.17995316}
        outSlope: {x: -0.031730562, y: 0.3385049, z: 0.059687704, w: 0.17995316}
        tangentMode: 1
      - serializedVersion: 2
        time: 0.71666664
        value: {x: 0.15279657, y: 0.46790332, z: 0.082504, w: -0.8665522}
        inSlope: {x: -0.028913347, y: 0.30392587, z: 0.053590365, w: 0.16397789}
        outSlope: {x: -0.028913347, y: 0.30392587, z: 0.053590365, w: 0.16397789}
        tangentMode: 1
      - serializedVersion: 2
        time: 0.7333333
        value: {x: 0.15233947, y: 0.47267282, z: 0.08334499, w: -0.86395985}
        inSlope: {x: -0.025782311, y: 0.267488, z: 0.04716535, w: 0.14621809}
        outSlope: {x: -0.025782311, y: 0.267488, z: 0.04716535, w: 0.14621809}
        tangentMode: 1
      - serializedVersion: 2
        time: 0.74999994
        value: {x: 0.15193716, y: 0.47681957, z: 0.08407617, w: -0.86167824}
        inSlope: {x: -0.022342823, y: 0.22918782, z: 0.040411986, w: 0.12670946}
        outSlope: {x: -0.022342823, y: 0.22918782, z: 0.040411986, w: 0.12670946}
        tangentMode: 1
      - serializedVersion: 2
        time: 0.7666666
        value: {x: 0.15159471, y: 0.4803124, z: 0.08469205, w: -0.8597362}
        inSlope: {x: -0.018602032, y: 0.1890074, z: 0.033327147, w: 0.10549675}
        outSlope: {x: -0.018602032, y: 0.1890074, z: 0.033327147, w: 0.10549675}
        tangentMode: 1
      - serializedVersion: 2
        time: 0.78333324
        value: {x: 0.15131709, y: 0.48311982, z: 0.08518708, w: -0.8581617}
        inSlope: {x: -0.014569774, y: 0.14691636, z: 0.025905246, w: 0.08263178}
        outSlope: {x: -0.014569774, y: 0.14691636, z: 0.025905246, w: 0.08263178}
        tangentMode: 1
      - serializedVersion: 2
        time: 0.7999999
        value: {x: 0.15110905, y: 0.4852096, z: 0.08555556, w: -0.8569818}
        inSlope: {x: -0.010259906, y: 0.10287533, z: 0.018139573, w: 0.05818611}
        outSlope: {x: -0.010259906, y: 0.10287533, z: 0.018139573, w: 0.05818611}
        tangentMode: 1
      - serializedVersion: 2
        time: 0.81666654
        value: {x: 0.1509751, y: 0.486549, z: 0.08579173, w: -0.85622215}
        inSlope: {x: -0.005689418, y: 0.056838743, z: 0.010022307, w: 0.032263428}
        outSlope: {x: -0.005689418, y: 0.056838743, z: 0.010022307, w: 0.032263428}
        tangentMode: 1
      - serializedVersion: 2
        time: 0.8333332
        value: {x: 0.15091941, y: 0.48710424, z: 0.08588964, w: -0.85590637}
        inSlope: {x: -0.00087663595, y: 0.008743116, z: 0.0015416011, w: 0.004971032}
        outSlope: {x: -0.0008766362, y: 0.008743117, z: 0.0015416011, w: 0.0049710325}
        tangentMode: 1
      - serializedVersion: 2
        time: 0.84999985
        value: {x: 0.15094587, y: 0.48684043, z: 0.085843116, w: -0.85605645}
        inSlope: {x: 0.004155193, y: -0.041485768, z: -0.0073150615, w: -0.023564123}
        outSlope: {x: 0.004155193, y: -0.041485768, z: -0.0073150615, w: -0.023564123}
        tangentMode: 1
      - serializedVersion: 2
        time: 0.8666665
        value: {x: 0.15105791, y: 0.48572138, z: 0.0856458, w: -0.85669184}
        inSlope: {x: 0.009379694, y: -0.09393373, z: -0.016563103, w: -0.05319362}
        outSlope: {x: 0.009379694, y: -0.09393373, z: -0.016563103, w: -0.05319362}
        tangentMode: 1
      - serializedVersion: 2
        time: 0.88333315
        value: {x: 0.15125853, y: 0.4837093, z: 0.08529101, w: -0.8578296}
        inSlope: {x: 0.014766022, y: -0.14869644, z: -0.02621929, w: -0.08374222}
        outSlope: {x: 0.014766022, y: -0.14869644, z: -0.02621929, w: -0.08374222}
        tangentMode: 1
      - serializedVersion: 2
        time: 0.8999998
        value: {x: 0.15155011, y: 0.48076484, z: 0.08477183, w: -0.85948324}
        inSlope: {x: 0.020279754, y: -0.20588298, z: -0.03630262, w: -0.11501144}
        outSlope: {x: 0.020279754, y: -0.20588298, z: -0.03630262, w: -0.11501144}
        tangentMode: 1
      - serializedVersion: 2
        time: 0.91666645
        value: {x: 0.15193452, y: 0.47684655, z: 0.08408093, w: -0.8616633}
        inSlope: {x: 0.025882449, y: -0.26560777, z: -0.046833873, w: -0.1467867}
        outSlope: {x: 0.025882449, y: -0.26560777, z: -0.046833873, w: -0.1467867}
        tangentMode: 1
      - serializedVersion: 2
        time: 0.9333331
        value: {x: 0.15241286, y: 0.47191125, z: 0.0832107, w: -0.8643761}
        inSlope: {x: 0.031529844, y: -0.3279996, z: -0.057835184, w: -0.17881589}
        outSlope: {x: 0.031529844, y: -0.3279996, z: -0.057835184, w: -0.17881589}
        tangentMode: 1
      - serializedVersion: 2
        time: 0.94999975
        value: {x: 0.15298551, y: 0.46591324, z: 0.08215309, w: -0.8676238}
        inSlope: {x: 0.037175007, y: -0.39319614, z: -0.06933092, w: -0.21082899}
        outSlope: {x: 0.037175007, y: -0.39319614, z: -0.06933092, w: -0.21082899}
        tangentMode: 1
      - serializedVersion: 2
        time: 0.9666664
        value: {x: 0.15365203, y: 0.45880473, z: 0.08089967, w: -0.87140375}
        inSlope: {x: 0.042762946, y: -0.46133772, z: -0.08134611, w: -0.24252021}
        outSlope: {x: 0.042762946, y: -0.46133772, z: -0.08134611, w: -0.24252021}
        tangentMode: 1
      - serializedVersion: 2
        time: 0.98333305
        value: {x: 0.15441094, y: 0.45053533, z: 0.079441555, w: -0.8757078}
        inSlope: {x: 0.048233315, y: -0.53256476, z: -0.09390557, w: -0.27354622}
        outSlope: {x: 0.048233315, y: -0.53256476, z: -0.09390557, w: -0.27354622}
        tangentMode: 1
      - serializedVersion: 2
        time: 0.9999997
        value: {x: 0.1552598, y: 0.4410526, z: 0.07776949, w: -0.88052195}
        inSlope: {x: 0.053521194, y: -0.60702, z: -0.10703412, w: -0.30353457}
        outSlope: {x: 0.053521194, y: -0.60702, z: -0.10703412, w: -0.30353457}
        tangentMode: 1
      - serializedVersion: 2
        time: 1.0166664
        value: {x: 0.15619498, y: 0.4303013, z: 0.07587375, w: -0.88582563}
        inSlope: {x: 0.058554366, y: -0.6848587, z: -0.12075921, w: -0.3320787}
        outSlope: {x: 0.058554366, y: -0.6848587, z: -0.12075922, w: -0.3320787}
        tangentMode: 1
      - serializedVersion: 2
        time: 1.0333331
        value: {x: 0.15721162, y: 0.41822395, z: 0.07374418, w: -0.89159125}
        inSlope: {x: 0.06325415, y: -0.7662176, z: -0.13510501, w: -0.3587315}
        outSlope: {x: 0.06325415, y: -0.7662176, z: -0.13510501, w: -0.3587315}
        tangentMode: 1
      - serializedVersion: 2
        time: 1.0499997
        value: {x: 0.15830345, y: 0.40476075, z: 0.07137025, w: -0.89778334}
        inSlope: {x: 0.06753361, y: -0.8512168, z: -0.1500923, w: -0.38300014}
        outSlope: {x: 0.06753361, y: -0.8512168, z: -0.1500923, w: -0.38300014}
        tangentMode: 1
      - serializedVersion: 2
        time: 1.0666664
        value: {x: 0.15946274, y: 0.38985008, z: 0.068741105, w: -0.9043579}
        inSlope: {x: 0.071297206, y: -0.9399703, z: -0.16574189, w: -0.40434518}
        outSlope: {x: 0.071297206, y: -0.9399703, z: -0.16574189, w: -0.40434518}
        tangentMode: 1
      - serializedVersion: 2
        time: 1.083333
        value: {x: 0.16068003, y: 0.37342843, z: 0.06584553, w: -0.9112615}
        inSlope: {x: 0.074443, y: -1.0325773, z: -0.18207142, w: -0.42218727}
        outSlope: {x: 0.074443, y: -1.0325773, z: -0.18207142, w: -0.42218727}
        tangentMode: 1
      - serializedVersion: 2
        time: 1.0999997
        value: {x: 0.16194417, y: 0.35543087, z: 0.06267206, w: -0.9184308}
        inSlope: {x: 0.076861456, y: -1.1291038, z: -0.19909161, w: -0.4359041}
        outSlope: {x: 0.076861456, y: -1.1291038, z: -0.19909161, w: -0.4359041}
        tangentMode: 1
      - serializedVersion: 2
        time: 1.1166663
        value: {x: 0.16324207, y: 0.33579168, z: 0.059209146, w: -0.9257916}
        inSlope: {x: 0.07843278, y: -1.229574, z: -0.21680707, w: -0.44481617}
        outSlope: {x: 0.07843278, y: -1.229574, z: -0.21680707, w: -0.44481617}
        tangentMode: 1
      - serializedVersion: 2
        time: 1.133333
        value: {x: 0.16455859, y: 0.3144451, z: 0.05544517, w: -0.933258}
        inSlope: {x: 0.07902868, y: -1.3339801, z: -0.23521666, w: -0.44819397}
        outSlope: {x: 0.07902868, y: -1.3339801, z: -0.23521665, w: -0.44819397}
        tangentMode: 1
      - serializedVersion: 2
        time: 1.1499996
        value: {x: 0.16587636, y: 0.29132572, z: 0.051368598, w: -0.9407314}
        inSlope: {x: 0.078511015, y: -1.4422565, z: -0.25430876, w: -0.44525605}
        outSlope: {x: 0.078511015, y: -1.4422565, z: -0.25430876, w: -0.44525605}
        tangentMode: 1
      - serializedVersion: 2
        time: 1.1666663
        value: {x: 0.16717562, y: 0.26636994, z: 0.046968218, w: -0.94809985}
        inSlope: {x: 0.07673271, y: -1.5542772, z: -0.2740611, w: -0.43517274}
        outSlope: {x: 0.07673271, y: -1.5542772, z: -0.2740611, w: -0.43517274}
        tangentMode: 1
      - serializedVersion: 2
        time: 1.1833329
        value: {x: 0.16843411, y: 0.23951653, z: 0.042233236, w: -0.95523715}
        inSlope: {x: 0.073540434, y: -1.6698389, z: -0.29443777, w: -0.41706783}
        outSlope: {x: 0.073540434, y: -1.6698389, z: -0.29443777, w: -0.41706783}
        tangentMode: 1
      - serializedVersion: 2
        time: 1.1999996
        value: {x: 0.16962697, y: 0.2107087, z: 0.037153635, w: -0.9620021}
        inSlope: {x: 0.06877011, y: -1.788652, z: -0.31538773, w: -0.390015}
        outSlope: {x: 0.06877011, y: -1.788652, z: -0.31538773, w: -0.390015}
        tangentMode: 1
      - serializedVersion: 2
        time: 1.2166662
        value: {x: 0.17072645, y: 0.17989485, z: 0.03172032, w: -0.96823764}
        inSlope: {x: 0.062250555, y: -1.9103386, z: -0.33684427, w: -0.35304165}
        outSlope: {x: 0.062250555, y: -1.9103386, z: -0.33684427, w: -0.35304165}
        tangentMode: 1
      - serializedVersion: 2
        time: 1.2333329
        value: {x: 0.17170198, y: 0.1470308, z: 0.025925504, w: -0.97377014}
        inSlope: {x: 0.05380427, y: -2.034397, z: -0.35871914, w: -0.30513734}
        outSlope: {x: 0.05380427, y: -2.034397, z: -0.35871914, w: -0.30513734}
        tangentMode: 1
      - serializedVersion: 2
        time: 1.2499995
        value: {x: 0.17251992, y: 0.112081684, z: 0.019763028, w: -0.9784089}
        inSlope: {x: 0.043247983, y: -2.1601996, z: -0.38090158, w: -0.24527216}
        outSlope: {x: 0.043247983, y: -2.1601996, z: -0.38090158, w: -0.24527216}
        tangentMode: 1
      - serializedVersion: 2
        time: 1.2666662
        value: {x: 0.17314358, y: 0.07502422, z: 0.013228796, w: -0.9819459}
        inSlope: {x: 0.030395716, y: -2.286975, z: -0.4032554, w: -0.17238395}
        outSlope: {x: 0.030395716, y: -2.286975, z: -0.4032554, w: -0.17238395}
        tangentMode: 1
      - serializedVersion: 2
        time: 1.2833328
        value: {x: 0.17353311, y: 0.035849266, z: 0.006321194, w: -0.984155}
        inSlope: {x: 0.0150592765, y: -2.4137912, z: -0.42561656, w: -0.085405186}
        outSlope: {x: 0.015059277, y: -2.4137912, z: -0.42561656, w: -0.085405186}
        tangentMode: 1
      - serializedVersion: 2
        time: 1.2999995
        value: {x: 0.17364556, y: -0.005435407, z: -0.00095840916, w: -0.9847927}
        inSlope: {x: -0.002947303, y: -2.5395417, z: -0.44778982, w: 0.016715543}
        outSlope: {x: -0.0029473035, y: -2.5395417, z: -0.44778982, w: 0.016715541}
        tangentMode: 1
      - serializedVersion: 2
        time: 1.3166661
        value: {x: 0.17343487, y: -0.048802044, z: -0.008605119, w: -0.9835978}
        inSlope: {x: -0.023806863, y: -2.6629252, z: -0.46954566, w: 0.13501538}
        outSlope: {x: -0.023806863, y: -2.6629252, z: -0.46954566, w: 0.13501538}
        tangentMode: 1
      - serializedVersion: 2
        time: 1.3333328
        value: {x: 0.172852, y: -0.09419949, z: -0.016609916, w: -0.9802922}
        inSlope: {x: -0.047692403, y: -2.7824335, z: -0.49061814, w: 0.270476}
        outSlope: {x: -0.047692403, y: -2.7824335, z: -0.49061814, w: 0.270476}
        tangentMode: 1
      - serializedVersion: 2
        time: 1.3499994
        value: {x: 0.17184512, y: -0.14154974, z: -0.02495904, w: -0.97458196}
        inSlope: {x: -0.07476262, y: -2.896339, z: -0.5107027, w: 0.42399865}
        outSlope: {x: -0.07476262, y: -2.896339, z: -0.5107027, w: 0.42399865}
        tangentMode: 1
      - serializedVersion: 2
        time: 1.3666661
        value: {x: 0.17035991, y: -0.19074403, z: -0.033633325, w: -0.9661589}
        inSlope: {x: -0.1051579, y: -3.0026588, z: -0.52944994, w: 0.59637904}
        outSlope: {x: -0.1051579, y: -3.0026588, z: -0.52944994, w: 0.59637904}
        tangentMode: 1
      - serializedVersion: 2
        time: 1.3833327
        value: {x: 0.16833986, y: -0.24163827, z: -0.042607356, w: -0.9547027}
        inSlope: {x: -0.1389922, y: -3.099183, z: -0.5464698, w: 0.7882662}
        outSlope: {x: -0.1389922, y: -3.099183, z: -0.5464698, w: 0.7882662}
        tangentMode: 1
      - serializedVersion: 2
        time: 1.3999994
        value: {x: 0.16572684, y: -0.29405004, z: -0.051848967, w: -0.9398834}
        inSlope: {x: -0.17634827, y: -3.1834543, z: -0.561329, w: 1.0001234}
        outSlope: {x: -0.17634827, y: -3.1834543, z: -0.561329, w: 1.0001234}
        tangentMode: 1
      - serializedVersion: 2
        time: 1.416666
        value: {x: 0.1624616, y: -0.34775332, z: -0.061318304, w: -0.92136526}
        inSlope: {x: -0.21726763, y: -3.2527385, z: -0.5735457, w: 1.2321866}
        outSlope: {x: -0.21726763, y: -3.2527385, z: -0.5735457, w: 1.2321866}
        tangentMode: 1
      - serializedVersion: 2
        time: 1.4333327
        value: {x: 0.1584846, y: -0.40247455, z: -0.07096714, w: -0.89881057}
        inSlope: {x: -0.26173913, y: -3.304062, z: -0.58259547, w: 1.4843949}
        outSlope: {x: -0.26173913, y: -3.304062, z: -0.58259547, w: 1.4843949}
        tangentMode: 1
      - serializedVersion: 2
        time: 1.4499993
        value: {x: 0.15373696, y: -0.4578886, z: -0.080738135, w: -0.8718855}
        inSlope: {x: -0.30969262, y: -3.334208, z: -0.587911, w: 1.7563533}
        outSlope: {x: -0.30969262, y: -3.334208, z: -0.587911, w: 1.7563533}
        tangentMode: 1
      - serializedVersion: 2
        time: 1.466666
        value: {x: 0.14816152, y: -0.5136147, z: -0.090564154, w: -0.8402655}
        inSlope: {x: -0.36098766, y: -3.339738, z: -0.5888858, w: 2.047264}
        outSlope: {x: -0.36098766, y: -3.339738, z: -0.5888858, w: 2.047264}
        tangentMode: 1
      - serializedVersion: 2
        time: 1.4833326
        value: {x: 0.14170405, y: -0.5692131, z: -0.10036764, w: -0.8036434}
        inSlope: {x: -0.4154008, y: -3.3170142, z: -0.58487904, w: 2.3558545}
        outSlope: {x: -0.4154008, y: -3.3170142, z: -0.58487904, w: 2.3558545}
        tangentMode: 1
      - serializedVersion: 2
        time: 1.4999993
        value: {x: 0.13431484, y: -0.62418175, z: -0.1100601, w: -0.7617371}
        inSlope: {x: -0.47261328, y: -3.2622504, z: -0.5752231, w: 2.6803215}
        outSlope: {x: -0.47261328, y: -3.2622504, z: -0.5752231, w: 2.6803215}
        tangentMode: 1
      - serializedVersion: 2
        time: 1.5166659
        value: {x: 0.12595029, y: -0.6779547, z: -0.11954173, w: -0.71429944}
        inSlope: {x: -0.53219974, y: -3.1715703, z: -0.5592337, w: 3.0182533}
        outSlope: {x: -0.53219974, y: -3.1715703, z: -0.5592337, w: 3.0182533}
        tangentMode: 1
      - serializedVersion: 2
        time: 1.5333326
        value: {x: 0.11657486, y: -0.72990066, z: -0.12870121, w: -0.66112876}
        inSlope: {x: -0.5936148, y: -3.0410593, z: -0.5362208, w: 3.3665547}
        outSlope: {x: -0.5936148, y: -3.0410593, z: -0.5362208, w: 3.3665547}
        tangentMode: 1
      - serializedVersion: 2
        time: 1.5499992
        value: {x: 0.10616315, y: -0.7793232, z: -0.13741574, w: -0.60208106}
        inSlope: {x: -0.6561836, y: -2.8668694, z: -0.5055066, w: 3.7214005}
        outSlope: {x: -0.6561836, y: -2.8668694, z: -0.5055066, w: 3.7214005}
        tangentMode: 1
      - serializedVersion: 2
        time: 1.5666659
        value: {x: 0.094702095, y: -0.8254629, z: -0.14555141, w: -0.5370822}
        inSlope: {x: -0.7190918, y: -2.6453328, z: -0.46644375, w: 4.078172}
        outSlope: {x: -0.7190918, y: -2.6453328, z: -0.46644375, w: 4.078172}
        tangentMode: 1
      - serializedVersion: 2
        time: 1.5833325
        value: {x: 0.08219345, y: -0.8675009, z: -0.15296385, w: -0.46614212}
        inSlope: {x: -0.7813703, y: -2.3730564, z: -0.41843396, w: 4.4313703}
        outSlope: {x: -0.7813703, y: -2.3730564, z: -0.41843396, w: 4.4313703}
        tangentMode: 1
      - serializedVersion: 2
        time: 1.5999992
        value: {x: 0.068656445, y: -0.9045647, z: -0.1594992, w: -0.38937}
        inSlope: {x: -0.84189546, y: -2.047098, z: -0.36095864, w: 4.7746253}
        outSlope: {x: -0.84189546, y: -2.047098, z: -0.36095864, w: 4.7746253}
        tangentMode: 1
      - serializedVersion: 2
        time: 1.6166658
        value: {x: 0.054130293, y: -0.93573743, z: -0.16499579, w: -0.3069881}
        inSlope: {x: -0.8993842, y: -1.6651349, z: -0.29360783, w: 5.1006613}
        outSlope: {x: -0.8993842, y: -1.6651349, z: -0.29360783, w: 5.1006613}
        tangentMode: 1
      - serializedVersion: 2
        time: 1.6333325
        value: {x: 0.038677, y: -0.9600691, z: -0.16928612, w: -0.21934812}
        inSlope: {x: -0.9523967, y: -1.2256277, z: -0.2161116, w: 5.4013085}
        outSlope: {x: -0.95239663, y: -1.2256277, z: -0.2161116, w: 5.4013085}
        tangentMode: 1
      - serializedVersion: 2
        time: 1.6499991
        value: {x: 0.02238377, y: -0.97659165, z: -0.1721995, w: -0.12694465}
        inSlope: {x: -0.99932957, y: -0.7280506, z: -0.12837511, w: 5.667478}
        outSlope: {x: -0.9993295, y: -0.7280506, z: -0.12837511, w: 5.667478}
        tangentMode: 1
      - serializedVersion: 2
        time: 1.6666658
        value: {x: 0.005366048, y: -0.98433745, z: -0.17356528, w: -0.030432364}
        inSlope: {x: -1.0384458, y: -0.17310457, z: -0.03052267, w: 5.889318}
        outSlope: {x: -1.0384458, y: -0.17310457, z: -0.03052267, w: 5.889318}
        tangentMode: 1
      - serializedVersion: 2
        time: 1.6833324
        value: {x: -0.012231058, y: -0.9823618, z: -0.17321692, w: 0.06936576}
        inSlope: {x: -1.0678989, y: 0.43704492, z: 0.07706262, w: 6.0563545}
        outSlope: {x: -1.0678989, y: 0.43704492, z: 0.07706262, w: 6.0563545}
        tangentMode: 1
      - serializedVersion: 2
        time: 1.6999991
        value: {x: -0.030230548, y: -0.9697693, z: -0.17099653, w: 0.17144592}
        inSlope: {x: -1.0857365, y: 1.0985266, z: 0.19369993, w: 6.1575165}
        outSlope: {x: -1.0857365, y: 1.0985266, z: 0.19369993, w: 6.1575165}
        tangentMode: 1
      - serializedVersion: 2
        time: 1.7166657
        value: {x: -0.04842224, y: -0.9457443, z: -0.16676027, w: 0.27461612}
        inSlope: {x: -1.0899603, y: 1.8055451, z: 0.31836644, w: 6.181472}
        outSlope: {x: -1.0899603, y: 1.8055451, z: 0.31836644, w: 6.181472}
        tangentMode: 1
      - serializedVersion: 2
        time: 1.7333324
        value: {x: -0.066562526, y: -0.9095845, z: -0.16038433, w: 0.37749478}
        inSlope: {x: -1.0785723, y: 2.5501466, z: 0.4496598, w: 6.116885}
        outSlope: {x: -1.0785723, y: 2.5501466, z: 0.4496598, w: 6.116885}
        tangentMode: 1
      - serializedVersion: 2
        time: 1.749999
        value: {x: -0.084374614, y: -0.86073947, z: -0.15177162, w: 0.4785121}
        inSlope: {x: -1.0496314, y: 3.322012, z: 0.5857606, w: 5.9527545}
        outSlope: {x: -1.0496314, y: 3.322012, z: 0.5857606, w: 5.9527545}
        tangentMode: 1
      - serializedVersion: 2
        time: 1.7666657
        value: {x: -0.10155021, y: -0.7988509, z: -0.140859, w: 0.57591975}
        inSlope: {x: -1.0013406, y: 4.1083508, z: 0.72441304, w: 5.6788855}
        outSlope: {x: -1.0013406, y: 4.1083508, z: 0.72441304, w: 5.6788855}
        tangentMode: 1
      - serializedVersion: 2
        time: 1.7833323
        value: {x: -0.117752604, y: -0.7237946, z: -0.12762454, w: 0.6678081}
        inSlope: {x: -0.93211544, y: 4.8937416, z: 0.86289877, w: 5.286287}
        outSlope: {x: -0.93211544, y: 4.8937416, z: 0.86289877, w: 5.286287}
        tangentMode: 1
      - serializedVersion: 2
        time: 1.799999
        value: {x: -0.13262069, y: -0.63572633, z: -0.11209573, w: 0.75212914}
        inSlope: {x: -0.84069073, y: 5.6601534, z: 0.9980382, w: 4.7677917}
        outSlope: {x: -0.84069073, y: 5.6601534, z: 0.9980382, w: 4.7677917}
        tangentMode: 1
      - serializedVersion: 2
        time: 1.8166656
        value: {x: -0.1457756, y: -0.535123, z: -0.09435663, w: 0.82673436}
        inSlope: {x: -0.7262387, y: 6.387088, z: 1.1262162, w: 4.1187057}
        outSlope: {x: -0.7262387, y: 6.387088, z: 1.1262162, w: 4.1187057}
        tangentMode: 1
      - serializedVersion: 2
        time: 1.8333323
        value: {x: -0.15682863, y: -0.4228236, z: -0.074555226, w: 0.8894192}
        inSlope: {x: -0.58846784, y: 7.0516906, z: 1.2434034, w: 3.3373668}
        outSlope: {x: -0.58846784, y: 7.0516906, z: 1.2434034, w: 3.3373668}
        tangentMode: 1
      - serializedVersion: 2
        time: 1.849999
        value: {x: -0.16539118, y: -0.30006686, z: -0.052909892, w: 0.9379798}
        inSlope: {x: -0.42775106, y: 7.6291504, z: 1.3452255, w: 2.4258943}
        outSlope: {x: -0.42775106, y: 7.6291504, z: 1.3452255, w: 2.4258943}
        tangentMode: 1
      - serializedVersion: 2
        time: 1.8666656
        value: {x: -0.17108698, y: -0.16851883, z: -0.02971442, w: 0.97028226}
        inSlope: {x: -0.24524623, y: 8.093265, z: 1.4270611, w: 1.3908608}
        outSlope: {x: -0.24524623, y: 8.093265, z: 1.4270611, w: 1.3908608}
        tangentMode: 1
      - serializedVersion: 2
        time: 1.8833323
        value: {x: -0.17356604, y: -0.030291626, z: -0.0053412323, w: 0.9843418}
        inSlope: {x: -0.043007474, y: 8.417057, z: 1.4841546, w: 0.2439096}
        outSlope: {x: -0.043007478, y: 8.417057, z: 1.4841546, w: 0.24390958}
        tangentMode: 1
      - serializedVersion: 2
        time: 1.8999989
        value: {x: -0.17252056, y: 0.11204949, z: 0.019757353, w: 0.97841257}
        inSlope: {x: 0.1759124, y: 8.5737505, z: 1.5117838, w: -0.9976504}
        outSlope: {x: 0.1759124, y: 8.5737505, z: 1.5117838, w: -0.9976504}
        tangentMode: 1
      - serializedVersion: 2
        time: 1.9166656
        value: {x: -0.1677023, y: 0.25549978, z: 0.045051515, w: 0.9510868}
        inSlope: {x: 0.40738994, y: 8.537865, z: 1.5054562, w: -2.3104231}
        outSlope: {x: 0.40738994, y: 8.537865, z: 1.5054562, w: -2.3104231}
        tangentMode: 1
      - serializedVersion: 2
        time: 1.9333322
        value: {x: -0.15894091, y: 0.3966447, z: 0.06993918, w: 0.90139854}
        inSlope: {x: 0.6461823, y: 8.286437, z: 1.4611226, w: -3.6646824}
        outSlope: {x: 0.6461823, y: 8.286437, z: 1.4611226, w: -3.6646824}
        tangentMode: 1
      - serializedVersion: 2
        time: 1.9499989
        value: {x: -0.14616291, y: 0.5317141, z: 0.09375556, w: 0.82893085}
        inSlope: {x: 0.8859247, y: 7.8005524, z: 1.3754481, w: -5.024329}
        outSlope: {x: 0.8859247, y: 7.8005524, z: 1.3754481, w: -5.024329}
        tangentMode: 1
      - serializedVersion: 2
        time: 1.9666655
        value: {x: -0.12941012, y: 0.6566629, z: 0.11578741, w: 0.73392105}
        inSlope: {x: 1.119185, y: 7.0669355, z: 1.2460916, w: -6.3472104}
        outSlope: {x: 1.119185, y: 7.0669355, z: 1.2460916, w: -6.3472104}
        tangentMode: 1
      - serializedVersion: 2
        time: 1.9833322
        value: {x: -0.10885678, y: 0.7672784, z: 0.1352919, w: 0.6173574}
        inSlope: {x: 1.337586, y: 6.0796547, z: 1.0720073, w: -7.5858254}
        outSlope: {x: 1.337586, y: 6.0796547, z: 1.0720073, w: -7.585825}
        tangentMode: 1
      - serializedVersion: 2
        time: 1.9999988
        value: {x: -0.08482396, y: 0.85931784, z: 0.15152095, w: 0.48106048}
        inSlope: {x: 1.5319929, y: 4.841771, z: 0.85373497, w: -8.688363}
        outSlope: {x: 1.5319929, y: 4.841771, z: 0.85373497, w: -8.688363}
        tangentMode: 1
      - serializedVersion: 2
        time: 2.0166655
        value: {x: -0.0577904, y: 0.9286706, z: 0.16374971, w: 0.32774556}
        inSlope: {x: 1.6927816, y: 3.3669496, z: 0.5936843, w: -9.60024}
        outSlope: {x: 1.6927816, y: 3.3669496, z: 0.5936843, w: -9.60024}
        tangentMode: 1
      - serializedVersion: 2
        time: 2.033332
        value: {x: -0.028397959, y: 0.9715494, z: 0.17131041, w: 0.1610528}
        inSlope: {x: 1.81022, y: 1.6809294, z: 0.29639333, w: -10.266265}
        outSlope: {x: 1.81022, y: 1.6809294, z: 0.29639333, w: -10.266265}
        tangentMode: 1
      - serializedVersion: 2
        time: 2.0499988
        value: {x: 0.0025502094, y: 0.9847015, z: 0.17362948, w: -0.014462953}
        inSlope: {x: 1.8749185, y: -0.17747836, z: -0.031294703, w: -10.633188}
        outSlope: {x: 1.8749185, y: -0.17747834, z: -0.031294703, w: -10.633188}
        tangentMode: 1
      - serializedVersion: 2
        time: 2.0666654
        value: {x: 0.034099262, y: 0.96563345, z: 0.17026725, w: -0.1933865}
        inSlope: {x: 1.8783586, y: -2.1558437, z: -0.3801333, w: -10.6526985}
        outSlope: {x: 1.8783585, y: -2.1558437, z: -0.3801333, w: -10.6526985}
        tangentMode: 1
      - serializedVersion: 2
        time: 2.083332
        value: {x: 0.0651621, y: 0.9128401, z: 0.16095838, w: -0.36955258}
        inSlope: {x: 1.8134856, y: -4.188163, z: -0.7384862, w: -10.284786}
        outSlope: {x: 1.8134856, y: -4.188163, z: -0.7384862, w: -10.284786}
        tangentMode: 1
      - serializedVersion: 2
        time: 2.0999987
        value: {x: 0.094548725, y: 0.82602817, z: 0.14565107, w: -0.5362124}
        inSlope: {x: 1.6753894, y: -6.195853, z: -1.0924963, w: -9.501603}
        outSlope: {x: 1.6753894, y: -6.195853, z: -1.0924963, w: -9.501603}
        tangentMode: 1
      - serializedVersion: 2
        time: 2.1166654
        value: {x: 0.12100836, y: 0.7063119, z: 0.12454187, w: -0.6862724}
        inSlope: {x: 1.4619665, y: -8.089689, z: -1.4264305, w: -8.291222}
        outSlope: {x: 1.4619665, y: -8.089689, z: -1.4264305, w: -8.291222}
        tangentMode: 1
      - serializedVersion: 2
        time: 2.133332
        value: {x: 0.1432809, y: 0.5563721, z: 0.098103434, w: -0.8125862}
        inSlope: {x: 1.1745245, y: -9.77265, z: -1.7231822, w: -6.6610575}
        outSlope: {x: 1.1745245, y: -9.77265, z: -1.7231822, w: -6.6610575}
        tangentMode: 1
      - serializedVersion: 2
        time: 2.1499987
        value: {x: 0.16015914, y: 0.3805572, z: 0.06710252, w: -0.90830743}
        inSlope: {x: 0.81837535, y: -11.144111, z: -1.9650079, w: -4.6412363}
        outSlope: {x: 0.81837535, y: -11.144111, z: -1.9650078, w: -4.6412363}
        tangentMode: 1
      - serializedVersion: 2
        time: 2.1666653
        value: {x: 0.17056005, y: 0.1849021, z: 0.032603234, w: -0.9672939}
        inSlope: {x: 0.403258, y: -12.105113, z: -2.1344585, w: -2.2869895}
        outSlope: {x: 0.403258, y: -12.105113, z: -2.1344585, w: -2.2869895}
        tangentMode: 1
      - serializedVersion: 2
        time: 2.183332
        value: {x: 0.17360106, y: -0.022946162, z: -0.0040460285, w: -0.98454034}
        inSlope: {x: -0.056444447, y: -12.564629, z: -2.2154837, w: 0.320113}
        outSlope: {x: -0.05644445, y: -12.564629, z: -2.2154837, w: 0.320113}
        tangentMode: 1
      - serializedVersion: 2
        time: 2.1999986
        value: {x: 0.16867857, y: -0.23391846, z: -0.041246142, w: -0.9566235}
        inSlope: {x: -0.5417576, y: -12.446745, z: -2.1946976, w: 3.072459}
        outSlope: {x: -0.5417576, y: -12.446745, z: -2.1946976, w: 3.072459}
        tangentMode: 1
      - serializedVersion: 2
        time: 2.2166653
        value: {x: 0.1555425, y: -0.43783727, z: -0.07720254, w: -0.88212514}
        inSlope: {x: -1.0294971, y: -11.698104, z: -2.062692, w: 5.838567}
        outSlope: {x: -1.0294971, y: -11.698104, z: -2.062692, w: 5.838567}
        tangentMode: 1
      - serializedVersion: 2
        time: 2.233332
        value: {x: 0.13436203, y: -0.6238549, z: -0.11000247, w: -0.7620048}
        inSlope: {x: -1.4930303, y: -10.295479, z: -1.8153708, w: 8.467394}
        outSlope: {x: -1.4930303, y: -10.295479, z: -1.8153708, w: 8.467394}
        tangentMode: 1
      - serializedVersion: 2
        time: 2.2499986
        value: {x: 0.105774865, y: -0.78101957, z: -0.13771485, w: -0.59987897}
        inSlope: {x: -1.9034578, y: -8.252765, z: -1.4551852, w: 10.795044}
        outSlope: {x: -1.9034579, y: -8.252765, z: -1.4551852, w: 10.795044}
        tangentMode: 1
      - serializedVersion: 2
        time: 2.2666652
        value: {x: 0.07091349, y: -0.89894676, z: -0.1585086, w: -0.40217033}
        inSlope: {x: -2.23123, y: -5.626602, z: -0.9921219, w: 12.653933}
        outSlope: {x: -2.23123, y: -5.626602, z: -0.9921219, w: 12.653933}
        tangentMode: 1
      - serializedVersion: 2
        time: 2.2833319
        value: {x: 0.031400602, y: -0.9685728, z: -0.17078555, w: -0.17808163}
        inSlope: {x: -2.448131, y: -2.5197875, z: -0.44430655, w: 13.88404}
        outSlope: {x: -2.448131, y: -2.5197875, z: -0.44430655, w: 13.88404}
        tangentMode: 1
      - serializedVersion: 2
        time: 2.2999985
        value: {x: -0.010690805, y: -0.9829396, z: -0.1733188, w: 0.060630552}
        inSlope: {x: -2.5295782, y: 0.9182641, z: 0.16191483, w: 14.345949}
        outSlope: {x: -2.5295782, y: 0.9182641, z: 0.16191483, w: 14.345949}
        tangentMode: 1
      - serializedVersion: 2
        time: 2.3166652
        value: {x: -0.052918598, y: -0.937964, z: -0.16538839, w: 0.3001162}
        inSlope: {x: -2.4571004, y: 4.494611, z: 0.79252106, w: 13.934906}
        outSlope: {x: -2.4571004, y: 4.494611, z: 0.79252106, w: 13.934906}
        tangentMode: 1
      - serializedVersion: 2
        time: 2.3333318
        value: {x: -0.09259407, y: -0.8331194, z: -0.14690146, w: 0.525127}
        inSlope: {x: -2.2208414, y: 7.980386, z: 1.4071572, w: 12.595016}
        outSlope: {x: -2.2208414, y: 7.980386, z: 1.4071572, w: 12.595016}
        tangentMode: 1
      - serializedVersion: 2
        time: 2.3499985
        value: {x: -0.12694657, y: -0.6719514, z: -0.11848319, w: 0.71994966}
        inSlope: {x: -1.8217819, y: 11.122899, z: 1.9612677, w: 10.331835}
        outSlope: {x: -1.8217819, y: 11.122899, z: 1.9612677, w: 10.331835}
        tangentMode: 1
      - serializedVersion: 2
        time: 2.3666666
        value: {x: -0.15332234, y: -0.46233845, z: -0.081522755, w: 0.869534}
        inSlope: {x: -1.5824119, y: 12.57571, z: 2.217438, w: 8.974299}
        outSlope: {x: 0, y: 0, z: 0, w: 0}
        tangentMode: 1
      m_PreInfinity: 2
      m_PostInfinity: 2
      m_RotationOrder: 4
    path:
  m_CompressedRotationCurves: []
  m_EulerCurves: []
  m_PositionCurves:
  - curve:
      serializedVersion: 2
      m_Curve:
      - serializedVersion: 2
        time: 0
        value: {x: 156, y: 96, z: -300}
        inSlope: {x: 0, y: 0, z: 0}
        outSlope: {x: -137.64706, y: -84.70588, z: 0}
        tangentMode: 1
      - serializedVersion: 2
        time: 1.1333333
        value: {x: 0, y: 0, z: -300}
        inSlope: {x: 0, y: 0, z: 0}
        outSlope: {x: 0, y: 0, z: 0}
        tangentMode: 1
      m_PreInfinity: 2
      m_PostInfinity: 2
      m_RotationOrder: 4
    path:
  m_ScaleCurves:
  - curve:
      serializedVersion: 2
      m_Curve:
      - serializedVersion: 2
        time: 0
        value: {x: 40, y: 40, z: 40}
        inSlope: {x: 0, y: 0, z: 0}
        outSlope: {x: 10.169492, y: 10.169492, z: 10.169492}
        tangentMode: 1
      - serializedVersion: 2
        time: 0.98333335
        value: {x: 50, y: 50, z: 50}
        inSlope: {x: 0, y: 0, z: 0}
        outSlope: {x: 0, y: 0, z: 0}
        tangentMode: 1
      - serializedVersion: 2
        time: 2.1166666
        value: {x: 50, y: 50, z: 50}
        inSlope: {x: 0, y: 0, z: 0}
        outSlope: {x: 0, y: 0, z: 0}
        tangentMode: 1
      - serializedVersion: 2
        time: 2.3666666
        value: {x: 0, y: 0, z: 0}
        inSlope: {x: -78.48395, y: -79.918884, z: -76.141174}
        outSlope: {x: 0, y: 0, z: 0}
        tangentMode: 1
      m_PreInfinity: 2
      m_PostInfinity: 2
      m_RotationOrder: 4
    path:
  m_FloatCurves: []
  m_PPtrCurves: []
  m_SampleRate: 60
  m_WrapMode: 0
  m_Bounds:
    m_Center: {x: 0, y: 0, z: 0}
    m_Extent: {x: 0, y: 0, z: 0}
  m_ClipBindingConstant:
    genericBindings:
    - serializedVersion: 2
      path: 0
      attribute: 1
      script: {fileID: 0}
      typeID: 4
      customType: 0
      isPPtrCurve: 0
    - serializedVersion: 2
      path: 0
      attribute: 2
      script: {fileID: 0}
      typeID: 4
      customType: 0
      isPPtrCurve: 0
    - serializedVersion: 2
      path: 0
      attribute: 3
      script: {fileID: 0}
      typeID: 4
      customType: 0
      isPPtrCurve: 0
    pptrCurveMapping: []
  m_AnimationClipSettings:
    serializedVersion: 2
    m_AdditiveReferencePoseClip: {fileID: 0}
    m_AdditiveReferencePoseTime: 0
    m_StartTime: 0
    m_StopTime: 2.3666666
    m_OrientationOffsetY: 0
    m_Level: 0
    m_CycleOffset: 0
    m_HasAdditiveReferencePose: 0
    m_LoopTime: 0
    m_LoopBlend: 0
    m_LoopBlendOrientation: 0
    m_LoopBlendPositionY: 0
    m_LoopBlendPositionXZ: 0
    m_KeepOriginalOrientation: 0
    m_KeepOriginalPositionY: 1
    m_KeepOriginalPositionXZ: 0
    m_HeightFromFeet: 0
    m_Mirror: 0
  m_EditorCurves: []
  m_EulerEditorCurves: []
  m_HasGenericRootTransform: 0
  m_HasMotionFloatCurves: 0
  m_GenerateMotionCurves: 0
  m_Events:
  - time: 1.4
    functionName: PlaySFXByName
    data: EI-CharUnlockBoxSpin
    objectReferenceParameter: {fileID: 0}
    floatParameter: 0
    intParameter: 0
    messageOptions: 0
  - time: 2.2333333
    functionName: ShowPrize
    data:
    objectReferenceParameter: {fileID: 0}
    floatParameter: 0
    intParameter: 0
    messageOptions: 0
  - time: 2.25
    functionName: PlaySFXByName
    data: EI-CharUnlockBoxExplode
    objectReferenceParameter: {fileID: 0}
    floatParameter: 0
    intParameter: 0
    messageOptions: 0
