%YAML 1.1
%TAG !u! tag:unity3d.com,2011:
--- !u!74 &7400000
AnimationClip:
  serializedVersion: 6
  m_ObjectHideFlags: 0
  m_PrefabParentObject: {fileID: 0}
  m_PrefabInternal: {fileID: 0}
  m_Name: Tombstone
  m_Legacy: 0
  m_Compressed: 0
  m_UseHighQualityCurve: 1
  m_RotationCurves: []
  m_CompressedRotationCurves: []
  m_EulerCurves: []
  m_PositionCurves:
  - curve:
      serializedVersion: 2
      m_Curve:
      - serializedVersion: 2
        time: 0
        value: {x: 0, y: 0, z: 0}
        inSlope: {x: 0, y: 0, z: 0}
        outSlope: {x: 0, y: 5.0117617, z: 0}
        tangentMode: 1
      - serializedVersion: 2
        time: 0.16666667
        value: {x: 0, y: 0.83529365, z: 0}
        inSlope: {x: 0, y: -1.0802436, z: 0}
        outSlope: {x: -0, y: -0, z: -0}
        tangentMode: 1
      - serializedVersion: 2
        time: 0.2
        value: {x: 0, y: 0.83529365, z: 0}
        inSlope: {x: 0, y: 0, z: 0}
        outSlope: {x: 0, y: -1.0802433, z: 0}
        tangentMode: 1
      - serializedVersion: 2
        time: 0.28333333
        value: {x: 0, y: 0, z: 0}
        inSlope: {x: 0, y: -5.4168096, z: 0}
        outSlope: {x: 0, y: 2.7599998, z: 0}
        tangentMode: 1
      - serializedVersion: 2
        time: 0.36666667
        value: {x: 0, y: 0.23, z: 0}
        inSlope: {x: 0, y: 1.7881392E-07, z: 0}
        outSlope: {x: 0, y: 0, z: 0}
        tangentMode: 1
      - serializedVersion: 2
        time: 0.45
        value: {x: 0, y: 0, z: 0}
        inSlope: {x: 0, y: -2.7600005, z: 0}
        outSlope: {x: 0, y: 0, z: 0}
        tangentMode: 1
      m_PreInfinity: 2
      m_PostInfinity: 2
      m_RotationOrder: 4
    path:
  m_ScaleCurves:
  - curve:
      serializedVersion: 2
      m_Curve:
      - serializedVersion: 2
        time: 0
        value: {x: 0.02391076, y: 0.02391076, z: 0.02391076}
        inSlope: {x: 0, y: 0, z: 0}
        outSlope: {x: 6.5886025, y: 0, z: 6.5886025}
        tangentMode: 1
      - serializedVersion: 2
        time: 0.083333336
        value: {x: 0.572961, y: 0.062766194, z: 0.572961}
        inSlope: {x: 5.8565354, y: 0.67777723, z: 5.8565354}
        outSlope: {x: 5.8565354, y: 0.6777773, z: 5.8565354}
        tangentMode: 1
      - serializedVersion: 2
        time: 0.16666667
        value: {x: 1, y: 1.1, z: 1}
        inSlope: {x: 2.5622342, y: 6.223403, z: 2.5622342}
        outSlope: {x: -0, y: -0, z: -0}
        tangentMode: 1
      - serializedVersion: 2
        time: 0.2
        value: {x: 1, y: 1.1, z: 1}
        inSlope: {x: 0, y: 0, z: 0}
        outSlope: {x: 0, y: -1.7999998, z: 0}
        tangentMode: 1
      - serializedVersion: 2
        time: 0.28333333
        value: {x: 1, y: 0.8, z: 1}
        inSlope: {x: 0, y: -0.6000002, z: 0}
        outSlope: {x: 0, y: -0.6000004, z: 0}
        tangentMode: 1
      - serializedVersion: 2
        time: 0.36666667
        value: {x: 1, y: 1, z: 1}
        inSlope: {x: 0, y: 1.1999995, z: 0}
        outSlope: {x: 0, y: 1.1999998, z: 0}
        tangentMode: 1
      - serializedVersion: 2
        time: 0.45
        value: {x: 1, y: 1, z: 1}
        inSlope: {x: 0, y: 0, z: 0}
        outSlope: {x: 0, y: 0, z: 0}
        tangentMode: 1
      m_PreInfinity: 2
      m_PostInfinity: 2
      m_RotationOrder: 4
    path:
  m_FloatCurves: []
  m_PPtrCurves: []
  m_SampleRate: 60
  m_WrapMode: 0
  m_Bounds:
    m_Center: {x: 0, y: 0, z: 0}
    m_Extent: {x: 0, y: 0, z: 0}
  m_ClipBindingConstant:
    genericBindings:
    - serializedVersion: 2
      path: 0
      attribute: 1
      script: {fileID: 0}
      typeID: 4
      customType: 0
      isPPtrCurve: 0
    - serializedVersion: 2
      path: 0
      attribute: 3
      script: {fileID: 0}
      typeID: 4
      customType: 0
      isPPtrCurve: 0
    pptrCurveMapping: []
  m_AnimationClipSettings:
    serializedVersion: 2
    m_AdditiveReferencePoseClip: {fileID: 0}
    m_AdditiveReferencePoseTime: 0
    m_StartTime: 0
    m_StopTime: 0.45
    m_OrientationOffsetY: 0
    m_Level: 0
    m_CycleOffset: 0
    m_HasAdditiveReferencePose: 0
    m_LoopTime: 0
    m_LoopBlend: 0
    m_LoopBlendOrientation: 0
    m_LoopBlendPositionY: 0
    m_LoopBlendPositionXZ: 0
    m_KeepOriginalOrientation: 0
    m_KeepOriginalPositionY: 1
    m_KeepOriginalPositionXZ: 0
    m_HeightFromFeet: 0
    m_Mirror: 0
  m_EditorCurves: []
  m_EulerEditorCurves: []
  m_HasGenericRootTransform: 0
  m_HasMotionFloatCurves: 0
  m_GenerateMotionCurves: 0
  m_Events: []
