%YAML 1.1
%TAG !u! tag:unity3d.com,2011:
--- !u!21 &2100000
Material:
  serializedVersion: 6
  m_ObjectHideFlags: 0
  m_PrefabParentObject: {fileID: 0}
  m_PrefabInternal: {fileID: 0}
  m_Name: Pink
  m_Shader: {fileID: 4800000, guid: 3b1e641ebcc318f44a4a92ab18107a6b, type: 3}
  m_ShaderKeywords: _FOG_OFF _LIGHTING_RIM
  m_LightmapFlags: 5
  m_EnableInstancingVariants: 0
  m_CustomRenderQueue: -1
  stringTagMap: {}
  disabledShaderPasses: []
  m_SavedProperties:
    serializedVersion: 3
    m_TexEnvs:
    - _Cube:
        m_Texture: {fileID: 0}
        m_Scale: {x: 1, y: 1}
        m_Offset: {x: 0, y: 0}
    - _MainTex:
        m_Texture: {fileID: 2800000, guid: f529fb28eed746f40bb3ea6214a7dc98, type: 3}
        m_Scale: {x: 1, y: 1}
        m_Offset: {x: 0, y: 0}
    m_Floats:
    - _BumpScale: 1
    - _CUSTOM_EFFECTS: 0
    - _Cutoff: 0.5
    - _DetailNormalMapScale: 1
    - _DiffuseStrength: 0.1
    - _DstBlend: 0
    - _EmissionScaleUI: 0
    - _Fog: 0
    - _FogMaxHeight: 0
    - _FogMinHeight: -1
    - _Glossiness: 0.5
    - _Lighting: 0
    - _MaxLight: 1
    - _Metallic: 0
    - _MinLight: 0
    - _Mode: 0
    - _OcclusionStrength: 1
    - _Parallax: 0.02
    - _Reflect: 0
    - _ReflectionStrength: 0.1
    - _RimPower: 3
    - _SrcBlend: 1
    - _UVSec: 0
    - _ZWrite: 1
    m_Colors:
    - _Color: {r: 1, g: 1, b: 1, a: 1}
    - _EmissionColor: {r: 0, g: 0, b: 0, a: 0}
    - _EmissionColorUI: {r: 1, g: 1, b: 1, a: 1}
    - _FogColor: {r: 0.5, g: 0.5, b: 0.5, a: 1}
    - _RimColor: {r: 0.998783, g: 0.9117647, b: 1, a: 1}
