%YAML 1.1
%TAG !u! tag:unity3d.com,2011:
--- !u!90 &9000000
Avatar:
  m_ObjectHideFlags: 0
  m_PrefabParentObject: {fileID: 0}
  m_PrefabInternal: {fileID: 0}
  m_Name: BatAvatar
  m_AvatarSize: 1164
  m_Avatar:
    serializedVersion: 3
    m_AvatarSkeleton:
      data:
        m_Node:
        - m_ParentId: -1
          m_AxesId: -1
        - m_ParentId: 0
          m_AxesId: -1
        - m_ParentId: 1
          m_AxesId: -1
        - m_ParentId: 2
          m_AxesId: -1
        - m_ParentId: 2
          m_AxesId: -1
        - m_ParentId: 2
          m_AxesId: -1
        - m_ParentId: 0
          m_AxesId: -1
        m_ID:
        - 0
        - 521822810
        - 89500671
        - 1748931104
        - 4083629236
        - 2567190366
        - 2815520639
        m_AxesArray: []
    m_AvatarSkeletonPose:
      data:
        m_X:
        - t: {x: 0, y: 0, z: 0}
          q: {x: 0, y: 0, z: 0, w: 1}
          s: {x: 1, y: 1, z: 1}
        - t: {x: -0, y: -0.81170386, z: 0}
          q: {x: 0, y: -0, z: -0, w: 1}
          s: {x: 1, y: 1, z: 1}
        - t: {x: -0, y: 0.81170386, z: 0}
          q: {x: 0, y: -0, z: -0, w: 1}
          s: {x: 1, y: 1, z: 1}
        - t: {x: -0.8780259, y: -0.8893662, z: -0.033454403}
          q: {x: 0, y: -0.25881907, z: -0, w: 0.9659259}
          s: {x: 1, y: 1, z: 1}
        - t: {x: -0, y: -1.5879999, z: 0}
          q: {x: 0, y: -0, z: -0, w: 1}
          s: {x: 1, y: 1, z: 1}
        - t: {x: 0.8780259, y: -0.8893662, z: -0.033454403}
          q: {x: -4.3297806E-17, y: 0.9659259, z: 4.3297806E-17, w: -0.25881907}
          s: {x: 1, y: 1, z: 1}
        - t: {x: -0, y: 0, z: 0}
          q: {x: 0, y: -0, z: -0, w: 1}
          s: {x: 1, y: 1, z: 1}
    m_DefaultPose:
      data:
        m_X:
        - t: {x: 0, y: 0, z: 0}
          q: {x: 0, y: 0, z: 0, w: 1}
          s: {x: 1, y: 1, z: 1}
        - t: {x: -0, y: -0.81170386, z: 0}
          q: {x: 0, y: -0, z: -0, w: 1}
          s: {x: 1, y: 1, z: 1}
        - t: {x: -0, y: 0.81170386, z: 0}
          q: {x: 0, y: -0, z: -0, w: 1}
          s: {x: 1, y: 1, z: 1}
        - t: {x: -0.8780259, y: -0.8893662, z: -0.033454403}
          q: {x: 0, y: -0.25881907, z: -0, w: 0.9659259}
          s: {x: 1, y: 1, z: 1}
        - t: {x: -0, y: -1.5879999, z: 0}
          q: {x: 0, y: -0, z: -0, w: 1}
          s: {x: 1, y: 1, z: 1}
        - t: {x: 0.8780259, y: -0.8893662, z: -0.033454403}
          q: {x: -4.3297806E-17, y: 0.9659259, z: 4.3297806E-17, w: -0.25881907}
          s: {x: 1, y: 1, z: 1}
        - t: {x: -0, y: 0, z: 0}
          q: {x: 0, y: -0, z: -0, w: 1}
          s: {x: 1, y: 1, z: 1}
    m_SkeletonNameIDArray:
    - 0
    - 521822810
    - 2663775217
    - 689288359
    - 278851062
    - 3935898363
    - 2815520639
    m_Human:
      data:
        serializedVersion: 2
        m_RootX:
          t: {x: 0, y: 0, z: 0}
          q: {x: 0, y: 0, z: 0, w: 1}
          s: {x: 1, y: 1, z: 1}
        m_Skeleton:
          data:
            m_Node: []
            m_ID: []
            m_AxesArray: []
        m_SkeletonPose:
          data:
            m_X: []
        m_LeftHand:
          data:
            m_HandBoneIndex:
            - -1
            - -1
            - -1
            - -1
            - -1
            - -1
            - -1
            - -1
            - -1
            - -1
            - -1
            - -1
            - -1
            - -1
            - -1
        m_RightHand:
          data:
            m_HandBoneIndex:
            - -1
            - -1
            - -1
            - -1
            - -1
            - -1
            - -1
            - -1
            - -1
            - -1
            - -1
            - -1
            - -1
            - -1
            - -1
        m_Handles: []
        m_ColliderArray: []
        m_HumanBoneIndex:
        - -1
        - -1
        - -1
        - -1
        - -1
        - -1
        - -1
        - -1
        - -1
        - -1
        - -1
        - -1
        - -1
        - -1
        - -1
        - -1
        - -1
        - -1
        - -1
        - -1
        - -1
        - -1
        - -1
        - -1
        - -1
        m_HumanBoneMass:
        - 0.14545456
        - 0.12121213
        - 0.12121213
        - 0.048484854
        - 0.048484854
        - 0.009696971
        - 0.009696971
        - 0.030303033
        - 0.14545456
        - 0.14545456
        - 0.012121214
        - 0.048484854
        - 0.006060607
        - 0.006060607
        - 0.024242427
        - 0.024242427
        - 0.01818182
        - 0.01818182
        - 0.006060607
        - 0.006060607
        - 0.0024242427
        - 0.0024242427
        - 0
        - 0
        - 0
        m_ColliderIndex:
        - -1
        - -1
        - -1
        - -1
        - -1
        - -1
        - -1
        - -1
        - -1
        - -1
        - -1
        - -1
        - -1
        - -1
        - -1
        - -1
        - -1
        - -1
        - -1
        - -1
        - -1
        - -1
        - -1
        - -1
        - -1
        m_Scale: 1
        m_ArmTwist: 0.5
        m_ForeArmTwist: 0.5
        m_UpperLegTwist: 0.5
        m_LegTwist: 0.5
        m_ArmStretch: 0.05
        m_LegStretch: 0.05
        m_FeetSpacing: 0
        m_HasLeftHand: 0
        m_HasRightHand: 0
        m_HasTDoF: 0
    m_HumanSkeletonIndexArray: []
    m_HumanSkeletonReverseIndexArray: []
    m_RootMotionBoneIndex: -1
    m_RootMotionBoneX:
      t: {x: 0, y: 0, z: 0}
      q: {x: 0, y: 0, z: 0, w: 1}
      s: {x: 1, y: 1, z: 1}
    m_RootMotionSkeleton:
      data:
        m_Node: []
        m_ID: []
        m_AxesArray: []
    m_RootMotionSkeletonPose:
      data:
        m_X: []
    m_RootMotionSkeletonIndexArray: []
  m_TOS:
  - 0:
  - 89500671: Main/Feet
  - 521822810: Main
  - 1748931104: Main/Feet/LeftWing
  - 2567190366: Main/Feet/RightWing
  - 2815520639: Bat
  - 4083629236: Main/Feet/Ears
