%YAML 1.1
%TAG !u! tag:unity3d.com,2011:
--- !u!213 &21300000
Sprite:
  m_ObjectHideFlags: 0
  m_PrefabParentObject: {fileID: 0}
  m_PrefabInternal: {fileID: 0}
  m_Name: 8BitMap
  m_Rect:
    serializedVersion: 2
    x: 870.01294
    y: 619.006
    width: 58.910965
    height: 61.917908
  m_Offset: {x: 2.5316045, y: -0.9649245}
  m_Border: {x: 0, y: 0, z: 0, w: 0}
  m_PixelsToUnits: 25
  m_Pivot: {x: 0.5429734, y: 0.48441607}
  m_Extrude: 1
  m_IsPolygon: 0
  m_AtlasName:
  m_PackingTag:
  m_RD:
    texture: {fileID: 2800000, guid: 89d9a20444f180b488163d161892d2e1, type: 3}
    alphaTexture: {fileID: 0}
    m_SubMeshes:
    - serializedVersion: 2
      firstByte: 0
      indexCount: 15
      topology: 0
      firstVertex: 0
      vertexCount: 7
      localAABB:
        m_Center: {x: 0, y: 0, z: 0}
        m_Extent: {x: 0, y: 0, z: 0}
    m_IndexBuffer: 060005000400000004000500030004000000010003000000020001000000
    m_VertexData:
      m_CurrentChannels: 9
      m_VertexCount: 7
      m_Channels:
      - stream: 0
        offset: 0
        format: 0
        dimension: 3
      - stream: 0
        offset: 0
        format: 0
        dimension: 0
      - stream: 0
        offset: 0
        format: 0
        dimension: 0
      - stream: 0
        offset: 12
        format: 0
        dimension: 2
      - stream: 0
        offset: 0
        format: 0
        dimension: 0
      - stream: 0
        offset: 0
        format: 0
        dimension: 0
      - stream: 0
        offset: 0
        format: 0
        dimension: 0
      - stream: 0
        offset: 0
        format: 0
        dimension: 0
      m_DataSize: 140
      _typelessdata: 713d8a3f0ad7a33f0000000000000000000000009a9919bf9a9999bf000000000000000000000000713d8a3f8fc2f5be000000000000000000000000713d8abf9a9999bf000000000000000000000000e17a94bf713d8abf0000000000000000000000000ad7a3bf0ad7a33f0000000000000000000000000ad7a3bf295c0f3f000000000000000000000000
    textureRect:
      serializedVersion: 2
      x: 870.01294
      y: 619.006
      width: 58.910965
      height: 61.917908
    textureRectOffset: {x: 0, y: 0}
    atlasRectOffset: {x: 870, y: 617}
    settingsRaw: 67
    uvTransform: {x: 25, y: 902, z: 25, w: 649}
