%YAML 1.1
%TAG !u! tag:unity3d.com,2011:
--- !u!213 &21300000
Sprite:
  m_ObjectHideFlags: 0
  m_PrefabParentObject: {fileID: 0}
  m_PrefabInternal: {fileID: 0}
  m_Name: backArrow
  m_Rect:
    serializedVersion: 2
    x: 123.011116
    y: 206.03629
    width: 63.91276
    height: 48.936962
  m_Offset: {x: 0.032502633, y: 0.49523497}
  m_Border: {x: 0, y: 0, z: 0, w: 0}
  m_PixelsToUnits: 50
  m_Pivot: {x: 0.50050855, y: 0.51011986}
  m_Extrude: 1
  m_IsPolygon: 0
  m_AtlasName:
  m_PackingTag:
  m_RD:
    texture: {fileID: 2800000, guid: 89d9a20444f180b488163d161892d2e1, type: 3}
    alphaTexture: {fileID: 0}
    m_SubMeshes:
    - serializedVersion: 2
      firstByte: 0
      indexCount: 15
      topology: 0
      firstVertex: 0
      vertexCount: 7
      localAABB:
        m_Center: {x: 0, y: 0, z: 0}
        m_Extent: {x: 0, y: 0, z: 0}
    m_IndexBuffer: 060005000400030004000500010004000300000001000300020001000000
    m_VertexData:
      m_CurrentChannels: 9
      m_VertexCount: 7
      m_Channels:
      - stream: 0
        offset: 0
        format: 0
        dimension: 3
      - stream: 0
        offset: 0
        format: 0
        dimension: 0
      - stream: 0
        offset: 0
        format: 0
        dimension: 0
      - stream: 0
        offset: 12
        format: 0
        dimension: 2
      - stream: 0
        offset: 0
        format: 0
        dimension: 0
      - stream: 0
        offset: 0
        format: 0
        dimension: 0
      - stream: 0
        offset: 0
        format: 0
        dimension: 0
      - stream: 0
        offset: 0
        format: 0
        dimension: 0
      m_DataSize: 140
      _typelessdata: 0ad7233d8fc2f53e0000000000000000000000000ad7233f000000bf0000000000000000000000000ad7233f0ad7a3bc0000000000000000000000000ad7a3be8fc2f53e0000000000000000000000003d0ad7be000000bf0000000000000000000000000ad723bf8fc2753d0000000000000000000000000ad723bfcdcc4cbe000000000000000000000000
    textureRect:
      serializedVersion: 2
      x: 123.011116
      y: 206.03629
      width: 63.91276
      height: 48.936962
    textureRectOffset: {x: 0, y: 0}
    atlasRectOffset: {x: 123, y: 199}
    settingsRaw: 67
    uvTransform: {x: 50, y: 155, z: 50, w: 231}
