%YAML 1.1
%TAG !u! tag:unity3d.com,2011:
--- !u!213 &21300000
Sprite:
  m_ObjectHideFlags: 0
  m_PrefabParentObject: {fileID: 0}
  m_PrefabInternal: {fileID: 0}
  m_Name: Cheese
  m_Rect:
    serializedVersion: 2
    x: 708.0761
    y: 181.05972
    width: 54.847755
    height: 49.86415
  m_Offset: {x: 0.5000016, y: 1.0081958}
  m_Border: {x: 0, y: 0, z: 0, w: 0}
  m_PixelsToUnits: 25
  m_Pivot: {x: 0.5091162, y: 0.52021885}
  m_Extrude: 1
  m_IsPolygon: 0
  m_AtlasName:
  m_PackingTag:
  m_RD:
    texture: {fileID: 2800000, guid: 89d9a20444f180b488163d161892d2e1, type: 3}
    alphaTexture: {fileID: 0}
    m_SubMeshes:
    - serializedVersion: 2
      firstByte: 0
      indexCount: 15
      topology: 0
      firstVertex: 0
      vertexCount: 7
      localAABB:
        m_Center: {x: 0, y: 0, z: 0}
        m_Extent: {x: 0, y: 0, z: 0}
    m_IndexBuffer: 060005000400000004000500030004000000010003000000020001000000
    m_VertexData:
      m_CurrentChannels: 9
      m_VertexCount: 7
      m_Channels:
      - stream: 0
        offset: 0
        format: 0
        dimension: 3
      - stream: 0
        offset: 0
        format: 0
        dimension: 0
      - stream: 0
        offset: 0
        format: 0
        dimension: 0
      - stream: 0
        offset: 12
        format: 0
        dimension: 2
      - stream: 0
        offset: 0
        format: 0
        dimension: 0
      - stream: 0
        offset: 0
        format: 0
        dimension: 0
      - stream: 0
        offset: 0
        format: 0
        dimension: 0
      - stream: 0
        offset: 0
        format: 0
        dimension: 0
      m_DataSize: 140
      _typelessdata: 3d0a573f8fc2753f000000000000000000000000713d8a3f0ad723bf000000000000000000000000713d8a3fae47613f0000000000000000000000000ad7233db81e85bf0000000000000000000000008fc275bfb81e85bf000000000000000000000000295c8fbf8fc2753f000000000000000000000000295c8fbfcdcc4cbf000000000000000000000000
    textureRect:
      serializedVersion: 2
      x: 708.0761
      y: 181.05972
      width: 54.847755
      height: 49.86415
    textureRectOffset: {x: 0, y: 0}
    atlasRectOffset: {x: 704, y: 175}
    settingsRaw: 67
    uvTransform: {x: 25, y: 736, z: 25, w: 207}
