%YAML 1.1
%TAG !u! tag:unity3d.com,2011:
--- !u!213 &21300000
Sprite:
  m_ObjectHideFlags: 0
  m_PrefabParentObject: {fileID: 0}
  m_PrefabInternal: {fileID: 0}
  m_Name: Scarab
  m_Rect:
    serializedVersion: 2
    x: 401.0761
    y: 559.0639
    width: 47.887596
    height: 61.916317
  m_Offset: {x: 3.9800825, y: -1.0220544}
  m_Border: {x: 0, y: 0, z: 0, w: 0}
  m_PixelsToUnits: 25
  m_Pivot: {x: 0.583113, y: 0.48349297}
  m_Extrude: 1
  m_IsPolygon: 0
  m_AtlasName:
  m_PackingTag:
  m_RD:
    texture: {fileID: 2800000, guid: 89d9a20444f180b488163d161892d2e1, type: 3}
    alphaTexture: {fileID: 0}
    m_SubMeshes:
    - serializedVersion: 2
      firstByte: 0
      indexCount: 12
      topology: 0
      firstVertex: 0
      vertexCount: 6
      localAABB:
        m_Center: {x: 0, y: 0, z: 0}
        m_Extent: {x: 0, y: 0, z: 0}
    m_IndexBuffer: 050004000100030001000400000001000300020001000000
    m_VertexData:
      m_CurrentChannels: 9
      m_VertexCount: 6
      m_Channels:
      - stream: 0
        offset: 0
        format: 0
        dimension: 3
      - stream: 0
        offset: 0
        format: 0
        dimension: 0
      - stream: 0
        offset: 0
        format: 0
        dimension: 0
      - stream: 0
        offset: 12
        format: 0
        dimension: 2
      - stream: 0
        offset: 0
        format: 0
        dimension: 0
      - stream: 0
        offset: 0
        format: 0
        dimension: 0
      - stream: 0
        offset: 0
        format: 0
        dimension: 0
      - stream: 0
        offset: 0
        format: 0
        dimension: 0
      m_DataSize: 120
      _typelessdata: 0ad7a33e0ad7a33f000000000000000000000000cdcc4c3f9a9999bf000000000000000000000000cdcc4c3fcdcc4c3f000000000000000000000000b81e85bf0ad7a33f000000000000000000000000295c8fbf9a99993f000000000000000000000000295c8fbf9a9999bf000000000000000000000000
    textureRect:
      serializedVersion: 2
      x: 401.0761
      y: 559.0639
      width: 47.887596
      height: 61.916317
    textureRectOffset: {x: 0, y: 0}
    atlasRectOffset: {x: 397, y: 557}
    settingsRaw: 67
    uvTransform: {x: 25, y: 429, z: 25, w: 589}
