%YAML 1.1
%TAG !u! tag:unity3d.com,2011:
--- !u!1045 &1
EditorBuildSettings:
  serializedVersion: 2
  m_ObjectHideFlags: 0
  m_Scenes:
  - enabled: 1
    path: Assets/Loading.unity
    guid: 77c92669717b70b4bab1e76a1bc89a6d
  - enabled: 1
    path: Assets/Main.unity
    guid: 2e37edac5738e824bb1037d21f70a458
