%YAML 1.1
%TAG !u! tag:unity3d.com,2011:
--- !u!1001 &100100000
Prefab:
  serializedVersion: 2
  m_ObjectHideFlags: 0
  m_Modification:
    m_TransformParent: {fileID: 0}
    m_Modifications: []
    m_RemovedComponents: []
  m_ParentPrefab: {fileID: 0}
  m_RootGameObject: {fileID: 1443761262034085}
  m_IsPrefabParent: 1
--- !u!1 &1443761262034085
GameObject:
  serializedVersion: 5
  m_ObjectHideFlags: 0
  m_PrefabParentObject: {fileID: 0}
  m_PrefabInternal: {fileID: 100100000}
  m_Component:
  - component: {fileID: 4136497138339986}
  - component: {fileID: 114700707232634328}
  m_Layer: 0
  m_Name: Coven3
  m_TagString: Untagged
  m_Icon: {fileID: 0}
  m_NavMeshLayer: 0
  m_StaticEditorFlags: 0
  m_IsActive: 1
--- !u!4 &4136497138339986
Transform:
  m_ObjectHideFlags: 0
  m_PrefabParentObject: {fileID: 0}
  m_PrefabInternal: {fileID: 100100000}
  m_GameObject: {fileID: 1443761262034085}
  m_LocalRotation: {x: 0, y: 0, z: 0, w: 1}
  m_LocalPosition: {x: 0, y: 0, z: 0}
  m_LocalScale: {x: 1, y: 1, z: 1}
  m_Children: []
  m_Father: {fileID: 0}
  m_RootOrder: 0
  m_LocalEulerAnglesHint: {x: 0, y: -0, z: -0}
--- !u!114 &114700707232634328
MonoBehaviour:
  m_ObjectHideFlags: 0
  m_PrefabParentObject: {fileID: 0}
  m_PrefabInternal: {fileID: 100100000}
  m_GameObject: {fileID: 1443761262034085}
  m_Enabled: 1
  m_EditorHideFlags: 0
  m_Script: {fileID: 11500000, guid: 409054382c13ee7d4e9126c1b58d3c2b, type: 3}
  m_Name:
  m_EditorClassIdentifier:
  seed: 0
  m_mapsResources:
  - m_path: SetPieces/Coven3Map
    m_chance: 0
  m_dynamicTiles: []
  m_dynamicTilesValues: []
  m_sceneryDensity: 0
  m_waterSceneryDensity: 0
  m_cloudsPrefab: {fileID: 0}
  m_spawnPos: {x: 0, y: 0, z: 0}
  m_overrideTilesetGroup: {fileID: 0}
  m_onLoadComplete:
    m_PersistentCalls:
      m_Calls: []
    m_TypeName: UnityEngine.Events.UnityEvent, UnityEngine, Version=0.0.0.0, Culture=neutral, PublicKeyToken=null
  m_onUnloadComplete:
    m_PersistentCalls:
      m_Calls: []
    m_TypeName: UnityEngine.Events.UnityEvent, UnityEngine, Version=0.0.0.0, Culture=neutral, PublicKeyToken=null
  m_objectOfDesire: collectible
  m_bonusObjectsOnComplete: 5
  m_debugOptions:
    layer0Visible: 1
    layer1Visible: 1
    layer2Visible: 1
    showGridLayer0: 1
    showGridLayer1: 0
    showGridLayer2: 0
    updateHidden: 1
    reloadHidden: 1
    nextHidden: 1
    prevHidden: 1
    m_usedSeeds:
    m_seedIdx: 0
