%YAML 1.1
%TAG !u! tag:unity3d.com,2011:
--- !u!1001 &100100000
Prefab:
  serializedVersion: 2
  m_ObjectHideFlags: 0
  m_Modification:
    m_TransformParent: {fileID: 0}
    m_Modifications: []
    m_RemovedComponents: []
  m_ParentPrefab: {fileID: 0}
  m_RootGameObject: {fileID: 1176046536362066}
  m_IsPrefabParent: 1
--- !u!1 &1176046536362066
GameObject:
  serializedVersion: 5
  m_ObjectHideFlags: 0
  m_PrefabParentObject: {fileID: 0}
  m_PrefabInternal: {fileID: 100100000}
  m_Component:
  - component: {fileID: 4211862892713401}
  - component: {fileID: 114962131670143687}
  m_Layer: 0
  m_Name: EmptyTileset
  m_TagString: Untagged
  m_Icon: {fileID: 0}
  m_NavMeshLayer: 0
  m_StaticEditorFlags: 0
  m_IsActive: 1
--- !u!4 &4211862892713401
Transform:
  m_ObjectHideFlags: 0
  m_PrefabParentObject: {fileID: 0}
  m_PrefabInternal: {fileID: 100100000}
  m_GameObject: {fileID: 1176046536362066}
  m_LocalRotation: {x: 0, y: 0, z: 0, w: 1}
  m_LocalPosition: {x: 0, y: 0, z: 0}
  m_LocalScale: {x: 1, y: 1, z: 1}
  m_Children: []
  m_Father: {fileID: 0}
  m_RootOrder: 0
  m_LocalEulerAnglesHint: {x: 0, y: -0, z: -0}
--- !u!114 &114962131670143687
MonoBehaviour:
  m_ObjectHideFlags: 0
  m_PrefabParentObject: {fileID: 0}
  m_PrefabInternal: {fileID: 100100000}
  m_GameObject: {fileID: 1176046536362066}
  m_Enabled: 1
  m_EditorHideFlags: 0
  m_Script: {fileID: 11500000, guid: 48f25bf0cb197581af1e419ec939b518, type: 3}
  m_Name:
  m_EditorClassIdentifier:
  m_tilesLow: 01000000020000000300000004000000050000000600000007000000
  m_tilesLowValues:
  - {fileID: 1162560929742752, guid: 2fc3b99cf2ba19f41a1a06ae692ec9e9, type: 2}
  - {fileID: 1786868648374955, guid: 20c233f2070d42748b7fdc67b6633f25, type: 2}
  - {fileID: 1506320976182334, guid: 0b7a0489eed5f874eafcea250cacef3e, type: 2}
  - {fileID: 1876564996292607, guid: 26db480fd010add42a760d1cf146e36a, type: 2}
  - {fileID: 1639250423715118, guid: fa7e20764a469c243874bcb0af387dbe, type: 2}
  - {fileID: 1564486920814499, guid: 83483c6b98899814e97e7df20cef5179, type: 2}
  - {fileID: 1819104649305683, guid: 2442304fc7c1233498fe4b9c1b5bee6d, type: 2}
  m_tilesMid: 01000000020000000300000004000000050000000600000007000000
  m_tilesMidValues:
  - {fileID: 1174668160403725, guid: bdae7465c61694f46b041558f74d1a13, type: 2}
  - {fileID: 1866785066817853, guid: 91220caf701d79f429d4ef416dbcbe62, type: 2}
  - {fileID: 1517376475082910, guid: 05a85979ead7e4a47b389ace564fdc87, type: 2}
  - {fileID: 1316646516287424, guid: 4ad6de2036b04c74783a16162574c8d5, type: 2}
  - {fileID: 1815121838599669, guid: 172f68177e74d514e98736a18ad8d78c, type: 2}
  - {fileID: 1988768177462274, guid: 679025f72851c6d40b424e482968fb6c, type: 2}
  - {fileID: 1152742148534267, guid: dc70c17112891484ca2d8f7f1d19e094, type: 2}
  m_tilesHigh: 01000000020000000300000004000000050000000600000007000000
  m_tilesHighValues:
  - {fileID: 1518342156783233, guid: aaadc8e14eb935c459c93534a3b35e3e, type: 2}
  - {fileID: 1388442277383240, guid: 06af0d1793c356f45b95f3f2b2679f5e, type: 2}
  - {fileID: 1695921337599210, guid: 209210a6a3e469447948fb6f57c0fd14, type: 2}
  - {fileID: 1538133154267950, guid: 02245197c4d932d4eb6f2322a7484be5, type: 2}
  - {fileID: 1870731086568951, guid: b44a0b12f75a25148a2d9ea4f47513a5, type: 2}
  - {fileID: 1387383131119800, guid: a80ea87c45ee5e843bad0f2a0dc7f9be, type: 2}
  - {fileID: 1773040073597954, guid: 59b089916b9ed9f47b1127838d1fd6de, type: 2}
  m_walls:
  - type: 1
    walls:
    - {fileID: 1807960694114400, guid: d72c41c20087102499f4bb7a0f57bf3f, type: 2}
    - {fileID: 1759566277942005, guid: 96b4db95c5f907e439c3b8ae9d98ee62, type: 2}
    - {fileID: 1017167518578595, guid: 49fe93ad9d239ba42865f0ce22ba3dbf, type: 2}
    - {fileID: 1028148445581107, guid: 9a866b2b8c1b0ff4d87492844419c41e, type: 2}
    - {fileID: 1145114838831480, guid: 964f70a73d529234087f9008f1335816, type: 2}
    - {fileID: 1713519699262212, guid: caeef523b9f2ebd40ae59e7cd3b0081d, type: 2}
    - {fileID: 1659211812446451, guid: 9cd167bd5aea6154697294d58da37f09, type: 2}
  - type: 2
    walls:
    - {fileID: 1163025648841400, guid: 509d66887dbf2304d8adc465d78e5d94, type: 2}
    - {fileID: 1928791395180601, guid: 7bf9c8ffdf440ab478972f3adc8a9e41, type: 2}
    - {fileID: 1989165917390077, guid: 4abec53f9650c034b9b0fb6a0b5622bf, type: 2}
  - type: 3
    walls:
    - {fileID: 1908859894389073, guid: 56ac217a3077ea64991bdfa2d267ec2c, type: 2}
    - {fileID: 1140458651693347, guid: 92ce4f59dc9a8eb4695688a6302b3a53, type: 2}
    - {fileID: 1558966421600461, guid: 0bb727bfa2582e843a5e72c8255f0e26, type: 2}
    - {fileID: 1165002729847557, guid: 22263f201daed054b90282389a019a70, type: 2}
  - type: 4
    walls:
    - {fileID: 1503178498457795, guid: 0c077533cdceb7b49be824e4ad4c4f51, type: 2}
    - {fileID: 1241496808140423, guid: 815252843fbace74e80451f8b11fe140, type: 2}
  - type: 5
    walls:
    - {fileID: 1997429271513139, guid: 76c9b08ea1afe44438815a0d4d9c6ddf, type: 2}
    - {fileID: 1042648865768566, guid: 207f540d6db1b2a4c8c9846be3b2fce1, type: 2}
  - type: 6
    walls:
    - {fileID: 1755037283986718, guid: 0726b1a9e1e93f44f94dd02c1472779d, type: 2}
    - {fileID: 1623855198723593, guid: ae6f684a3b91c074e809fb049b40af1e, type: 2}
  - type: 7
    walls:
    - {fileID: 1549833355189753, guid: 857d42ed71bd6b74eaab767356a76227, type: 2}
  m_dynamicTileWall: {fileID: 1482932111411960, guid: 8612d0b16e03fb842b9fd77576b944d4, type: 2}
  m_water:
    waterTile: {fileID: 1599255571734431, guid: f4a3ffdace14d6742be9e0e3bac0918c, type: 2}
    waterQuater: {fileID: 1400918695555081, guid: 6542110fb22e859408341823b5bef3fd, type: 2}
    waterHalf: {fileID: 1371325704791643, guid: 4a879e13495cf48468baf4a51e044aa2, type: 2}
    wakeIn: {fileID: 1836658930817394, guid: c72e21bdf9a1d4b45b5a9c45e02ff5e0, type: 2}
    wakeOut: {fileID: 1572672862367492, guid: a20b3f811a986cd40b0332095053bb7f, type: 2}
    wakeQuater: {fileID: 1141215880576694, guid: 71cf1dd47d261d64ca0c7472c3527e6e, type: 2}
    wakeHalf: {fileID: 1080812084226417, guid: 286ff56c772754944920aa6631d364fb, type: 2}
    wakeQuaterLeft: {fileID: 1756858243747082, guid: 3d35b9a32e89c68449afedd328f69efa, type: 2}
    wakeQuaterRight: {fileID: 1759730998966406, guid: 9830f5d2c15ab0e40ac7d0a20173975d, type: 2}
    wakeQuaterHalfLeft: {fileID: 1867343531111952, guid: 4174391f79f33ec41acd0257e5565d12, type: 2}
    wakeQuaterHalfRight: {fileID: 1699586548368507, guid: 064e9dfe008c57a4990578c70288311e, type: 2}
    wakeHalfHalf: {fileID: 1807788439272347, guid: af0865422fafcd2459b5ea1c0a6681cf, type: 2}
    wakeHalfCorner: {fileID: 1583450437226457, guid: 38ec876c490d0b745804cb90c30b4f1e, type: 2}
  m_scenerySpawnChance: []
  m_scenerySpawnChanceValues:
  - 1.1
  - 1.1
  - 1.1
  - 1.1
  - 1.1
  - 0.2
  - 0.2
  - 0.2
  - 0.15
  - 0.06
  - 0.15
  - 0.05
  - 0.05
  - 0.04
  - 0.04
  - 0.1
  - 0.1
  - 0.1
  - 0.1
  - 0.1
  - 0.05
  - 0.08
  m_waterScenerySpawnChance: []
  m_waterScenerySpawnChanceValues:
  - 1
